State,DistName,AgeGroup,Population
Telangana,Adilabad,0-4,81160
Telangana,Adilabad,5-9,99619
Telangana,Adilabad,10-14,109890
Telangana,Adilabad,15-19,102149
Telangana,Adilabad,20-24,90479
Telangana,Adilabad,25-29,81999
Telangana,Adilabad,30-34,72603
Telangana,Adilabad,35-39,68801
Telangana,Adilabad,40-44,58424
Telangana,Adilabad,45-49,48101
Telangana,Adilabad,50-54,37474
Telangana,Adilabad,55-59,26049
Telangana,Adilabad,60-64,32205
Telangana,Adilabad,65-69,21615
Telangana,Adilabad,70-74,14964
Telangana,Adilabad,75-79,5751
Telangana,Adilabad,80+,6722
Telangana,Adilabad,Age not stated,27298
Telangana,Nizamabad,0-4,76131
Telangana,Nizamabad,5-9,88949
Telangana,Nizamabad,10-14,104157
Telangana,Nizamabad,15-19,95982
Telangana,Nizamabad,20-24,87810
Telangana,Nizamabad,25-29,82306
Telangana,Nizamabad,30-34,71166
Telangana,Nizamabad,35-39,71950
Telangana,Nizamabad,40-44,60576
Telangana,Nizamabad,45-49,50399
Telangana,Nizamabad,50-54,38608
Telangana,Nizamabad,55-59,27597
Telangana,Nizamabad,60-64,35283
Telangana,Nizamabad,65-69,23112
Telangana,Nizamabad,70-74,16966
Telangana,Nizamabad,75-79,6435
Telangana,Nizamabad,80+,7305
Telangana,Nizamabad,Age not stated,14105
Telangana,Karimnagar,0-4,85666
Telangana,Karimnagar,5-9,108560
Telangana,Karimnagar,10-14,143832
Telangana,Karimnagar,15-19,139024
Telangana,Karimnagar,20-24,131693
Telangana,Karimnagar,25-29,115935
Telangana,Karimnagar,30-34,99577
Telangana,Karimnagar,35-39,102072
Telangana,Karimnagar,40-44,92844
Telangana,Karimnagar,45-49,78129
Telangana,Karimnagar,50-54,62224
Telangana,Karimnagar,55-59,44298
Telangana,Karimnagar,60-64,56139
Telangana,Karimnagar,65-69,41555
Telangana,Karimnagar,70-74,36446
Telangana,Karimnagar,75-79,15135
Telangana,Karimnagar,80+,16947
Telangana,Karimnagar,Age not stated,31874
Telangana,Medak,0-4,97633
Telangana,Medak,5-9,113318
Telangana,Medak,10-14,127305
Telangana,Medak,15-19,119541
Telangana,Medak,20-24,108897
Telangana,Medak,25-29,101499
Telangana,Medak,30-34,83442
Telangana,Medak,35-39,81982
Telangana,Medak,40-44,68359
Telangana,Medak,45-49,56403
Telangana,Medak,50-54,43571
Telangana,Medak,55-59,31719
Telangana,Medak,60-64,43303
Telangana,Medak,65-69,30319
Telangana,Medak,70-74,23778
Telangana,Medak,75-79,9308
Telangana,Medak,80+,10316
Telangana,Medak,Age not stated,2113
Telangana,Hyderabad,0-4,0
Telangana,Hyderabad,5-9,0
Telangana,Hyderabad,10-14,0
Telangana,Hyderabad,15-19,0
Telangana,Hyderabad,20-24,0
Telangana,Hyderabad,25-29,0
Telangana,Hyderabad,30-34,0
Telangana,Hyderabad,35-39,0
Telangana,Hyderabad,40-44,0
Telangana,Hyderabad,45-49,0
Telangana,Hyderabad,50-54,0
Telangana,Hyderabad,55-59,0
Telangana,Hyderabad,60-64,0
Telangana,Hyderabad,65-69,0
Telangana,Hyderabad,70-74,0
Telangana,Hyderabad,75-79,0
Telangana,Hyderabad,80+,0
Telangana,Hyderabad,Age not stated,0
Telangana,Rangareddy,0-4,68822
Telangana,Rangareddy,5-9,76876
Telangana,Rangareddy,10-14,85000
Telangana,Rangareddy,15-19,83419
Telangana,Rangareddy,20-24,78989
Telangana,Rangareddy,25-29,72471
Telangana,Rangareddy,30-34,58732
Telangana,Rangareddy,35-39,57182
Telangana,Rangareddy,40-44,45858
Telangana,Rangareddy,45-49,37684
Telangana,Rangareddy,50-54,28395
Telangana,Rangareddy,55-59,21163
Telangana,Rangareddy,60-64,26376
Telangana,Rangareddy,65-69,18386
Telangana,Rangareddy,70-74,13406
Telangana,Rangareddy,75-79,5456
Telangana,Rangareddy,80+,6403
Telangana,Rangareddy,Age not stated,16395
Telangana,Mahbubnagar,0-4,158950
Telangana,Mahbubnagar,5-9,191291
Telangana,Mahbubnagar,10-14,195755
Telangana,Mahbubnagar,15-19,175218
Telangana,Mahbubnagar,20-24,160932
Telangana,Mahbubnagar,25-29,150672
Telangana,Mahbubnagar,30-34,128043
Telangana,Mahbubnagar,35-39,122228
Telangana,Mahbubnagar,40-44,102487
Telangana,Mahbubnagar,45-49,83694
Telangana,Mahbubnagar,50-54,67083
Telangana,Mahbubnagar,55-59,47651
Telangana,Mahbubnagar,60-64,58501
Telangana,Mahbubnagar,65-69,37082
Telangana,Mahbubnagar,70-74,28842
Telangana,Mahbubnagar,75-79,10979
Telangana,Mahbubnagar,80+,12653
Telangana,Mahbubnagar,Age not stated,10377
Telangana,Nalgonda,0-4,107222
Telangana,Nalgonda,5-9,127648
Telangana,Nalgonda,10-14,147078
Telangana,Nalgonda,15-19,149121
Telangana,Nalgonda,20-24,142797
Telangana,Nalgonda,25-29,128099
Telangana,Nalgonda,30-34,102179
Telangana,Nalgonda,35-39,99014
Telangana,Nalgonda,40-44,84204
Telangana,Nalgonda,45-49,71478
Telangana,Nalgonda,50-54,59494
Telangana,Nalgonda,55-59,41877
Telangana,Nalgonda,60-64,57305
Telangana,Nalgonda,65-69,41922
Telangana,Nalgonda,70-74,35131
Telangana,Nalgonda,75-79,14236
Telangana,Nalgonda,80+,16096
Telangana,Nalgonda,Age not stated,2815
Telangana,Warangal,0-4,85499
Telangana,Warangal,5-9,110945
Telangana,Warangal,10-14,141453
Telangana,Warangal,15-19,128567
Telangana,Warangal,20-24,117440
Telangana,Warangal,25-29,106424
Telangana,Warangal,30-34,90600
Telangana,Warangal,35-39,90646
Telangana,Warangal,40-44,78366
Telangana,Warangal,45-49,65264
Telangana,Warangal,50-54,52099
Telangana,Warangal,55-59,37803
Telangana,Warangal,60-64,51542
Telangana,Warangal,65-69,39408
Telangana,Warangal,70-74,32400
Telangana,Warangal,75-79,13160
Telangana,Warangal,80+,14944
Telangana,Warangal,Age not stated,4034
Telangana,Khammam,0-4,75679
Telangana,Khammam,5-9,92690
Telangana,Khammam,10-14,110725
Telangana,Khammam,15-19,111295
Telangana,Khammam,20-24,104918
Telangana,Khammam,25-29,98307
Telangana,Khammam,30-34,82241
Telangana,Khammam,35-39,81392
Telangana,Khammam,40-44,67992
Telangana,Khammam,45-49,57229
Telangana,Khammam,50-54,42026
Telangana,Khammam,55-59,29781
Telangana,Khammam,60-64,37391
Telangana,Khammam,65-69,27926
Telangana,Khammam,70-74,21268
Telangana,Khammam,75-79,8770
Telangana,Khammam,80+,10900
Telangana,Khammam,Age not stated,6251
Andhra,SRIKAKULAM,0-4,82766
Andhra,SRIKAKULAM,5-9,101141
Andhra,SRIKAKULAM,10-14,114763
Andhra,SRIKAKULAM,15-19,112613
Andhra,SRIKAKULAM,20-24,106494
Andhra,SRIKAKULAM,25-29,93539
Andhra,SRIKAKULAM,30-34,82466
Andhra,SRIKAKULAM,35-39,80168
Andhra,SRIKAKULAM,40-44,76031
Andhra,SRIKAKULAM,45-49,65011
Andhra,SRIKAKULAM,50-54,50841
Andhra,SRIKAKULAM,55-59,36493
Andhra,SRIKAKULAM,60-64,45932
Andhra,SRIKAKULAM,65-69,37475
Andhra,SRIKAKULAM,70-74,23526
Andhra,SRIKAKULAM,75-79,8619
Andhra,SRIKAKULAM,80+,7108
Andhra,SRIKAKULAM,Age not stated,1902
Andhra,Vizianagaram,0-4,68156
Andhra,Vizianagaram,5-9,81472
Andhra,Vizianagaram,10-14,92411
Andhra,Vizianagaram,15-19,88139
Andhra,Vizianagaram,20-24,82043
Andhra,Vizianagaram,25-29,74065
Andhra,Vizianagaram,30-34,67535
Andhra,Vizianagaram,35-39,68912
Andhra,Vizianagaram,40-44,64644
Andhra,Vizianagaram,45-49,55345
Andhra,Vizianagaram,50-54,43735
Andhra,Vizianagaram,55-59,32660
Andhra,Vizianagaram,60-64,40624
Andhra,Vizianagaram,65-69,28110
Andhra,Vizianagaram,70-74,15546
Andhra,Vizianagaram,75-79,5445
Andhra,Vizianagaram,80+,4529
Andhra,Vizianagaram,Age not stated,7057
Andhra,VISAKHAPATNAM,0-4,90003
Andhra,VISAKHAPATNAM,5-9,105166
Andhra,VISAKHAPATNAM,10-14,113324
Andhra,VISAKHAPATNAM,15-19,105704
Andhra,VISAKHAPATNAM,20-24,102840
Andhra,VISAKHAPATNAM,25-29,98193
Andhra,VISAKHAPATNAM,30-34,85186
Andhra,VISAKHAPATNAM,35-39,84101
Andhra,VISAKHAPATNAM,40-44,75529
Andhra,VISAKHAPATNAM,45-49,64951
Andhra,VISAKHAPATNAM,50-54,48905
Andhra,VISAKHAPATNAM,55-59,34274
Andhra,VISAKHAPATNAM,60-64,42079
Andhra,VISAKHAPATNAM,65-69,30859
Andhra,VISAKHAPATNAM,70-74,16802
Andhra,VISAKHAPATNAM,75-79,5409
Andhra,VISAKHAPATNAM,80+,4990
Andhra,VISAKHAPATNAM,Age not stated,4919
Andhra,East Godavari,0-4,138883
Andhra,East Godavari,5-9,161547
Andhra,East Godavari,10-14,176933
Andhra,East Godavari,15-19,188487
Andhra,East Godavari,20-24,194927
Andhra,East Godavari,25-29,173324
Andhra,East Godavari,30-34,150299
Andhra,East Godavari,35-39,146441
Andhra,East Godavari,40-44,132721
Andhra,East Godavari,45-49,113389
Andhra,East Godavari,50-54,89147
Andhra,East Godavari,55-59,62937
Andhra,East Godavari,60-64,73263
Andhra,East Godavari,65-69,54848
Andhra,East Godavari,70-74,37124
Andhra,East Godavari,75-79,14227
Andhra,East Godavari,80+,12735
Andhra,East Godavari,Age not stated,1061
Andhra,West Godavari,0-4,109094
Andhra,West Godavari,5-9,126535
Andhra,West Godavari,10-14,142935
Andhra,West Godavari,15-19,152575
Andhra,West Godavari,20-24,158986
Andhra,West Godavari,25-29,140574
Andhra,West Godavari,30-34,121331
Andhra,West Godavari,35-39,120014
Andhra,West Godavari,40-44,108405
Andhra,West Godavari,45-49,94208
Andhra,West Godavari,50-54,73322
Andhra,West Godavari,55-59,51227
Andhra,West Godavari,60-64,59546
Andhra,West Godavari,65-69,46104
Andhra,West Godavari,70-74,34556
Andhra,West Godavari,75-79,14020
Andhra,West Godavari,80+,12810
Andhra,West Godavari,Age not stated,771
Andhra,Krishna,0-4,92803
Andhra,Krishna,5-9,106406
Andhra,Krishna,10-14,122605
Andhra,Krishna,15-19,129625
Andhra,Krishna,20-24,130268
Andhra,Krishna,25-29,117963
Andhra,Krishna,30-34,99815
Andhra,Krishna,35-39,99694
Andhra,Krishna,40-44,92411
Andhra,Krishna,45-49,80600
Andhra,Krishna,50-54,63657
Andhra,Krishna,55-59,45667
Andhra,Krishna,60-64,49457
Andhra,Krishna,65-69,41379
Andhra,Krishna,70-74,30424
Andhra,Krishna,75-79,12614
Andhra,Krishna,80+,13774
Andhra,Krishna,Age not stated,14372
Andhra,Guntur,0-4,117768
Andhra,Guntur,5-9,137523
Andhra,Guntur,10-14,152455
Andhra,Guntur,15-19,157437
Andhra,Guntur,20-24,155810
Andhra,Guntur,25-29,146036
Andhra,Guntur,30-34,122361
Andhra,Guntur,35-39,118505
Andhra,Guntur,40-44,107753
Andhra,Guntur,45-49,94354
Andhra,Guntur,50-54,79407
Andhra,Guntur,55-59,55881
Andhra,Guntur,60-64,61292
Andhra,Guntur,65-69,44988
Andhra,Guntur,70-74,37485
Andhra,Guntur,75-79,15059
Andhra,Guntur,80+,15958
Andhra,Guntur,Age not stated,1419
Andhra,Prakasam,0-4,109669
Andhra,Prakasam,5-9,130573
Andhra,Prakasam,10-14,137031
Andhra,Prakasam,15-19,133525
Andhra,Prakasam,20-24,131486
Andhra,Prakasam,25-29,121651
Andhra,Prakasam,30-34,105158
Andhra,Prakasam,35-39,97745
Andhra,Prakasam,40-44,87528
Andhra,Prakasam,45-49,74025
Andhra,Prakasam,50-54,63243
Andhra,Prakasam,55-59,44024
Andhra,Prakasam,60-64,53051
Andhra,Prakasam,65-69,37301
Andhra,Prakasam,70-74,31360
Andhra,Prakasam,75-79,11409
Andhra,Prakasam,80+,11708
Andhra,Prakasam,Age not stated,2154
Andhra,Nellore,0-4,79573
Andhra,Nellore,5-9,91978
Andhra,Nellore,10-14,103035
Andhra,Nellore,15-19,101257
Andhra,Nellore,20-24,100231
Andhra,Nellore,25-29,94705
Andhra,Nellore,30-34,82623
Andhra,Nellore,35-39,79746
Andhra,Nellore,40-44,72078
Andhra,Nellore,45-49,62343
Andhra,Nellore,50-54,50271
Andhra,Nellore,55-59,35140
Andhra,Nellore,60-64,41379
Andhra,Nellore,65-69,28483
Andhra,Nellore,70-74,21500
Andhra,Nellore,75-79,8011
Andhra,Nellore,80+,7134
Andhra,Nellore,Age not stated,1323
Andhra,Kadapa,0-4,78765
Andhra,Kadapa,5-9,91348
Andhra,Kadapa,10-14,92486
Andhra,Kadapa,15-19,90897
Andhra,Kadapa,20-24,88088
Andhra,Kadapa,25-29,81092
Andhra,Kadapa,30-34,72412
Andhra,Kadapa,35-39,71600
Andhra,Kadapa,40-44,63974
Andhra,Kadapa,45-49,54437
Andhra,Kadapa,50-54,43573
Andhra,Kadapa,55-59,30933
Andhra,Kadapa,60-64,38326
Andhra,Kadapa,65-69,27830
Andhra,Kadapa,70-74,19249
Andhra,Kadapa,75-79,6630
Andhra,Kadapa,80+,6418
Andhra,Kadapa,Age not stated,1635
Andhra,Kurnool,0-4,131055
Andhra,Kurnool,5-9,154562
Andhra,Kurnool,10-14,164881
Andhra,Kurnool,15-19,154817
Andhra,Kurnool,20-24,141979
Andhra,Kurnool,25-29,126080
Andhra,Kurnool,30-34,108667
Andhra,Kurnool,35-39,103878
Andhra,Kurnool,40-44,89724
Andhra,Kurnool,45-49,73490
Andhra,Kurnool,50-54,57968
Andhra,Kurnool,55-59,39893
Andhra,Kurnool,60-64,44776
Andhra,Kurnool,65-69,28871
Andhra,Kurnool,70-74,20454
Andhra,Kurnool,75-79,7382
Andhra,Kurnool,80+,8038
Andhra,Kurnool,Age not stated,8054
Andhra,Anantapur,0-4,114840
Andhra,Anantapur,5-9,133384
Andhra,Anantapur,10-14,145009
Andhra,Anantapur,15-19,145504
Andhra,Anantapur,20-24,138487
Andhra,Anantapur,25-29,126087
Andhra,Anantapur,30-34,112159
Andhra,Anantapur,35-39,110712
Andhra,Anantapur,40-44,95576
Andhra,Anantapur,45-49,81268
Andhra,Anantapur,50-54,64665
Andhra,Anantapur,55-59,47273
Andhra,Anantapur,60-64,58870
Andhra,Anantapur,65-69,43587
Andhra,Anantapur,70-74,29068
Andhra,Anantapur,75-79,11449
Andhra,Anantapur,80+,12534
Andhra,Anantapur,Age not stated,18685
Andhra,Chittoor,0-4,115469
Andhra,Chittoor,5-9,127561
Andhra,Chittoor,10-14,136797
Andhra,Chittoor,15-19,135097
Andhra,Chittoor,20-24,127076
Andhra,Chittoor,25-29,122121
Andhra,Chittoor,30-34,108320
Andhra,Chittoor,35-39,107661
Andhra,Chittoor,40-44,94337
Andhra,Chittoor,45-49,87792
Andhra,Chittoor,50-54,69510
Andhra,Chittoor,55-59,54054
Andhra,Chittoor,60-64,60224
Andhra,Chittoor,65-69,43018
Andhra,Chittoor,70-74,32952
Andhra,Chittoor,75-79,14792
Andhra,Chittoor,80+,14271
Andhra,Chittoor,Age not stated,23000
Telangana,Adilabad,0-4,76096
Telangana,Adilabad,5-9,94851
Telangana,Adilabad,10-14,105607
Telangana,Adilabad,15-19,97355
Telangana,Adilabad,20-24,89053
Telangana,Adilabad,25-29,85653
Telangana,Adilabad,30-34,74658
Telangana,Adilabad,35-39,70613
Telangana,Adilabad,40-44,57179
Telangana,Adilabad,45-49,47732
Telangana,Adilabad,50-54,37405
Telangana,Adilabad,55-59,34328
Telangana,Adilabad,60-64,39143
Telangana,Adilabad,65-69,26257
Telangana,Adilabad,70-74,17297
Telangana,Adilabad,75-79,7491
Telangana,Adilabad,80+,9838
Telangana,Adilabad,Age not stated,25121
Telangana,Nizamabad,0-4,72130
Telangana,Nizamabad,5-9,85344
Telangana,Nizamabad,10-14,99674
Telangana,Nizamabad,15-19,91242
Telangana,Nizamabad,20-24,90996
Telangana,Nizamabad,25-29,88886
Telangana,Nizamabad,30-34,76534
Telangana,Nizamabad,35-39,76424
Telangana,Nizamabad,40-44,60125
Telangana,Nizamabad,45-49,51584
Telangana,Nizamabad,50-54,41886
Telangana,Nizamabad,55-59,38144
Telangana,Nizamabad,60-64,45364
Telangana,Nizamabad,65-69,28914
Telangana,Nizamabad,70-74,21197
Telangana,Nizamabad,75-79,8764
Telangana,Nizamabad,80+,12501
Telangana,Nizamabad,Age not stated,14417
Telangana,Karimnagar,0-4,80427
Telangana,Karimnagar,5-9,102157
Telangana,Karimnagar,10-14,137691
Telangana,Karimnagar,15-19,134605
Telangana,Karimnagar,20-24,126267
Telangana,Karimnagar,25-29,119122
Telangana,Karimnagar,30-34,105572
Telangana,Karimnagar,35-39,111917
Telangana,Karimnagar,40-44,89852
Telangana,Karimnagar,45-49,76584
Telangana,Karimnagar,50-54,61507
Telangana,Karimnagar,55-59,56978
Telangana,Karimnagar,60-64,71085
Telangana,Karimnagar,65-69,47680
Telangana,Karimnagar,70-74,34757
Telangana,Karimnagar,75-79,15349
Telangana,Karimnagar,80+,19900
Telangana,Karimnagar,Age not stated,31644
Telangana,Medak,0-4,93766
Telangana,Medak,5-9,107654
Telangana,Medak,10-14,121164
Telangana,Medak,15-19,108319
Telangana,Medak,20-24,104905
Telangana,Medak,25-29,104470
Telangana,Medak,30-34,84099
Telangana,Medak,35-39,85207
Telangana,Medak,40-44,62838
Telangana,Medak,45-49,55622
Telangana,Medak,50-54,45713
Telangana,Medak,55-59,43296
Telangana,Medak,60-64,51846
Telangana,Medak,65-69,34197
Telangana,Medak,70-74,23731
Telangana,Medak,75-79,10240
Telangana,Medak,80+,13660
Telangana,Medak,Age not stated,1884
Telangana,Hyderabad,0-4,0
Telangana,Hyderabad,5-9,0
Telangana,Hyderabad,10-14,0
Telangana,Hyderabad,15-19,0
Telangana,Hyderabad,20-24,0
Telangana,Hyderabad,25-29,0
Telangana,Hyderabad,30-34,0
Telangana,Hyderabad,35-39,0
Telangana,Hyderabad,40-44,0
Telangana,Hyderabad,45-49,0
Telangana,Hyderabad,50-54,0
Telangana,Hyderabad,55-59,0
Telangana,Hyderabad,60-64,0
Telangana,Hyderabad,65-69,0
Telangana,Hyderabad,70-74,0
Telangana,Hyderabad,75-79,0
Telangana,Hyderabad,80+,0
Telangana,Hyderabad,Age not stated,0
Telangana,Rangareddy,0-4,64525
Telangana,Rangareddy,5-9,73254
Telangana,Rangareddy,10-14,80378
Telangana,Rangareddy,15-19,73627
Telangana,Rangareddy,20-24,74212
Telangana,Rangareddy,25-29,73802
Telangana,Rangareddy,30-34,56977
Telangana,Rangareddy,35-39,56500
Telangana,Rangareddy,40-44,40599
Telangana,Rangareddy,45-49,36022
Telangana,Rangareddy,50-54,29088
Telangana,Rangareddy,55-59,26371
Telangana,Rangareddy,60-64,29851
Telangana,Rangareddy,65-69,19018
Telangana,Rangareddy,70-74,12918
Telangana,Rangareddy,75-79,5692
Telangana,Rangareddy,80+,7874
Telangana,Rangareddy,Age not stated,15848
Telangana,Mahbubnagar,0-4,148194
Telangana,Mahbubnagar,5-9,179141
Telangana,Mahbubnagar,10-14,184011
Telangana,Mahbubnagar,15-19,151373
Telangana,Mahbubnagar,20-24,150472
Telangana,Mahbubnagar,25-29,159367
Telangana,Mahbubnagar,30-34,127383
Telangana,Mahbubnagar,35-39,124907
Telangana,Mahbubnagar,40-44,92561
Telangana,Mahbubnagar,45-49,82333
Telangana,Mahbubnagar,50-54,67459
Telangana,Mahbubnagar,55-59,58237
Telangana,Mahbubnagar,60-64,68630
Telangana,Mahbubnagar,65-69,41717
Telangana,Mahbubnagar,70-74,29454
Telangana,Mahbubnagar,75-79,11598
Telangana,Mahbubnagar,80+,16080
Telangana,Mahbubnagar,Age not stated,9981
Telangana,Nalgonda,0-4,98872
Telangana,Nalgonda,5-9,118532
Telangana,Nalgonda,10-14,139644
Telangana,Nalgonda,15-19,133339
Telangana,Nalgonda,20-24,131118
Telangana,Nalgonda,25-29,127822
Telangana,Nalgonda,30-34,100707
Telangana,Nalgonda,35-39,104851
Telangana,Nalgonda,40-44,77839
Telangana,Nalgonda,45-49,72955
Telangana,Nalgonda,50-54,60199
Telangana,Nalgonda,55-59,57217
Telangana,Nalgonda,60-64,67584
Telangana,Nalgonda,65-69,43458
Telangana,Nalgonda,70-74,31034
Telangana,Nalgonda,75-79,12498
Telangana,Nalgonda,80+,18081
Telangana,Nalgonda,Age not stated,2836
Telangana,Warangal,0-4,78561
Telangana,Warangal,5-9,103493
Telangana,Warangal,10-14,133980
Telangana,Warangal,15-19,120117
Telangana,Warangal,20-24,110586
Telangana,Warangal,25-29,110920
Telangana,Warangal,30-34,93270
Telangana,Warangal,35-39,96967
Telangana,Warangal,40-44,73230
Telangana,Warangal,45-49,65320
Telangana,Warangal,50-54,53052
Telangana,Warangal,55-59,52631
Telangana,Warangal,60-64,63217
Telangana,Warangal,65-69,42458
Telangana,Warangal,70-74,28358
Telangana,Warangal,75-79,12456
Telangana,Warangal,80+,16535
Telangana,Warangal,Age not stated,4498
Telangana,Khammam,0-4,72761
Telangana,Khammam,5-9,89057
Telangana,Khammam,10-14,107495
Telangana,Khammam,15-19,102433
Telangana,Khammam,20-24,105534
Telangana,Khammam,25-29,102624
Telangana,Khammam,30-34,84049
Telangana,Khammam,35-39,86055
Telangana,Khammam,40-44,64960
Telangana,Khammam,45-49,55804
Telangana,Khammam,50-54,41578
Telangana,Khammam,55-59,39559
Telangana,Khammam,60-64,45556
Telangana,Khammam,65-69,30007
Telangana,Khammam,70-74,19791
Telangana,Khammam,75-79,8898
Telangana,Khammam,80+,12310
Telangana,Khammam,Age not stated,6207
Andhra,SRIKAKULAM,0-4,80079
Andhra,SRIKAKULAM,5-9,95137
Andhra,SRIKAKULAM,10-14,105184
Andhra,SRIKAKULAM,15-19,102906
Andhra,SRIKAKULAM,20-24,100135
Andhra,SRIKAKULAM,25-29,99019
Andhra,SRIKAKULAM,30-34,87531
Andhra,SRIKAKULAM,35-39,89968
Andhra,SRIKAKULAM,40-44,73835
Andhra,SRIKAKULAM,45-49,62605
Andhra,SRIKAKULAM,50-54,53187
Andhra,SRIKAKULAM,55-59,48272
Andhra,SRIKAKULAM,60-64,57772
Andhra,SRIKAKULAM,65-69,39618
Andhra,SRIKAKULAM,70-74,24780
Andhra,SRIKAKULAM,75-79,9047
Andhra,SRIKAKULAM,80+,9083
Andhra,SRIKAKULAM,Age not stated,1365
Andhra,Vizianagaram,0-4,65950
Andhra,Vizianagaram,5-9,77867
Andhra,Vizianagaram,10-14,85330
Andhra,Vizianagaram,15-19,81649
Andhra,Vizianagaram,20-24,78173
Andhra,Vizianagaram,25-29,78344
Andhra,Vizianagaram,30-34,72189
Andhra,Vizianagaram,35-39,75393
Andhra,Vizianagaram,40-44,63014
Andhra,Vizianagaram,45-49,53883
Andhra,Vizianagaram,50-54,45580
Andhra,Vizianagaram,55-59,42324
Andhra,Vizianagaram,60-64,48399
Andhra,Vizianagaram,65-69,29784
Andhra,Vizianagaram,70-74,16467
Andhra,Vizianagaram,75-79,5720
Andhra,Vizianagaram,80+,5688
Andhra,Vizianagaram,Age not stated,7381
Andhra,VISAKHAPATNAM,0-4,87750
Andhra,VISAKHAPATNAM,5-9,102534
Andhra,VISAKHAPATNAM,10-14,109898
Andhra,VISAKHAPATNAM,15-19,101483
Andhra,VISAKHAPATNAM,20-24,104322
Andhra,VISAKHAPATNAM,25-29,104145
Andhra,VISAKHAPATNAM,30-34,87799
Andhra,VISAKHAPATNAM,35-39,90369
Andhra,VISAKHAPATNAM,40-44,72870
Andhra,VISAKHAPATNAM,45-49,61759
Andhra,VISAKHAPATNAM,50-54,49678
Andhra,VISAKHAPATNAM,55-59,43399
Andhra,VISAKHAPATNAM,60-64,53028
Andhra,VISAKHAPATNAM,65-69,35075
Andhra,VISAKHAPATNAM,70-74,19193
Andhra,VISAKHAPATNAM,75-79,6434
Andhra,VISAKHAPATNAM,80+,6769
Andhra,VISAKHAPATNAM,Age not stated,4928
Andhra,East Godavari,0-4,134999
Andhra,East Godavari,5-9,155414
Andhra,East Godavari,10-14,173817
Andhra,East Godavari,15-19,175360
Andhra,East Godavari,20-24,184732
Andhra,East Godavari,25-29,174899
Andhra,East Godavari,30-34,150975
Andhra,East Godavari,35-39,154467
Andhra,East Godavari,40-44,127178
Andhra,East Godavari,45-49,108598
Andhra,East Godavari,50-54,85907
Andhra,East Godavari,55-59,75123
Andhra,East Godavari,60-64,89514
Andhra,East Godavari,65-69,58709
Andhra,East Godavari,70-74,37293
Andhra,East Godavari,75-79,14464
Andhra,East Godavari,80+,15599
Andhra,East Godavari,Age not stated,983
Andhra,West Godavari,0-4,105369
Andhra,West Godavari,5-9,121861
Andhra,West Godavari,10-14,138887
Andhra,West Godavari,15-19,141374
Andhra,West Godavari,20-24,151046
Andhra,West Godavari,25-29,141437
Andhra,West Godavari,30-34,121397
Andhra,West Godavari,35-39,127809
Andhra,West Godavari,40-44,104703
Andhra,West Godavari,45-49,90503
Andhra,West Godavari,50-54,67633
Andhra,West Godavari,55-59,61079
Andhra,West Godavari,60-64,73123
Andhra,West Godavari,65-69,51369
Andhra,West Godavari,70-74,33520
Andhra,West Godavari,75-79,14175
Andhra,West Godavari,80+,15135
Andhra,West Godavari,Age not stated,756
Andhra,Krishna,0-4,86736
Andhra,Krishna,5-9,99778
Andhra,Krishna,10-14,115410
Andhra,Krishna,15-19,114384
Andhra,Krishna,20-24,126743
Andhra,Krishna,25-29,119698
Andhra,Krishna,30-34,101392
Andhra,Krishna,35-39,108739
Andhra,Krishna,40-44,89401
Andhra,Krishna,45-49,78602
Andhra,Krishna,50-54,59485
Andhra,Krishna,55-59,53732
Andhra,Krishna,60-64,59724
Andhra,Krishna,65-69,43929
Andhra,Krishna,70-74,28773
Andhra,Krishna,75-79,12441
Andhra,Krishna,80+,16033
Andhra,Krishna,Age not stated,15204
Andhra,Guntur,0-4,111373
Andhra,Guntur,5-9,129106
Andhra,Guntur,10-14,141585
Andhra,Guntur,15-19,137629
Andhra,Guntur,20-24,153951
Andhra,Guntur,25-29,150065
Andhra,Guntur,30-34,121509
Andhra,Guntur,35-39,130082
Andhra,Guntur,40-44,103954
Andhra,Guntur,45-49,95781
Andhra,Guntur,50-54,74615
Andhra,Guntur,55-59,65079
Andhra,Guntur,60-64,72422
Andhra,Guntur,65-69,50549
Andhra,Guntur,70-74,37779
Andhra,Guntur,75-79,15656
Andhra,Guntur,80+,21167
Andhra,Guntur,Age not stated,1282
Andhra,Prakasam,0-4,102902
Andhra,Prakasam,5-9,121356
Andhra,Prakasam,10-14,127744
Andhra,Prakasam,15-19,111782
Andhra,Prakasam,20-24,124095
Andhra,Prakasam,25-29,124891
Andhra,Prakasam,30-34,101713
Andhra,Prakasam,35-39,102357
Andhra,Prakasam,40-44,81829
Andhra,Prakasam,45-49,74938
Andhra,Prakasam,50-54,60782
Andhra,Prakasam,55-59,53730
Andhra,Prakasam,60-64,61002
Andhra,Prakasam,65-69,40961
Andhra,Prakasam,70-74,31145
Andhra,Prakasam,75-79,11996
Andhra,Prakasam,80+,14925
Andhra,Prakasam,Age not stated,2077
Andhra,Nellore,0-4,74546
Andhra,Nellore,5-9,86551
Andhra,Nellore,10-14,94078
Andhra,Nellore,15-19,89145
Andhra,Nellore,20-24,99076
Andhra,Nellore,25-29,97107
Andhra,Nellore,30-34,82749
Andhra,Nellore,35-39,83577
Andhra,Nellore,40-44,68650
Andhra,Nellore,45-49,60447
Andhra,Nellore,50-54,49272
Andhra,Nellore,55-59,41978
Andhra,Nellore,60-64,47119
Andhra,Nellore,65-69,30656
Andhra,Nellore,70-74,21437
Andhra,Nellore,75-79,8269
Andhra,Nellore,80+,9183
Andhra,Nellore,Age not stated,1277
Andhra,Kadapa,0-4,72629
Andhra,Kadapa,5-9,83786
Andhra,Kadapa,10-14,87719
Andhra,Kadapa,15-19,80606
Andhra,Kadapa,20-24,83346
Andhra,Kadapa,25-29,84690
Andhra,Kadapa,30-34,71422
Andhra,Kadapa,35-39,73683
Andhra,Kadapa,40-44,58073
Andhra,Kadapa,45-49,51903
Andhra,Kadapa,50-54,41248
Andhra,Kadapa,55-59,38808
Andhra,Kadapa,60-64,45405
Andhra,Kadapa,65-69,31007
Andhra,Kadapa,70-74,20433
Andhra,Kadapa,75-79,7841
Andhra,Kadapa,80+,9935
Andhra,Kadapa,Age not stated,1110
Andhra,Kurnool,0-4,124075
Andhra,Kurnool,5-9,145832
Andhra,Kurnool,10-14,154373
Andhra,Kurnool,15-19,134285
Andhra,Kurnool,20-24,134661
Andhra,Kurnool,25-29,131966
Andhra,Kurnool,30-34,106737
Andhra,Kurnool,35-39,106544
Andhra,Kurnool,40-44,81131
Andhra,Kurnool,45-49,71171
Andhra,Kurnool,50-54,55139
Andhra,Kurnool,55-59,48692
Andhra,Kurnool,60-64,54493
Andhra,Kurnool,65-69,34816
Andhra,Kurnool,70-74,24170
Andhra,Kurnool,75-79,9518
Andhra,Kurnool,80+,12963
Andhra,Kurnool,Age not stated,9042
Andhra,Anantapur,0-4,106995
Andhra,Anantapur,5-9,125189
Andhra,Anantapur,10-14,133996
Andhra,Anantapur,15-19,129414
Andhra,Anantapur,20-24,129751
Andhra,Anantapur,25-29,133951
Andhra,Anantapur,30-34,109592
Andhra,Anantapur,35-39,111979
Andhra,Anantapur,40-44,85584
Andhra,Anantapur,45-49,77332
Andhra,Anantapur,50-54,62999
Andhra,Anantapur,55-59,56823
Andhra,Anantapur,60-64,63963
Andhra,Anantapur,65-69,42906
Andhra,Anantapur,70-74,28340
Andhra,Anantapur,75-79,12043
Andhra,Anantapur,80+,16560
Andhra,Anantapur,Age not stated,18863
Andhra,Chittoor,0-4,107817
Andhra,Chittoor,5-9,119883
Andhra,Chittoor,10-14,127877
Andhra,Chittoor,15-19,121649
Andhra,Chittoor,20-24,127433
Andhra,Chittoor,25-29,129561
Andhra,Chittoor,30-34,108450
Andhra,Chittoor,35-39,113506
Andhra,Chittoor,40-44,91675
Andhra,Chittoor,45-49,86228
Andhra,Chittoor,50-54,68830
Andhra,Chittoor,55-59,60985
Andhra,Chittoor,60-64,67449
Andhra,Chittoor,65-69,47438
Andhra,Chittoor,70-74,32904
Andhra,Chittoor,75-79,15155
Andhra,Chittoor,80+,18666
Andhra,Chittoor,Age not stated,23120
Telangana,Adilabad,0-4,26662
Telangana,Adilabad,5-9,32399
Telangana,Adilabad,10-14,38910
Telangana,Adilabad,15-19,40735
Telangana,Adilabad,20-24,41059
Telangana,Adilabad,25-29,35623
Telangana,Adilabad,30-34,29037
Telangana,Adilabad,35-39,27042
Telangana,Adilabad,40-44,24672
Telangana,Adilabad,45-49,22189
Telangana,Adilabad,50-54,17355
Telangana,Adilabad,55-59,11994
Telangana,Adilabad,60-64,9368
Telangana,Adilabad,65-69,5957
Telangana,Adilabad,70-74,4092
Telangana,Adilabad,75-79,1746
Telangana,Adilabad,80+,2175
Telangana,Adilabad,Age not stated,13279
Telangana,Nizamabad,0-4,23583
Telangana,Nizamabad,5-9,27487
Telangana,Nizamabad,10-14,30942
Telangana,Nizamabad,15-19,29159
Telangana,Nizamabad,20-24,28619
Telangana,Nizamabad,25-29,26939
Telangana,Nizamabad,30-34,23191
Telangana,Nizamabad,35-39,22341
Telangana,Nizamabad,40-44,19763
Telangana,Nizamabad,45-49,15480
Telangana,Nizamabad,50-54,11291
Telangana,Nizamabad,55-59,8559
Telangana,Nizamabad,60-64,8247
Telangana,Nizamabad,65-69,5220
Telangana,Nizamabad,70-74,3474
Telangana,Nizamabad,75-79,1499
Telangana,Nizamabad,80+,1574
Telangana,Nizamabad,Age not stated,4436
Telangana,Karimnagar,0-4,32472
Telangana,Karimnagar,5-9,38308
Telangana,Karimnagar,10-14,45766
Telangana,Karimnagar,15-19,46910
Telangana,Karimnagar,20-24,49025
Telangana,Karimnagar,25-29,46815
Telangana,Karimnagar,30-34,38865
Telangana,Karimnagar,35-39,37774
Telangana,Karimnagar,40-44,33058
Telangana,Karimnagar,45-49,29351
Telangana,Karimnagar,50-54,22464
Telangana,Karimnagar,55-59,17013
Telangana,Karimnagar,60-64,14427
Telangana,Karimnagar,65-69,8609
Telangana,Karimnagar,70-74,6150
Telangana,Karimnagar,75-79,2650
Telangana,Karimnagar,80+,3058
Telangana,Karimnagar,Age not stated,6135
Telangana,Medak,0-4,31550
Telangana,Medak,5-9,33646
Telangana,Medak,10-14,36898
Telangana,Medak,15-19,36166
Telangana,Medak,20-24,38250
Telangana,Medak,25-29,38316
Telangana,Medak,30-34,32228
Telangana,Medak,35-39,30202
Telangana,Medak,40-44,24514
Telangana,Medak,45-49,19841
Telangana,Medak,50-54,13697
Telangana,Medak,55-59,9997
Telangana,Medak,60-64,9427
Telangana,Medak,65-69,5557
Telangana,Medak,70-74,3932
Telangana,Medak,75-79,1699
Telangana,Medak,80+,1902
Telangana,Medak,Age not stated,2402
Telangana,Hyderabad,0-4,170939
Telangana,Hyderabad,5-9,183749
Telangana,Hyderabad,10-14,195104
Telangana,Hyderabad,15-19,194945
Telangana,Hyderabad,20-24,203305
Telangana,Hyderabad,25-29,192865
Telangana,Hyderabad,30-34,169446
Telangana,Hyderabad,35-39,149605
Telangana,Hyderabad,40-44,129221
Telangana,Hyderabad,45-49,103875
Telangana,Hyderabad,50-54,84032
Telangana,Hyderabad,55-59,62647
Telangana,Hyderabad,60-64,51890
Telangana,Hyderabad,65-69,32990
Telangana,Hyderabad,70-74,22783
Telangana,Hyderabad,75-79,11916
Telangana,Hyderabad,80+,16467
Telangana,Hyderabad,Age not stated,42796
Telangana,Rangareddy,0-4,161635
Telangana,Rangareddy,5-9,162273
Telangana,Rangareddy,10-14,163457
Telangana,Rangareddy,15-19,162891
Telangana,Rangareddy,20-24,179203
Telangana,Rangareddy,25-29,197975
Telangana,Rangareddy,30-34,181852
Telangana,Rangareddy,35-39,158466
Telangana,Rangareddy,40-44,125502
Telangana,Rangareddy,45-49,101315
Telangana,Rangareddy,50-54,75738
Telangana,Rangareddy,55-59,57490
Telangana,Rangareddy,60-64,50618
Telangana,Rangareddy,65-69,29535
Telangana,Rangareddy,70-74,18547
Telangana,Rangareddy,75-79,9067
Telangana,Rangareddy,80+,12317
Telangana,Rangareddy,Age not stated,52114
Telangana,Mahbubnagar,0-4,24821
Telangana,Mahbubnagar,5-9,29402
Telangana,Mahbubnagar,10-14,35229
Telangana,Mahbubnagar,15-19,31344
Telangana,Mahbubnagar,20-24,29884
Telangana,Mahbubnagar,25-29,28662
Telangana,Mahbubnagar,30-34,24874
Telangana,Mahbubnagar,35-39,24275
Telangana,Mahbubnagar,40-44,19945
Telangana,Mahbubnagar,45-49,16250
Telangana,Mahbubnagar,50-54,11714
Telangana,Mahbubnagar,55-59,8849
Telangana,Mahbubnagar,60-64,8022
Telangana,Mahbubnagar,65-69,4602
Telangana,Mahbubnagar,70-74,3229
Telangana,Mahbubnagar,75-79,1382
Telangana,Mahbubnagar,80+,1707
Telangana,Mahbubnagar,Age not stated,3757
Telangana,Nalgonda,0-4,24237
Telangana,Nalgonda,5-9,28560
Telangana,Nalgonda,10-14,36976
Telangana,Nalgonda,15-19,35755
Telangana,Nalgonda,20-24,31845
Telangana,Nalgonda,25-29,32389
Telangana,Nalgonda,30-34,27871
Telangana,Nalgonda,35-39,27306
Telangana,Nalgonda,40-44,22080
Telangana,Nalgonda,45-49,17947
Telangana,Nalgonda,50-54,13272
Telangana,Nalgonda,55-59,9652
Telangana,Nalgonda,60-64,9138
Telangana,Nalgonda,65-69,5679
Telangana,Nalgonda,70-74,4192
Telangana,Nalgonda,75-79,1942
Telangana,Nalgonda,80+,2247
Telangana,Nalgonda,Age not stated,968
Telangana,Warangal,0-4,33475
Telangana,Warangal,5-9,39582
Telangana,Warangal,10-14,51074
Telangana,Warangal,15-19,52588
Telangana,Warangal,20-24,49365
Telangana,Warangal,25-29,48198
Telangana,Warangal,30-34,41006
Telangana,Warangal,35-39,41137
Telangana,Warangal,40-44,34913
Telangana,Warangal,45-49,29307
Telangana,Warangal,50-54,21583
Telangana,Warangal,55-59,16369
Telangana,Warangal,60-64,14576
Telangana,Warangal,65-69,9412
Telangana,Warangal,70-74,6716
Telangana,Warangal,75-79,3131
Telangana,Warangal,80+,3377
Telangana,Warangal,Age not stated,2878
Telangana,Khammam,0-4,22679
Telangana,Khammam,5-9,26497
Telangana,Khammam,10-14,30417
Telangana,Khammam,15-19,30581
Telangana,Khammam,20-24,32406
Telangana,Khammam,25-29,33099
Telangana,Khammam,30-34,28276
Telangana,Khammam,35-39,27424
Telangana,Khammam,40-44,22999
Telangana,Khammam,45-49,19626
Telangana,Khammam,50-54,14551
Telangana,Khammam,55-59,11211
Telangana,Khammam,60-64,9719
Telangana,Khammam,65-69,5710
Telangana,Khammam,70-74,4049
Telangana,Khammam,75-79,1866
Telangana,Khammam,80+,2271
Telangana,Khammam,Age not stated,826
Andhra,SRIKAKULAM,0-4,15056
Andhra,SRIKAKULAM,5-9,18025
Andhra,SRIKAKULAM,10-14,20452
Andhra,SRIKAKULAM,15-19,20413
Andhra,SRIKAKULAM,20-24,19960
Andhra,SRIKAKULAM,25-29,19239
Andhra,SRIKAKULAM,30-34,17484
Andhra,SRIKAKULAM,35-39,17687
Andhra,SRIKAKULAM,40-44,15860
Andhra,SRIKAKULAM,45-49,13620
Andhra,SRIKAKULAM,50-54,10285
Andhra,SRIKAKULAM,55-59,8005
Andhra,SRIKAKULAM,60-64,7611
Andhra,SRIKAKULAM,65-69,5063
Andhra,SRIKAKULAM,70-74,3193
Andhra,SRIKAKULAM,75-79,1458
Andhra,SRIKAKULAM,80+,1143
Andhra,SRIKAKULAM,Age not stated,296
Andhra,Vizianagaram,0-4,16477
Andhra,Vizianagaram,5-9,19103
Andhra,Vizianagaram,10-14,22024
Andhra,Vizianagaram,15-19,22252
Andhra,Vizianagaram,20-24,22775
Andhra,Vizianagaram,25-29,21955
Andhra,Vizianagaram,30-34,19635
Andhra,Vizianagaram,35-39,19890
Andhra,Vizianagaram,40-44,17756
Andhra,Vizianagaram,45-49,15465
Andhra,Vizianagaram,50-54,12024
Andhra,Vizianagaram,55-59,9069
Andhra,Vizianagaram,60-64,8684
Andhra,Vizianagaram,65-69,5267
Andhra,Vizianagaram,70-74,3283
Andhra,Vizianagaram,75-79,1354
Andhra,Vizianagaram,80+,1242
Andhra,Vizianagaram,Age not stated,2794
Andhra,VISAKHAPATNAM,0-4,69084
Andhra,VISAKHAPATNAM,5-9,78329
Andhra,VISAKHAPATNAM,10-14,92642
Andhra,VISAKHAPATNAM,15-19,91842
Andhra,VISAKHAPATNAM,20-24,95494
Andhra,VISAKHAPATNAM,25-29,97772
Andhra,VISAKHAPATNAM,30-34,88590
Andhra,VISAKHAPATNAM,35-39,86729
Andhra,VISAKHAPATNAM,40-44,77593
Andhra,VISAKHAPATNAM,45-49,66274
Andhra,VISAKHAPATNAM,50-54,49070
Andhra,VISAKHAPATNAM,55-59,36463
Andhra,VISAKHAPATNAM,60-64,31349
Andhra,VISAKHAPATNAM,65-69,18951
Andhra,VISAKHAPATNAM,70-74,12121
Andhra,VISAKHAPATNAM,75-79,5603
Andhra,VISAKHAPATNAM,80+,6217
Andhra,VISAKHAPATNAM,Age not stated,21553
Andhra,East Godavari,0-4,44854
Andhra,East Godavari,5-9,50934
Andhra,East Godavari,10-14,59246
Andhra,East Godavari,15-19,60975
Andhra,East Godavari,20-24,62984
Andhra,East Godavari,25-29,61440
Andhra,East Godavari,30-34,53943
Andhra,East Godavari,35-39,52974
Andhra,East Godavari,40-44,48005
Andhra,East Godavari,45-49,41979
Andhra,East Godavari,50-54,32589
Andhra,East Godavari,55-59,23868
Andhra,East Godavari,60-64,21759
Andhra,East Godavari,65-69,13847
Andhra,East Godavari,70-74,9477
Andhra,East Godavari,75-79,4300
Andhra,East Godavari,80+,3819
Andhra,East Godavari,Age not stated,402
Andhra,West Godavari,0-4,25637
Andhra,West Godavari,5-9,30953
Andhra,West Godavari,10-14,36484
Andhra,West Godavari,15-19,40056
Andhra,West Godavari,20-24,38811
Andhra,West Godavari,25-29,36372
Andhra,West Godavari,30-34,31698
Andhra,West Godavari,35-39,32208
Andhra,West Godavari,40-44,28824
Andhra,West Godavari,45-49,26178
Andhra,West Godavari,50-54,20426
Andhra,West Godavari,55-59,14835
Andhra,West Godavari,60-64,13952
Andhra,West Godavari,65-69,9208
Andhra,West Godavari,70-74,6494
Andhra,West Godavari,75-79,2973
Andhra,West Godavari,80+,2488
Andhra,West Godavari,Age not stated,308
Andhra,Krishna,0-4,63437
Andhra,Krishna,5-9,70395
Andhra,Krishna,10-14,80224
Andhra,Krishna,15-19,101526
Andhra,Krishna,20-24,86187
Andhra,Krishna,25-29,87672
Andhra,Krishna,30-34,75135
Andhra,Krishna,35-39,73206
Andhra,Krishna,40-44,64237
Andhra,Krishna,45-49,57908
Andhra,Krishna,50-54,44262
Andhra,Krishna,55-59,32554
Andhra,Krishna,60-64,28142
Andhra,Krishna,65-69,18398
Andhra,Krishna,70-74,13205
Andhra,Krishna,75-79,6315
Andhra,Krishna,80+,7072
Andhra,Krishna,Age not stated,13966
Andhra,Guntur,0-4,57624
Andhra,Guntur,5-9,67461
Andhra,Guntur,10-14,78115
Andhra,Guntur,15-19,80993
Andhra,Guntur,20-24,79769
Andhra,Guntur,25-29,78581
Andhra,Guntur,30-34,67358
Andhra,Guntur,35-39,65111
Andhra,Guntur,40-44,57660
Andhra,Guntur,45-49,49740
Andhra,Guntur,50-54,40128
Andhra,Guntur,55-59,29171
Andhra,Guntur,60-64,26484
Andhra,Guntur,65-69,16830
Andhra,Guntur,70-74,12642
Andhra,Guntur,75-79,5568
Andhra,Guntur,80+,5075
Andhra,Guntur,Age not stated,720
Andhra,Prakasam,0-4,23408
Andhra,Prakasam,5-9,28384
Andhra,Prakasam,10-14,32569
Andhra,Prakasam,15-19,31888
Andhra,Prakasam,20-24,31062
Andhra,Prakasam,25-29,30880
Andhra,Prakasam,30-34,27429
Andhra,Prakasam,35-39,26497
Andhra,Prakasam,40-44,23359
Andhra,Prakasam,45-49,20132
Andhra,Prakasam,50-54,16132
Andhra,Prakasam,55-59,11785
Andhra,Prakasam,60-64,11331
Andhra,Prakasam,65-69,7187
Andhra,Prakasam,70-74,5211
Andhra,Prakasam,75-79,2167
Andhra,Prakasam,80+,2021
Andhra,Prakasam,Age not stated,681
Andhra,Nellore,0-4,28472
Andhra,Nellore,5-9,33187
Andhra,Nellore,10-14,38593
Andhra,Nellore,15-19,60312
Andhra,Nellore,20-24,37114
Andhra,Nellore,25-29,37780
Andhra,Nellore,30-34,34378
Andhra,Nellore,35-39,33963
Andhra,Nellore,40-44,30446
Andhra,Nellore,45-49,26304
Andhra,Nellore,50-54,20973
Andhra,Nellore,55-59,15829
Andhra,Nellore,60-64,13875
Andhra,Nellore,65-69,8729
Andhra,Nellore,70-74,6024
Andhra,Nellore,75-79,2864
Andhra,Nellore,80+,2215
Andhra,Nellore,Age not stated,1106
Andhra,Kadapa,0-4,39277
Andhra,Kadapa,5-9,45710
Andhra,Kadapa,10-14,48139
Andhra,Kadapa,15-19,47279
Andhra,Kadapa,20-24,47236
Andhra,Kadapa,25-29,44006
Andhra,Kadapa,30-34,38762
Andhra,Kadapa,35-39,38918
Andhra,Kadapa,40-44,34206
Andhra,Kadapa,45-49,29049
Andhra,Kadapa,50-54,22612
Andhra,Kadapa,55-59,16783
Andhra,Kadapa,60-64,16263
Andhra,Kadapa,65-69,9964
Andhra,Kadapa,70-74,7128
Andhra,Kadapa,75-79,2890
Andhra,Kadapa,80+,2612
Andhra,Kadapa,Age not stated,1250
Andhra,Kurnool,0-4,46780
Andhra,Kurnool,5-9,56188
Andhra,Kurnool,10-14,62961
Andhra,Kurnool,15-19,59731
Andhra,Kurnool,20-24,56912
Andhra,Kurnool,25-29,53095
Andhra,Kurnool,30-34,46195
Andhra,Kurnool,35-39,45173
Andhra,Kurnool,40-44,37538
Andhra,Kurnool,45-49,30767
Andhra,Kurnool,50-54,23413
Andhra,Kurnool,55-59,17146
Andhra,Kurnool,60-64,15458
Andhra,Kurnool,65-69,9284
Andhra,Kurnool,70-74,6519
Andhra,Kurnool,75-79,2803
Andhra,Kurnool,80+,2827
Andhra,Kurnool,Age not stated,1868
Andhra,Anantapur,0-4,43176
Andhra,Anantapur,5-9,50717
Andhra,Anantapur,10-14,56135
Andhra,Anantapur,15-19,57523
Andhra,Anantapur,20-24,54838
Andhra,Anantapur,25-29,52030
Andhra,Anantapur,30-34,46242
Andhra,Anantapur,35-39,45960
Andhra,Anantapur,40-44,38787
Andhra,Anantapur,45-49,33055
Andhra,Anantapur,50-54,25773
Andhra,Anantapur,55-59,19962
Andhra,Anantapur,60-64,18446
Andhra,Anantapur,65-69,11997
Andhra,Anantapur,70-74,8189
Andhra,Anantapur,75-79,3745
Andhra,Anantapur,80+,3815
Andhra,Anantapur,Age not stated,4948
Andhra,Chittoor,0-4,44946
Andhra,Chittoor,5-9,50017
Andhra,Chittoor,10-14,56667
Andhra,Chittoor,15-19,60450
Andhra,Chittoor,20-24,56924
Andhra,Chittoor,25-29,55042
Andhra,Chittoor,30-34,49997
Andhra,Chittoor,35-39,50180
Andhra,Chittoor,40-44,43639
Andhra,Chittoor,45-49,39387
Andhra,Chittoor,50-54,29981
Andhra,Chittoor,55-59,22894
Andhra,Chittoor,60-64,20114
Andhra,Chittoor,65-69,12186
Andhra,Chittoor,70-74,8846
Andhra,Chittoor,75-79,4240
Andhra,Chittoor,80+,4053
Andhra,Chittoor,Age not stated,6589
Telangana,Adilabad,0-4,24890
Telangana,Adilabad,5-9,29597
Telangana,Adilabad,10-14,37406
Telangana,Adilabad,15-19,40344
Telangana,Adilabad,20-24,40291
Telangana,Adilabad,25-29,34551
Telangana,Adilabad,30-34,28851
Telangana,Adilabad,35-39,28812
Telangana,Adilabad,40-44,24668
Telangana,Adilabad,45-49,21169
Telangana,Adilabad,50-54,14634
Telangana,Adilabad,55-59,10898
Telangana,Adilabad,60-64,10569
Telangana,Adilabad,65-69,6954
Telangana,Adilabad,70-74,4837
Telangana,Adilabad,75-79,2178
Telangana,Adilabad,80+,3226
Telangana,Adilabad,Age not stated,12090
Telangana,Nizamabad,0-4,22949
Telangana,Nizamabad,5-9,26502
Telangana,Nizamabad,10-14,30226
Telangana,Nizamabad,15-19,30005
Telangana,Nizamabad,20-24,31264
Telangana,Nizamabad,25-29,28491
Telangana,Nizamabad,30-34,23525
Telangana,Nizamabad,35-39,22253
Telangana,Nizamabad,40-44,17090
Telangana,Nizamabad,45-49,14000
Telangana,Nizamabad,50-54,11376
Telangana,Nizamabad,55-59,9369
Telangana,Nizamabad,60-64,9511
Telangana,Nizamabad,65-69,6276
Telangana,Nizamabad,70-74,4269
Telangana,Nizamabad,75-79,2046
Telangana,Nizamabad,80+,2786
Telangana,Nizamabad,Age not stated,4630
Telangana,Karimnagar,0-4,30331
Telangana,Karimnagar,5-9,35991
Telangana,Karimnagar,10-14,43756
Telangana,Karimnagar,15-19,46710
Telangana,Karimnagar,20-24,51235
Telangana,Karimnagar,25-29,47936
Telangana,Karimnagar,30-34,38248
Telangana,Karimnagar,35-39,39198
Telangana,Karimnagar,40-44,30916
Telangana,Karimnagar,45-49,27778
Telangana,Karimnagar,50-54,19701
Telangana,Karimnagar,55-59,15687
Telangana,Karimnagar,60-64,14789
Telangana,Karimnagar,65-69,9036
Telangana,Karimnagar,70-74,6785
Telangana,Karimnagar,75-79,3396
Telangana,Karimnagar,80+,4729
Telangana,Karimnagar,Age not stated,6153
Telangana,Medak,0-4,30213
Telangana,Medak,5-9,31905
Telangana,Medak,10-14,35705
Telangana,Medak,15-19,35437
Telangana,Medak,20-24,39949
Telangana,Medak,25-29,39263
Telangana,Medak,30-34,29627
Telangana,Medak,35-39,28495
Telangana,Medak,40-44,20256
Telangana,Medak,45-49,16623
Telangana,Medak,50-54,12459
Telangana,Medak,55-59,9976
Telangana,Medak,60-64,10152
Telangana,Medak,65-69,6124
Telangana,Medak,70-74,4408
Telangana,Medak,75-79,2043
Telangana,Medak,80+,2998
Telangana,Medak,Age not stated,2014
Telangana,Hyderabad,0-4,155790
Telangana,Hyderabad,5-9,169849
Telangana,Hyderabad,10-14,182295
Telangana,Hyderabad,15-19,184815
Telangana,Hyderabad,20-24,211477
Telangana,Hyderabad,25-29,203997
Telangana,Hyderabad,30-34,163121
Telangana,Hyderabad,35-39,142583
Telangana,Hyderabad,40-44,116612
Telangana,Hyderabad,45-49,93780
Telangana,Hyderabad,50-54,73691
Telangana,Hyderabad,55-59,55367
Telangana,Hyderabad,60-64,47344
Telangana,Hyderabad,65-69,30589
Telangana,Hyderabad,70-74,21592
Telangana,Hyderabad,75-79,12133
Telangana,Hyderabad,80+,19228
Telangana,Hyderabad,Age not stated,40485
Telangana,Rangareddy,0-4,150328
Telangana,Rangareddy,5-9,151886
Telangana,Rangareddy,10-14,156071
Telangana,Rangareddy,15-19,158462
Telangana,Rangareddy,20-24,201993
Telangana,Rangareddy,25-29,215439
Telangana,Rangareddy,30-34,162199
Telangana,Rangareddy,35-39,143635
Telangana,Rangareddy,40-44,104814
Telangana,Rangareddy,45-49,88527
Telangana,Rangareddy,50-54,66906
Telangana,Rangareddy,55-59,53039
Telangana,Rangareddy,60-64,44376
Telangana,Rangareddy,65-69,26868
Telangana,Rangareddy,70-74,17821
Telangana,Rangareddy,75-79,9655
Telangana,Rangareddy,80+,15663
Telangana,Rangareddy,Age not stated,51495
Telangana,Mahbubnagar,0-4,23398
Telangana,Mahbubnagar,5-9,27282
Telangana,Mahbubnagar,10-14,32501
Telangana,Mahbubnagar,15-19,30859
Telangana,Mahbubnagar,20-24,31582
Telangana,Mahbubnagar,25-29,30534
Telangana,Mahbubnagar,30-34,24171
Telangana,Mahbubnagar,35-39,22998
Telangana,Mahbubnagar,40-44,16936
Telangana,Mahbubnagar,45-49,14440
Telangana,Mahbubnagar,50-54,11155
Telangana,Mahbubnagar,55-59,8849
Telangana,Mahbubnagar,60-64,8656
Telangana,Mahbubnagar,65-69,5133
Telangana,Mahbubnagar,70-74,3896
Telangana,Mahbubnagar,75-79,1771
Telangana,Mahbubnagar,80+,2499
Telangana,Mahbubnagar,Age not stated,3084
Telangana,Nalgonda,0-4,22936
Telangana,Nalgonda,5-9,26215
Telangana,Nalgonda,10-14,35074
Telangana,Nalgonda,15-19,36043
Telangana,Nalgonda,20-24,36241
Telangana,Nalgonda,25-29,34786
Telangana,Nalgonda,30-34,26759
Telangana,Nalgonda,35-39,26429
Telangana,Nalgonda,40-44,18745
Telangana,Nalgonda,45-49,16773
Telangana,Nalgonda,50-54,12545
Telangana,Nalgonda,55-59,10033
Telangana,Nalgonda,60-64,10455
Telangana,Nalgonda,65-69,6418
Telangana,Nalgonda,70-74,4739
Telangana,Nalgonda,75-79,2174
Telangana,Nalgonda,80+,3130
Telangana,Nalgonda,Age not stated,956
Telangana,Warangal,0-4,31359
Telangana,Warangal,5-9,37198
Telangana,Warangal,10-14,47181
Telangana,Warangal,15-19,49831
Telangana,Warangal,20-24,53072
Telangana,Warangal,25-29,51046
Telangana,Warangal,30-34,41516
Telangana,Warangal,35-39,41241
Telangana,Warangal,40-44,32146
Telangana,Warangal,45-49,26523
Telangana,Warangal,50-54,20180
Telangana,Warangal,55-59,16665
Telangana,Warangal,60-64,16249
Telangana,Warangal,65-69,10393
Telangana,Warangal,70-74,7418
Telangana,Warangal,75-79,3721
Telangana,Warangal,80+,5019
Telangana,Warangal,Age not stated,2888
Telangana,Khammam,0-4,21561
Telangana,Khammam,5-9,25183
Telangana,Khammam,10-14,30808
Telangana,Khammam,15-19,30908
Telangana,Khammam,20-24,37204
Telangana,Khammam,25-29,35741
Telangana,Khammam,30-34,27687
Telangana,Khammam,35-39,27990
Telangana,Khammam,40-44,21665
Telangana,Khammam,45-49,19194
Telangana,Khammam,50-54,14361
Telangana,Khammam,55-59,11160
Telangana,Khammam,60-64,10858
Telangana,Khammam,65-69,6443
Telangana,Khammam,70-74,4505
Telangana,Khammam,75-79,2166
Telangana,Khammam,80+,3324
Telangana,Khammam,Age not stated,946
Andhra,SRIKAKULAM,0-4,14070
Andhra,SRIKAKULAM,5-9,17114
Andhra,SRIKAKULAM,10-14,20542
Andhra,SRIKAKULAM,15-19,20872
Andhra,SRIKAKULAM,20-24,21974
Andhra,SRIKAKULAM,25-29,21626
Andhra,SRIKAKULAM,30-34,18635
Andhra,SRIKAKULAM,35-39,18506
Andhra,SRIKAKULAM,40-44,14822
Andhra,SRIKAKULAM,45-49,13156
Andhra,SRIKAKULAM,50-54,10404
Andhra,SRIKAKULAM,55-59,8354
Andhra,SRIKAKULAM,60-64,8724
Andhra,SRIKAKULAM,65-69,5703
Andhra,SRIKAKULAM,70-74,3606
Andhra,SRIKAKULAM,75-79,1543
Andhra,SRIKAKULAM,80+,1891
Andhra,SRIKAKULAM,Age not stated,311
Andhra,Vizianagaram,0-4,15858
Andhra,Vizianagaram,5-9,18115
Andhra,Vizianagaram,10-14,22497
Andhra,Vizianagaram,15-19,22829
Andhra,Vizianagaram,20-24,25104
Andhra,Vizianagaram,25-29,23778
Andhra,Vizianagaram,30-34,20064
Andhra,Vizianagaram,35-39,20663
Andhra,Vizianagaram,40-44,16995
Andhra,Vizianagaram,45-49,15011
Andhra,Vizianagaram,50-54,12044
Andhra,Vizianagaram,55-59,9786
Andhra,Vizianagaram,60-64,10345
Andhra,Vizianagaram,65-69,6185
Andhra,Vizianagaram,70-74,3816
Andhra,Vizianagaram,75-79,1765
Andhra,Vizianagaram,80+,1994
Andhra,Vizianagaram,Age not stated,3013
Andhra,VISAKHAPATNAM,0-4,65503
Andhra,VISAKHAPATNAM,5-9,72914
Andhra,VISAKHAPATNAM,10-14,86186
Andhra,VISAKHAPATNAM,15-19,89859
Andhra,VISAKHAPATNAM,20-24,104572
Andhra,VISAKHAPATNAM,25-29,104994
Andhra,VISAKHAPATNAM,30-34,86820
Andhra,VISAKHAPATNAM,35-39,88384
Andhra,VISAKHAPATNAM,40-44,69460
Andhra,VISAKHAPATNAM,45-49,59213
Andhra,VISAKHAPATNAM,50-54,44181
Andhra,VISAKHAPATNAM,55-59,35115
Andhra,VISAKHAPATNAM,60-64,32080
Andhra,VISAKHAPATNAM,65-69,20490
Andhra,VISAKHAPATNAM,70-74,12698
Andhra,VISAKHAPATNAM,75-79,6345
Andhra,VISAKHAPATNAM,80+,8489
Andhra,VISAKHAPATNAM,Age not stated,22943
Andhra,East Godavari,0-4,43362
Andhra,East Godavari,5-9,49531
Andhra,East Godavari,10-14,58069
Andhra,East Godavari,15-19,62737
Andhra,East Godavari,20-24,70998
Andhra,East Godavari,25-29,65876
Andhra,East Godavari,30-34,54339
Andhra,East Godavari,35-39,56346
Andhra,East Godavari,40-44,46254
Andhra,East Godavari,45-49,41046
Andhra,East Godavari,50-54,31136
Andhra,East Godavari,55-59,24155
Andhra,East Godavari,60-64,25170
Andhra,East Godavari,65-69,16010
Andhra,East Godavari,70-74,10448
Andhra,East Godavari,75-79,4945
Andhra,East Godavari,80+,5709
Andhra,East Godavari,Age not stated,446
Andhra,West Godavari,0-4,24621
Andhra,West Godavari,5-9,29720
Andhra,West Godavari,10-14,36847
Andhra,West Godavari,15-19,39432
Andhra,West Godavari,20-24,43070
Andhra,West Godavari,25-29,38837
Andhra,West Godavari,30-34,32391
Andhra,West Godavari,35-39,33761
Andhra,West Godavari,40-44,28974
Andhra,West Godavari,45-49,25360
Andhra,West Godavari,50-54,19647
Andhra,West Godavari,55-59,15567
Andhra,West Godavari,60-64,16519
Andhra,West Godavari,65-69,11120
Andhra,West Godavari,70-74,7408
Andhra,West Godavari,75-79,3327
Andhra,West Godavari,80+,3950
Andhra,West Godavari,Age not stated,321
Andhra,Krishna,0-4,59026
Andhra,Krishna,5-9,67295
Andhra,Krishna,10-14,76784
Andhra,Krishna,15-19,97574
Andhra,Krishna,20-24,96316
Andhra,Krishna,25-29,92088
Andhra,Krishna,30-34,73096
Andhra,Krishna,35-39,75560
Andhra,Krishna,40-44,60761
Andhra,Krishna,45-49,54073
Andhra,Krishna,50-54,40079
Andhra,Krishna,55-59,31866
Andhra,Krishna,60-64,30001
Andhra,Krishna,65-69,20968
Andhra,Krishna,70-74,13580
Andhra,Krishna,75-79,6790
Andhra,Krishna,80+,9638
Andhra,Krishna,Age not stated,14324
Andhra,Guntur,0-4,54671
Andhra,Guntur,5-9,63505
Andhra,Guntur,10-14,74238
Andhra,Guntur,15-19,85630
Andhra,Guntur,20-24,89368
Andhra,Guntur,25-29,82769
Andhra,Guntur,30-34,65835
Andhra,Guntur,35-39,68218
Andhra,Guntur,40-44,54133
Andhra,Guntur,45-49,49457
Andhra,Guntur,50-54,37711
Andhra,Guntur,55-59,30373
Andhra,Guntur,60-64,29496
Andhra,Guntur,65-69,19610
Andhra,Guntur,70-74,13779
Andhra,Guntur,75-79,6302
Andhra,Guntur,80+,7956
Andhra,Guntur,Age not stated,657
Andhra,Prakasam,0-4,22355
Andhra,Prakasam,5-9,26517
Andhra,Prakasam,10-14,31138
Andhra,Prakasam,15-19,30407
Andhra,Prakasam,20-24,34162
Andhra,Prakasam,25-29,33220
Andhra,Prakasam,30-34,26679
Andhra,Prakasam,35-39,26944
Andhra,Prakasam,40-44,21643
Andhra,Prakasam,45-49,19415
Andhra,Prakasam,50-54,15288
Andhra,Prakasam,55-59,12326
Andhra,Prakasam,60-64,12192
Andhra,Prakasam,65-69,8177
Andhra,Prakasam,70-74,5772
Andhra,Prakasam,75-79,2495
Andhra,Prakasam,80+,2986
Andhra,Prakasam,Age not stated,743
Andhra,Nellore,0-4,26976
Andhra,Nellore,5-9,30933
Andhra,Nellore,10-14,36515
Andhra,Nellore,15-19,51058
Andhra,Nellore,20-24,41667
Andhra,Nellore,25-29,40824
Andhra,Nellore,30-34,34806
Andhra,Nellore,35-39,34527
Andhra,Nellore,40-44,28622
Andhra,Nellore,45-49,25189
Andhra,Nellore,50-54,19912
Andhra,Nellore,55-59,15422
Andhra,Nellore,60-64,14703
Andhra,Nellore,65-69,10096
Andhra,Nellore,70-74,6718
Andhra,Nellore,75-79,3310
Andhra,Nellore,80+,3520
Andhra,Nellore,Age not stated,668
Andhra,Kadapa,0-4,36157
Andhra,Kadapa,5-9,42199
Andhra,Kadapa,10-14,44984
Andhra,Kadapa,15-19,45986
Andhra,Kadapa,20-24,49938
Andhra,Kadapa,25-29,47304
Andhra,Kadapa,30-34,38281
Andhra,Kadapa,35-39,39188
Andhra,Kadapa,40-44,30321
Andhra,Kadapa,45-49,27354
Andhra,Kadapa,50-54,21035
Andhra,Kadapa,55-59,17750
Andhra,Kadapa,60-64,18199
Andhra,Kadapa,65-69,11833
Andhra,Kadapa,70-74,7878
Andhra,Kadapa,75-79,3290
Andhra,Kadapa,80+,4539
Andhra,Kadapa,Age not stated,812
Andhra,Kurnool,0-4,44144
Andhra,Kurnool,5-9,52334
Andhra,Kurnool,10-14,60087
Andhra,Kurnool,15-19,58846
Andhra,Kurnool,20-24,61459
Andhra,Kurnool,25-29,57581
Andhra,Kurnool,30-34,45928
Andhra,Kurnool,35-39,44102
Andhra,Kurnool,40-44,33417
Andhra,Kurnool,45-49,29156
Andhra,Kurnool,50-54,22640
Andhra,Kurnool,55-59,18085
Andhra,Kurnool,60-64,17274
Andhra,Kurnool,65-69,10873
Andhra,Kurnool,70-74,7497
Andhra,Kurnool,75-79,3388
Andhra,Kurnool,80+,4647
Andhra,Kurnool,Age not stated,3170
Andhra,Anantapur,0-4,40115
Andhra,Anantapur,5-9,47691
Andhra,Anantapur,10-14,54053
Andhra,Anantapur,15-19,55561
Andhra,Anantapur,20-24,58584
Andhra,Anantapur,25-29,56366
Andhra,Anantapur,30-34,44496
Andhra,Anantapur,35-39,45877
Andhra,Anantapur,40-44,34521
Andhra,Anantapur,45-49,31425
Andhra,Anantapur,50-54,24245
Andhra,Anantapur,55-59,20268
Andhra,Anantapur,60-64,19679
Andhra,Anantapur,65-69,13687
Andhra,Anantapur,70-74,8884
Andhra,Anantapur,75-79,4172
Andhra,Anantapur,80+,5670
Andhra,Anantapur,Age not stated,5079
Andhra,Chittoor,0-4,41713
Andhra,Chittoor,5-9,46781
Andhra,Chittoor,10-14,54206
Andhra,Chittoor,15-19,59159
Andhra,Chittoor,20-24,64270
Andhra,Chittoor,25-29,59663
Andhra,Chittoor,30-34,50186
Andhra,Chittoor,35-39,51203
Andhra,Chittoor,40-44,40224
Andhra,Chittoor,45-49,36268
Andhra,Chittoor,50-54,27231
Andhra,Chittoor,55-59,22164
Andhra,Chittoor,60-64,21043
Andhra,Chittoor,65-69,13985
Andhra,Chittoor,70-74,9490
Andhra,Chittoor,75-79,4815
Andhra,Chittoor,80+,6140
Andhra,Chittoor,Age not stated,6693
