alembic==0.9.1
amqp==1.4.9
anyjson==0.3.3
apiclient==1.0.3
appdirs==1.4.3
asn1crypto==0.22.0
azure==1.0.3
azure-common==1.1.5
azure-mgmt==0.20.2
azure-mgmt-common==0.20.0
azure-mgmt-compute==0.20.1
azure-mgmt-network==0.20.1
azure-mgmt-nspkg==2.0.0
azure-mgmt-resource==0.20.1
azure-mgmt-storage==0.20.0
azure-nspkg==2.0.0
azure-servicebus==0.20.1
azure-servicemanagement-legacy==0.20.2
azure-storage==0.34.0
billiard==3.3.0.23
blinker==1.4
celery==3.1.23
cffi==1.10.0
click==6.7
colorama==0.3.9
contextlib2==0.5.5
coverage==4.3.4
cryptography==2.2.2
discovery==0.0.4
docopt==0.4.0
enum34==1.1.6
Flask==0.12.2
Flask-Assets==0.12
Flask-Compress==1.4.0
Flask-HTMLmin==1.3.2
Flask-Login==0.4.0
Flask-Migrate==2.0.3
Flask-QR==0.1.3
Flask-QRcode==1.0.1
Flask-Restless==0.17.0
Flask-Script==2.0.5
Flask-SQLAlchemy==2.2
Flask-WTF==0.14.2
funcsigs==1.0.2
futures==3.0.5
gcm==0.3
geopy==1.11.0
gspread==3.0.0
gunicorn==19.7.1
html5lib==1.0.1
htmlmin==0.1.12
httplib2==0.10.3
idna==2.5
instagram==1.3.3
instamojo-wrapper==1.1
ipaddress==1.0.18
itsdangerous==0.24
Jinja2==2.9.5
jwt==0.5.2
kombu==3.0.37
Mako==1.0.6
mandrill==1.0.57
MarkupSafe==1.0
meld3==1.0.2
mimerender==0.6.0
mock==2.0.0
mysql-connector-python==8.0.11
Naked==0.1.31
nose==1.3.7
numpy==1.13.1
oauth2client==4.0.0
oauthlib==2.0.2
olefile==0.44
ordereddict==1.1
packaging==16.8
pbr==2.1.0
pdf2image==0.1.14
Pillow==4.2.1
protobuf==3.6.0
psycopg2==2.7.1
pushjack==1.3.0
py==1.4.34
pyasn1==0.2.3
pyasn1-modules==0.0.8
pycparser==2.17
pycrypto==2.6.1
pyfcm==1.2.8
pymongo==3.4.0
PyMySQL==0.8.1
pyparsing==2.2.0
PyPDF2==1.26.0
pysendpulse==0.0.3
pytest==3.0.4
python-dateutil==2.6.0
python-editor==1.0.3
python-instagram==1.3.2
python-memcached==1.59
python-mimeparse==1.6.0
PythonMagick==0.9.10
pytz==2017.2
PyYAML==3.12
qrcode==5.3
raven==6.7.0
razorpay==1.0.2
recordtype==1.1
redis==2.10.5
reportlab==3.4.0
requests==2.13.0
requests-oauthlib==0.8.0
requests-toolbelt==0.7.1
rsa==3.4.2
shellescape==3.4.1
simplejson==3.10.0
six==1.10.0
SQLAlchemy==1.1.7
supervisor==3.3.4
tweepy==3.5.0
typing==3.5.3.0
tzlocal==1.3
ujson==1.35
urllib3==1.21.1
urlparse2==1.1.1
vine==1.1.3
Wand==0.4.4
webassets==0.12.1
webencodings==0.5.1
Werkzeug==0.12.1
WTForms==2.1
xhtml2pdf==0.2.2
xlrd==1.1.0
