jsp_id,state,district_id,constituency_id,name,mobile,aadhar_number,gender,nominee_name, aadhar_id,,,,,,,,,,,,,,,,
153-00001,1,2,153,M Roopa,9121818128,534053228124,Female,M. Nagalakshmi,615657231627,,,,,,,,,,,,,,,,
153-00002,1,2,153,V Venkat Ramana,9701794221,804758050353,Male,Vallam setty shobha,880069496684,,,,,,,,,,,,,,,,
153-00003,1,2,153,G Murali Krishna,9182611681,450403770041,Male,G. Vani,658308263629,,,,,,,,,,,,,,,,
153-00004,1,2,153,Pendyala Subramanyam,9177734590,485850041443,Male,P. Nagamani,542264924567,,,,,,,,,,,,,,,,
153-00005,1,2,153,Jakkireddy Ramamohan,9494836692,533348379212,Male,J. Venkataramanamma,918230818840,,,,,,,,,,,,,,,,
153-00006,1,2,153,Kummara Obulapathi,9704080299,429929981387,Male,K. Lavanya,984387409117,,,,,,,,,,,,,,,,
153-00007,1,2,153,Sayyed Jeelan Basha,6281597374,373178800260,Male,S. Gouisya,807806295369,,,,,,,,,,,,,,,,
153-00008,1,2,153,G K Prasad,9963172450,939160086482,Male,G. Ramadevi,926091343812,,,,,,,,,,,,,,,,
153-00009,1,2,153,Kamatam Venkatanarayana,9014243300,729853142050,Male,K. Kalavathi,857465750716,,,,,,,,,,,,,,,,
153-00010,1,2,153,Grandhi Diwakar,9290075812,429067476633,Male,J. Anjalidevi,513857504376,,,,,,,,,,,,,,,,
153-00011,1,2,153,R Jayarami Reddy,9440732395,420898492525,Male,R. Swapnaram,682298492515,,,,,,,,,,,,,,,,
153-00012,1,2,153,Maddipoka Vinay Kumar,9052036818,649306018753,Male,M. Lakshmidevi,221769538927,,,,,,,,,,,,,,,,
153-00013,1,2,153,Kenchala Nagesh,9533465751,647373852350,Female,K. Sreeramulu,658693711413,,,,,,,,,,,,,,,,
153-00014,1,2,153,Vadde Anil Kumar,8886363290,980427480740,Male,V. Nagamma,669323725594,,,,,,,,,,,,,,,,
153-00015,1,2,153,Gujjala Raghuvarma,9441611528,329460197552,Male,G.Subadhra,918787305778,,,,,,,,,,,,,,,,
153-00016,1,2,153,Shaik Shafi,8247509733,684639316826,Male,S.Masud Bee,517246778982,,,,,,,,,,,,,,,,
153-00017,1,2,153,G Uday Kumar,9063816722,554874234453,Male,G.Savithramma,289820951242,,,,,,,,,,,,,,,,
153-00018,1,2,153,K Bala Naga Sai,7386891207,333208693942,Male,not working no,Not working,,,,,,,,,,,,,,,,
153-00019,1,2,153,M Manjunath,6301583020,661642672861,Male,M. Govindhamma,364210195153,,,,,,,,,,,,,,,,
153-00020,1,2,153,Anke Eswaraiah,8919181196,820735696524,Male,Sasi Rekha,349275663475,,,,,,,,,,,,,,,,
153-00021,1,2,153,Nayakula Anjineyulu,8074949717,407159166850,Male,N. Anuradha,644971770717,,,,,,,,,,,,,,,,
153-00022,1,2,153,Balija Narashimhulu,9959024129,744053236322,Male,B. Narayanamma,591749162932,,,,,,,,,,,,,,,,
153-00023,1,2,153,Jakkireddy Adhinarayana,9441146280,801499787246,Male,J. Padhamavathi,269245314713,,,,,,,,,,,,,,,,
153-00024,1,2,153,S Hari,8688789866,784294138117,Male,S. Chandra kala,544677252493,,,,,,,,,,,,,,,,
153-00025,1,2,153,Bheemareddy Adinarayana,9440579382,313755647072,Male,B.Subbalakshmi,496015206432,,,,,,,,,,,,,,,,
153-00026,1,2,153,K Lalu Swamy,9000465821,802593886397,Male,Kunka Kumari,262590847093,,,,,,,,,,,,,,,,
153-00027,1,2,153,K Kumari,9515355559,262590847093,Male,K. Laluswamy,802593886397,,,,,,,,,,,,,,,,
153-00028,1,2,153,Y Yaswanth,9392765792,873307293303,Male,Y. Gangamma,922493778655,,,,,,,,,,,,,,,,
153-00029,1,2,153,K Sreenivasulu,7893644260,317069474376,Male,K. Ratnamma,259254000242,,,,,,,,,,,,,,,,
153-00030,1,2,153,Kalimi Setty Chiranjivi,7981635328,536004703795,Male,Y. Navaneetha,635381543748,,,,,,,,,,,,,,,,
153-00031,1,2,153,Baru Saraswathi,9494836922,623407687956,Female,Baru Vaishnavi,723627972454,,,,,,,,,,,,,,,,
153-00032,1,2,153,Bharala Adilakshmi,9866190047,423189600911,Female,Bharala Purushotham,418978174816,,,,,,,,,,,,,,,,
153-00033,1,2,153,Bharala Chiranjeevi,9014762485,853143967262,Male,Bhrala Chevitha,518960611020,,,,,,,,,,,,,,,,
153-00034,1,2,153,P Shakeela,9515628797,934304975350,Female,P. Mahaboob Basha,996235556571,,,,,,,,,,,,,,,,
153-00035,1,2,153,P Ramesh Babu,9440342911,585996711217,Male,P. Rajani,870427621548,,,,,,,,,,,,,,,,
153-00036,1,2,153,Mayan Dada Fareed Khan,9703577521,934187939119,Male,M. Israthjan,553085830843,,,,,,,,,,,,,,,,
153-00037,1,2,153,P Manjunath Royal,9985696880,245541609518,Male,P. Renuka,820668957580,,,,,,,,,,,,,,,,
153-00038,1,2,153,Akula Prasad,7095243434,260671210875,Male,A. Harith,879123229460,,,,,,,,,,,,,,,,
153-00039,1,2,153,P Srinivasulu,9652277942,242725584661,Male,P. Sujatha,223632406183,,,,,,,,,,,,,,,,
153-00040,1,2,153,Boya Ramanjineyulu,9177110341,270935667772,Male,B. Sunitha,344605063118,,,,,,,,,,,,,,,,
153-00041,1,2,153,Thoka Pratap,7675954774,518991346304,Male,T. Jayamma,505033881779,,,,,,,,,,,,,,,,
153-00042,1,2,153,K Harsha Vardhan,8297808543,656289461738,Male,K. Suvarna,760531847047,,,,,,,,,,,,,,,,
153-00043,1,2,153,Kummara Anil Kumar,9052169364,209987168645,Male,K. Himabindu,910428178231,,,,,,,,,,,,,,,,
153-00044,1,2,153,Kummara Murali Krishna,8977497413,217951973693,Male,Y. Ramtulasi,950005066791,,,,,,,,,,,,,,,,
153-00045,1,2,153,K Naga Viswanath,9440733842,619635923749,Male,K. Lakshmi,742157252882,,,,,,,,,,,,,,,,
153-00046,1,2,153,M krishna,9052190193,259875182056,Male,M. Sumathi,440020154127,,,,,,,,,,,,,,,,
153-00047,1,2,153,Yarraguntla Venu Gopal,9440128881,638892241033,Male,Y. Naganandakumari,827466189349,,,,,,,,,,,,,,,,
153-00048,1,2,153,A Vijay Kumar,9949784130,797861936070,Male,A.N. Hemavathi,793249277557,,,,,,,,,,,,,,,,
153-00049,1,2,153,M Mallesh,8142116813,597589268924,Male,M. Narayanamma,639472857624,,,,,,,,,,,,,,,,
153-00050,1,2,153,Gundala Sadanandam,9704903235,813292543079,Male,G. Mariyamma,318087804399,,,,,,,,,,,,,,,,
153-00051,1,2,153,Bestha Anil,9676224845,521279108591,Male,B. Mahalakshmi,589530531612,,,,,,,,,,,,,,,,
153-00052,1,2,153,Akula Ashok,9030343331,958709196936,Male,A. Ramadevi,281906631313,,,,,,,,,,,,,,,,
153-00053,1,2,153,S Sheshadri,9849000262,302856274814,Male,S. Pooja,645868085198,,,,,,,,,,,,,,,,
153-00054,1,2,153,V. jayakrishna,9912888488,929274498866,Male,V. Durgajil,857248125555,,,,,,,,,,,,,,,,
153-00055,1,2,153,Boya Meenakshi,8977343250,997318153180,Female,B. Chandrasekhar,423875023484,,,,,,,,,,,,,,,,
153-00056,1,2,153,Boya Chandr Sekhar,7013112036,423875023484,Male,B. Meenakshi,997318153180,,,,,,,,,,,,,,,,
153-00057,1,2,153,P Baburao,9989429988,722933242779,Male,P. Nirmala,304217476168,,,,,,,,,,,,,,,,
153-00058,1,2,153,I Kiran Kumar,8899995699,202068824751,Male,I. Kalyani,535381402615,,,,,,,,,,,,,,,,
153-00059,1,2,153,G Rajendra Gowd,7013588346,531342549769,Male,D. Swathi,438005754129,,,,,,,,,,,,,,,,
153-00060,1,2,153,K Imam Hussain,9177428255,605925558479,Male,K. Koushal,656563894680,,,,,,,,,,,,,,,,
153-00061,1,2,153,K V Sai Sampath Kumar,8519885006,400260042504,Male,M. Swetha,848392061068,,,,,,,,,,,,,,,,
153-00062,1,2,153,K Gopinath,8374041279,758626492109,Male,K. Suguan,314643809825,,,,,,,,,,,,,,,,
153-00063,1,2,153,M V Srinvasulu,8977785302,526348303065,Male,M.V. Prasannamma,374069103304,,,,,,,,,,,,,,,,
153-00064,1,2,153,A V Chalapathi,9701116669,956963322619,Male,A. Pallavi,856090456908,,,,,,,,,,,,,,,,
153-00065,1,2,153,D Mahammad Shareef,9550299894,730869788400,Male,D. Mahaboob Basha,614243476244,,,,,,,,,,,,,,,,
153-00066,1,2,153,Rolla Bhashkar,7396094888,842023969014,Male,G. Umadevi,816525116523,,,,,,,,,,,,,,,,
153-00067,1,2,153,D Daraj Basha,9347979586,745833022068,Male,D. Naseebjan,231382356168,,,,,,,,,,,,,,,,
153-00068,1,2,153,V Naveen Kumar,9949409614,375002561811,Male,P. Naveenasai,434540584606,,,,,,,,,,,,,,,,
153-00069,1,2,153,N Venkat Sai,8463999694,340182350343,Male,N. Vishali,636504330670,,,,,,,,,,,,,,,,
153-00070,1,2,153,S Chaithanya Krishna,9581121212,201539520009,Male,S. Syamala,840107442485,,,,,,,,,,,,,,,,
153-00071,1,2,153,Gunda Maruthi Prasad,7416044048,692471921413,Male,M. Jayanthi,801232810064,,,,,,,,,,,,,,,,
153-00072,1,2,153,N Jeevan,6300665440,625542556922,Male,P. Yosadha,853295892542,,,,,,,,,,,,,,,,
153-00073,1,2,153,G. Ademma,9059765319,853263125657,Female,G. Umadevi,816525116523,,,,,,,,,,,,,,,,
153-00074,1,2,153,K.V. Ramanjineyulu,6305541446,541702889126,Male,K.V. Umadevi,422738812710,,,,,,,,,,,,,,,,
153-00075,1,2,153,Patti Chandra Sekhar,9848091956,897262837888,Male,P. Hemavathi,699359062901,,,,,,,,,,,,,,,,
153-00076,1,2,153,Rapa Dhanujaya,9951731179,494866391130,Male,Rapa Radha,391148760547,,,,,,,,,,,,,,,,
153-00077,1,2,153,B Sai,9515202103,564354316831,Male,Adilakshmi,532893985538,,,,,,,,,,,,,,,,
153-00078,1,2,153,Sai Thanoz C,7989204910,301397289321,Male,Savithri,631744855927,,,,,,,,,,,,,,,,
153-00079,1,2,153,D Pawan Kumar,9885965120,750442554186,Male,D. Saritha,959729006629,,,,,,,,,,,,,,,,
153-00080,1,2,153,Thota Prakesh,9441222503,344325759328,Male,T. Kalyani,361307384743,,,,,,,,,,,,,,,,
153-00081,1,2,153,G Mahesh,9948727002,670913082362,Male,G. Ramu,406486598610,,,,,,,,,,,,,,,,
153-00082,1,2,153,Gondi Srinvas Kumar,9848188729,891612191792,Male,Parvathi,623805793349,,,,,,,,,,,,,,,,
153-00083,1,2,153,Kummara Nagendra,9701213411,883539027582,Male,K. Lavanya,432266019811,,,,,,,,,,,,,,,,
153-00084,1,2,153,C Lakshmipathi,8985061956,786440255907,Male,C. Himavarshini,417788759245,,,,,,,,,,,,,,,,
153-00085,1,2,153,J Padhamavathi,9440249234,269245314713,Female,J. Niranjan,388381219105,,,,,,,,,,,,,,,,
153-00086,1,2,153,J Venkata Ramanamma,9494836692,918230818840,Female,J. Pawankumar,869259615676,,,,,,,,,,,,,,,,
153-00087,1,2,153,Vallam Setty Chowdappa,9000484240,349005878335,Male,V. Aparna,885360446552,,,,,,,,,,,,,,,,
153-00088,1,2,153,J. Subbaiah,7893267174,708997548583,Male,J. Lakshmidevi,864070786796,,,,,,,,,,,,,,,,
153-00089,1,2,153,Baru Sreenivasulu,9441766207,474890781661,Male,B. Madhavi,397107717886,,,,,,,,,,,,,,,,
153-00090,1,2,153,K Venkatamma,9491875570,288617867338,Female,J. Adinarayana,801499787246,,,,,,,,,,,,,,,,
153-00091,1,2,153,Lakshmi Devi Palagiri,9491363750,265040842300,Female,P. Ajaykumar,698077851111,,,,,,,,,,,,,,,,
153-00092,1,2,153,P Nagalakshmi,6300368673,426583950884,Female,P. Babu,375700828312,,,,,,,,,,,,,,,,
153-00093,1,2,153,S.Shameer Basha,9703576683,596752849125,Male,S. Shaik Ummihani,876230402058,,,,,,,,,,,,,,,,
153-00094,1,2,153,P.sadik vali,9989452296,560280833156,Male,P. Saibira,951363757783,,,,,,,,,,,,,,,,
153-00095,1,2,153,Shaik.Rahamthulla,8106910611,307698093544,Male,Shaik Shameem,611953595860,,,,,,,,,,,,,,,,
153-00096,1,2,153,Pardchuri Venkala Teja,8500076667,348465318468,Male,P. Nagamani,535302364305,,,,,,,,,,,,,,,,
153-00097,1,2,153,P.Chinni Krishna,9491879806,905647991257,Male,P. Rammohan,590730319178,,,,,,,,,,,,,,,,
153-00098,1,2,153,M.Venkata Krishna,8142881911,982379975149,Male,M. Anjanamma,408091903226,,,,,,,,,,,,,,,,
153-00099,1,2,153,S.Mahammad Arif,8142442524,285367893065,Male,Ambur Roshini,963125046193,,,,,,,,,,,,,,,,
153-00100,1,2,153,P.Pruthivi raj,9581686898,216557531942,Male,P. Usharani,411865363373,,,,,,,,,,,,,,,,
153-00101,1,2,153,Ayyavarapalli Kalesh,7799141497,379907812877,Male,G. Taslim,234172427598,,,,,,,,,,,,,,,,
153-00102,1,2,153,J.Abhishek Yadav,7816099606,804845615713,Male,J. Mamatha,512760967948,,,,,,,,,,,,,,,,
153-00103,1,2,153,Shaik Mohameed Zubair,9032604393,950848473311,Male,S. Shahanaz Begum,300980814916,,,,,,,,,,,,,,,,
153-00104,1,2,153,Shaik dada kalandhar,9010441918,823927544690,Male,S. Haseena,756659793583,,,,,,,,,,,,,,,,
153-00105,1,2,153,Shaik Shanoor basha,8247737189,697881461621,Male,S. Ramejibhanu,441497356495,,,,,,,,,,,,,,,,
153-00106,1,2,153,B.Varun Kumar,9703862861,545954582506,Male,B. Ramadevi,488019066730,,,,,,,,,,,,,,,,
153-00107,1,2,153,M.Vinay kumar,7386702403,413121707566,Male,M. Jyothamma,704609892209,,,,,,,,,,,,,,,,
153-00108,1,2,153,R.Jagadesh Kumar,9440427491,972372492112,Male,R. Padmavathi,993965063591,,,,,,,,,,,,,,,,
153-00109,1,2,153,G.V Sreenath,9059678872,875580754356,Male,V. Sreelatha,256230965472,,,,,,,,,,,,,,,,
153-00110,1,2,153,D.Pavan Kumar,9652550568,937594311200,Male,D. Venkatamma,586074178825,,,,,,,,,,,,,,,,
153-00111,1,2,153,Bestha Bharath,8977908253,941739046568,Male,B. Radhamma,279927439036,,,,,,,,,,,,,,,,
153-00112,1,2,153,Rajam bhrgava,9182996775,935325922711,Male,R. Sudeerkumar,741720651246,,,,,,,,,,,,,,,,
153-00113,1,2,153,D.Chinna Imam Sab,9441575448,219151892113,Male,D. Hajirabee,766454551472,,,,,,,,,,,,,,,,
153-00114,1,2,153,Bandaru Sankar,8008640523,918333989829,Male,B. Nagalakshmi,209357178740,,,,,,,,,,,,,,,,
153-00115,1,2,153,P.Fakruddin,8309246339,634720580123,Male,T. Vahida,374605166182,,,,,,,,,,,,,,,,
153-00116,1,2,153,K. Baba Fakruddin,7386666612,690141885913,Male,K. Shahariyaz,502576834613,,,,,,,,,,,,,,,,
153-00117,1,2,153,S.Lokesh,9177014191,891853586285,Male,S. Marthamma,769179420675,,,,,,,,,,,,,,,,
153-00118,1,2,153,D. Mahammad Rafi,6301431764,387861260053,Male,D. Beebi,265520773167,,,,,,,,,,,,,,,,
153-00119,1,2,153,Avvula Srinath,9014273218,888067745394,Male,A. Kalpana,590112554894,,,,,,,,,,,,,,,,
153-00120,1,2,153,Shaik Khasim,9160096061,240009751831,Male,S. Babavali,884903541006,,,,,,,,,,,,,,,,
153-00121,1,2,153,Uppana Bhargava,9515772277,581773663123,Male,C. Kalpana,389038384727,,,,,,,,,,,,,,,,
153-00122,1,2,153,P. Janardhan,9398383959,844194160671,Male,P. Savitramma,421452048046,,,,,,,,,,,,,,,,
153-00123,1,2,153,Dasari Ashok,9502445601,607398999539,Male,D. Bhargavi,372683981624,,,,,,,,,,,,,,,,
153-00124,1,2,153,U.Kranthi Kumar,9705050031,205193804678,Male,D. Adilakshmi,768767163199,,,,,,,,,,,,,,,,
153-00125,1,2,153,Uppara Jagannath,8639733830,979987897684,Male,N. Sujatha,596948893604,,,,,,,,,,,,,,,,
153-00126,1,2,153,G.Ayyali,9949224344,367367710408,Male,G. Sujatha,418971816599,,,,,,,,,,,,,,,,
153-00127,1,2,153,K.balayya,8500235742,828798434523,Male,K. Krishnaveni,261351463565,,,,,,,,,,,,,,,,
153-00128,1,2,153,S.Mahesh Babu,7416280908,905723458500,Male,S. Sreedhar,876225161176,,,,,,,,,,,,,,,,
153-00129,1,2,153,S. Shamulla,9492197216,719031120943,Male,S. Noor Mahamma,307552932819,,,,,,,,,,,,,,,,
153-00130,1,2,153,Sake Vijay Kumar,9704534904,721241734807,Male,S. Susheela,582274215224,,,,,,,,,,,,,,,,
153-00131,1,2,153,D.Anwar basha,9951342065,366093012296,Male,D. Ameena,663763034072,,,,,,,,,,,,,,,,
153-00132,1,2,153,G.Zeelan Basha,9494435145,588788777964,Male,G. Gulzar Begum,370169183263,,,,,,,,,,,,,,,,
153-00133,1,2,153,janaki Ramesh Babu,9032210853,606005823582,Male,J. Lashmi,906392655302,,,,,,,,,,,,,,,,
153-00134,1,2,153,K Suresh,9985097986,240843507434,Male,K. Aruna,683314405696,,,,,,,,,,,,,,,,
153-00135,1,2,153,Rajapalem Sreenivasulu,9440798303,711959709132,Male,R. Lakshmidevi,443095954103,,,,,,,,,,,,,,,,
153-00136,1,2,153,B.Babu,9573544474,767314954277,Male,D. Narayanamma,346074328467,,,,,,,,,,,,,,,,
153-00137,1,2,153,Akula Pavan kumar,9441602591,774531879241,Male,A. Lakhsmidevi,383092251448,,,,,,,,,,,,,,,,
153-00138,1,2,153,M.Tej deepak,9963077457,999249944722,Male,P.M. Vijayalakshmi,958814759025,,,,,,,,,,,,,,,,
153-00139,1,2,153,Sake Chandara Naraya,9603580303,443965399897,Male,S. Obulamma,619724561893,,,,,,,,,,,,,,,,
153-00140,1,2,153,D Munaf,9010913780,633731737794,Male,P.R. Anjum,847540306040,,,,,,,,,,,,,,,,
153-00141,1,2,153,dasari Thimappa,9866446382,333442836717,Male,D. Gowri,674864243301,,,,,,,,,,,,,,,,
153-00142,1,2,153,K. Hassian Bee,9177428255,790357841195,Female,K. Imam Hussain,605925558478,,,,,,,,,,,,,,,,
153-00143,1,2,153,H.Adinararaya,9704282445,768036500020,Male,H. Uma Maheswari,372162481153,,,,,,,,,,,,,,,,
153-00144,1,2,153,Shaik Mahaboob,9492666825,460260520901,Male,Shaik Shekun,351452908002,,,,,,,,,,,,,,,,
153-00145,1,2,153,G.Ramamurty,9441276097,443938808845,Male,G.Thimmappa,203452094426,,,,,,,,,,,,,,,,
153-00146,1,2,153,U. Vimaladevi,8374469774,915396973249,Female,V. Krishnamurthy,807392350922,,,,,,,,,,,,,,,,
153-00147,1,2,153,K.Krishna,9703552155,529294221001,Male,K. Syamala,,,,,,,,,,,,,,,,,
153-00148,1,2,153,G.Guru Shankar,9701438605,911516660805,Male,G. Jhansi,391027153190,,,,,,,,,,,,,,,,
153-00149,1,2,153,Dasari arun Kumar,6300731301,615768845640,Male,Dasari Anil Kumar,919718131235,,,,,,,,,,,,,,,,
153-00150,1,2,153,C.Raghu,7095015772,634985431184,Male,,,,,,,,,,,,,,,,,,
153-00151,1,2,153,Baineni Sai Jhansi,9704343276,391027153190,Female,G. Guru Sankar,911516660805,,,,,,,,,,,,,,,,
153-00152,1,2,153,g.Praveen Kumar,9177115461,964007478015,Male,P. Pravallika,236937842682,,,,,,,,,,,,,,,,
153-00153,1,2,153,K.M. Hari Krishna,9052878078,538007803469,Male,K.M. Lakshmi Devi,965860724465,,,,,,,,,,,,,,,,
153-00154,1,2,153,manavathi Sai Kumar,9182665671,296543956801,Male,M. Yellappa,629506767955,,,,,,,,,,,,,,,,
153-00155,1,2,153,Pasupuleti nagaraju,9440561668,518533982245,Male,P. Vijayalakshmi,856892105914,,,,,,,,,,,,,,,,
153-00156,1,2,153,challa sham prasad,9666899849,484189993485,Male,C. Veera Naramma,756538997690,,,,,,,,,,,,,,,,
153-00157,1,2,153,R.Ravindranath,9440289940,390791124932,Male,R. Sushismita,392301078128,,,,,,,,,,,,,,,,
153-00158,1,2,153,G.Sreedhar,9966662989,840398399610,Male,G. Sashikala,249622367597,,,,,,,,,,,,,,,,
153-00159,1,2,153,Ballaru Anil Kumar,7032806594,680952296768,Male,B. Subbarayudu,349102052859,,,,,,,,,,,,,,,,
153-00160,1,2,153,A.Neeraja,9573639984,736683774797,Female,A.Nagaraju,290469337275,,,,,,,,,,,,,,,,
153-00161,1,2,153,A.Uday Kumar,9989453346,719628478768,Male,A.Hemalatha,288002578768,,,,,,,,,,,,,,,,
153-00162,1,2,153,A.Nagaraju,9704687078,290469337275,Male,A.Neeraja,736683774797,,,,,,,,,,,,,,,,
153-00163,1,2,153,A.Hemalatha,9676103485,288002578768,Female,A. Uday Kumar,719628478768,,,,,,,,,,,,,,,,
153-00164,1,2,153,K.Dhanjaya,9059403553,326341779161,Male,K. Hemalatha,747653752088,,,,,,,,,,,,,,,,
153-00165,1,2,153,A.Ramakrishna,9440044939,413929234720,Male,T. Shanthi,669199629210,,,,,,,,,,,,,,,,
153-00166,1,2,153,P Shanthi,9533703658,669199629210,Female,A.Ramakrishna,413929234720,,,,,,,,,,,,,,,,
153-00167,1,2,153,M. Barath Kumar,9951281816,836055461845,Male,M. Eswaramma,293100209670,,,,,,,,,,,,,,,,
153-00168,1,2,153,M Saijyoshna,9494426907,504613125529,Female,E. Karthik Kumar,369444267500,,,,,,,,,,,,,,,,
153-00169,1,2,153,K Anil Kumar,9866190886,306809262284,Male,K. Vasundhara,778866033224,,,,,,,,,,,,,,,,
153-00170,1,2,153,R Swapna ram,9398235993,682211440013,Female,R. Jayarami Reddy,420898492515,,,,,,,,,,,,,,,,
153-00171,1,2,153,G.Devendra,9866866626,848882021059,Male,G. Chandrika,606557808160,,,,,,,,,,,,,,,,
153-00172,1,2,153,P.Mahesh (Uma),9491667292,295978840129,Male,P. Adilakshmi,240795071039,,,,,,,,,,,,,,,,
153-00173,1,2,153,D.Eswaraih,9440777066,501370789075,Male,K. Maheswari,286540315131,,,,,,,,,,,,,,,,
153-00174,1,2,153,Akula Hari Krishna,7989144940,675463000616,Male,Shaik Shabana,657991894176,,,,,,,,,,,,,,,,
153-00175,1,2,153,Pachipulusu Pavan Kumar,9032667155,985785938843,Male,P. Naga Sindhu,466600576754,,,,,,,,,,,,,,,,
153-00176,1,2,153,Shaik Shekun,9701127345,351452908002,Female,S. Mahaboob Basha,460260520901,,,,,,,,,,,,,,,,
153-00177,1,2,153,Mangala Aswini,9441449614,533458052470,Female,Mangala Nagaraju,995680188352,,,,,,,,,,,,,,,,
153-00178,1,2,153,shaik Fakruddin,9701715627,243001767395,Male,Noorbi Shaik,894258913488,,,,,,,,,,,,,,,,
153-00179,1,2,153,J Subramanyam,9392326349,495377756801,Male,J Sukanya,327596715439,,,,,,,,,,,,,,,,
153-00180,1,2,153,D.Bikaramma,8790610342,814461995315,Female,D. Raheem,258929789160,,,,,,,,,,,,,,,,
153-00181,1,2,153,Mangala Nagaraju,9642558655,995680188352,Male,Mangala Aswini,533458052470,,,,,,,,,,,,,,,,
153-00182,1,2,153,sake Ashok,8885400526,765529567763,Male,K. Jyothi,852938088869,,,,,,,,,,,,,,,,
153-00183,1,2,153,Gujjala hari Krishna,7095520947,872295720782,Male,K Anjinamma,872295720782,,,,,,,,,,,,,,,,
153-00184,1,2,153,Jayapal Reddy,8985548848,576301930400,Male,D Latha,630003981276,,,,,,,,,,,,,,,,
153-00185,1,2,153,Shaik Jubeir,6302849039,788199563504,Male,Shaik Haseena,613397976648,,,,,,,,,,,,,,,,
153-00186,1,2,153,Shaik Haseena,6302849039,613397976648,Female,Shaik Aslam,355560257863,,,,,,,,,,,,,,,,
153-00187,1,2,153,Shaik Sheksha vali,6302849039,331598002564,Male,Shaik Jubair,788111563504,,,,,,,,,,,,,,,,
153-00188,1,2,153,Shaik Aslam,9985258947,355560257863,Male,Shaik Haseena,613397976646,,,,,,,,,,,,,,,,
153-00189,1,2,153,Kudrlu imam Hussen,8008448428,864529589653,Male,Razia,982475681287,,,,,,,,,,,,,,,,
153-00190,1,2,153,Kuderu rajiya,7702906365,982475681287,Female,Imam Hussain,864529589653,,,,,,,,,,,,,,,,
153-00191,1,2,153,Shaik Bellary dada Khalandar,6305653462,354203262086,Male,Shaik Noori,981558521096,,,,,,,,,,,,,,,,
153-00192,1,2,153,Shaik Sheksha vali,6302969653,818885510596,Male,Shaik Bellari Dada Khalandar,354203262086,,,,,,,,,,,,,,,,
153-00193,1,2,153,Seik Noori,6305653462,981558521096,Female,Shaik Bellari Dada Khalandar,354203262086,,,,,,,,,,,,,,,,
153-00194,1,2,153,Shaik Shajaji,9705224398,569707656751,Female,Baba Khalandar,829937574700,,,,,,,,,,,,,,,,
153-00195,1,2,153,Sayyad Roshini,9705224398,478508554106,Female,Shaikshavali,326051031537,,,,,,,,,,,,,,,,
153-00196,1,2,153,Boya ramanjinamma,9701029895,763415192347,Female,Talari Suresh,889646188758,,,,,,,,,,,,,,,,
153-00197,1,2,153,Talari Suresh,9701029895,889646188758,Male,B Ramanjinamma,763415192347,,,,,,,,,,,,,,,,
153-00198,1,2,153,Boya Rajani,9701029895,276874533683,Female,T Chandra,786528360814,,,,,,,,,,,,,,,,
153-00199,1,2,153,Guldla Narayana,9701029895,430144877827,Male,Boya Ramanjinamma,763415192347,,,,,,,,,,,,,,,,
153-00200,1,2,153,Chakali sahthamma,8019273266,746103200744,Female,Chalapathi,394118441753,,,,,,,,,,,,,,,,
153-00201,1,2,153,kasul fatima,8185824565,921395727959,Female,Kasula Mahaboob Sab,731841612458,,,,,,,,,,,,,,,,
153-00202,1,2,153,kasula mabhoo Sab,8185824564,731841612458,Male,Kasuls Fathima,921395727959,,,,,,,,,,,,,,,,
153-00203,1,2,153,Balavallu Kullayappa,8341264989,383345519978,Male,B. Lakshmi Devi,975366711731,,,,,,,,,,,,,,,,
153-00204,1,2,153,Balavallu Lakshmi Devi,8341264989,975366711731,Female,B. Kullayappa,383345519978,,,,,,,,,,,,,,,,
153-00205,1,2,153,Dommaru Srinivasulu,7670856926,942464483350,Male,Lakshmi Devi,411237230018,,,,,,,,,,,,,,,,
153-00206,1,2,153,Dommaru Lakshmi Devi,7670856926,411237230018,Female,Sreenivasulu,942464483350,,,,,,,,,,,,,,,,
153-00207,1,2,153,Boya Aklesh,9701029895,498906479693,Male,Madhav,517231268980,,,,,,,,,,,,,,,,
153-00208,1,2,153,Shaik Baba Khalandhar,9705224398,829937574700,Male,Shaik Shahaji,567907656751,,,,,,,,,,,,,,,,
153-00209,1,2,153,Madirepalli Shaik Dada,7995587973,698877856726,Male,Shaik Jabina,958028267859,,,,,,,,,,,,,,,,
153-00210,1,2,153,Shek Parveen,9349223737,495574308797,Female,Shaik Jaffer,891685377839,,,,,,,,,,,,,,,,
153-00211,1,2,153,Kolima Mabooni,7702906365,356411774777,Female,Shaik Praveena,495574308797,,,,,,,,,,,,,,,,
153-00212,1,2,153,D.Rizwana,7995340742,935138971879,Female,M.N. Rafi,369018172064,,,,,,,,,,,,,,,,
153-00213,1,2,153,Kolima Haseena,9394223737,473034355871,Female,Shaik Jabir,450761196126,,,,,,,,,,,,,,,,
153-00214,1,2,153,shaik jabeena,7995587973,958028267859,Female,Shaik Dada,698877856726,,,,,,,,,,,,,,,,
153-00215,1,2,153,N.Pavan Kumar Naik,9030370001,270259421099,Male,Kalavathi N,570137349999,,,,,,,,,,,,,,,,
153-00216,1,2,153,Dhommari lakshmi Devi,8897644734,883429160681,Female,B Anil,883429160681,,,,,,,,,,,,,,,,
153-00217,1,2,153,D.Anil,8897644734,883429160681,Male,D. Lalitha,509011332947,,,,,,,,,,,,,,,,
153-00218,1,2,153,D.Lalitha,8897644734,509011332947,Female,D. Anil,883429160681,,,,,,,,,,,,,,,,
153-00219,1,2,153,Shek farooq,8142448406,788487166971,Male,Rizwana,504440104459,,,,,,,,,,,,,,,,
153-00220,1,2,153,Doddi Dinesh Kumar,8143565352,574710356259,Male,Sharada,260375019357,,,,,,,,,,,,,,,,
153-00221,1,2,153,Shaik Subahani,8790192766,494456208707,Male,Shabana,930331992979,,,,,,,,,,,,,,,,
153-00222,1,2,153,Doddi Sairaj,9014447334,824602613505,Male,Sharada,260375019357,,,,,,,,,,,,,,,,
153-00223,1,2,153,T.C.Varun,9849733666,279893599445,Male,V. Yamini,733072885218,,,,,,,,,,,,,,,,
153-00224,1,2,153,Pula Sambasiva,9966146735,601151839084,Male,Lakshmi Prasanna,990533698159,,,,,,,,,,,,,,,,
153-00225,1,2,153,Rapa Radha,8328154063,391148760547,Female,Rapa Dhanunjaya,494866391130,,,,,,,,,,,,,,,,
153-00226,1,2,153,Pinne Palli Devendrath,9848569494,401009341145,Male,Aswini,685752971809,,,,,,,,,,,,,,,,
153-00227,1,2,153,Chakravarthy Madhavi,9989160743,574937062833,Female,Bogeswar,448396290175,,,,,,,,,,,,,,,,
153-00228,1,2,153,Pinnepalli Bogeeswar,9989160143,448396290175,Male,Chakravathy Madhavi,574937062833,,,,,,,,,,,,,,,,
153-00229,1,2,153,Rapa sathish,9620321944,239431646939,Male,Rapa Venkatarao,699204035856,,,,,,,,,,,,,,,,
153-00230,1,2,153,Rapa Venkat rao,9620321944,699204035856,Male,Rapa Sathish,239431646939,,,,,,,,,,,,,,,,
153-00231,1,2,153,G.Dinesh Kumar,9440026756,345462471016,Male,G. Suresh,339712549127,,,,,,,,,,,,,,,,
153-00232,1,2,153,Gorantla Suresh,9440026756,339812549127,Male,G Dinesh Kumar,345462471016,,,,,,,,,,,,,,,,
153-00233,1,2,153,Y.Lingamaiah,7013219091,770507980635,Male,G. Sreeharshini,743537397557,,,,,,,,,,,,,,,,
153-00234,1,2,153,N.Madhu,9014869334,405570143577,Male,Shankar,341558667301,,,,,,,,,,,,,,,,
153-00235,1,2,153,Tulupula Bharath,7981890443,524930169031,Male,Jayalakshmi,488831902129,,,,,,,,,,,,,,,,
153-00236,1,2,153,C.Shasi Kumar,8317391724,993034934839,Male,Renuka,920855971582,,,,,,,,,,,,,,,,
153-00237,1,2,153,T.C.Anil,9160238770,332293806566,Male,Chandrakala,219898477611,,,,,,,,,,,,,,,,
153-00238,1,2,153,Abdul rahim,9535594299,839888964297,Male,Hazeebi,247603921015,,,,,,,,,,,,,,,,
153-00239,1,2,153,Ramesh,7981931246,847701415662,Male,Aruna,540703986565,,,,,,,,,,,,,,,,
153-00240,1,2,153,Pasupuleti Sivananda,9440247798,252662039488,Male,Pasupulei Radha,214019281884,,,,,,,,,,,,,,,,
153-00241,1,2,153,Pasupuleti Radha,8519964689,214019281884,Female,Pasupuleri Sivananda,252662039488,,,,,,,,,,,,,,,,
153-00242,1,2,153,P.vasanthamma,9666479431,278444460169,Female,P. Niranjan,615085969799,,,,,,,,,,,,,,,,
153-00243,1,2,153,P.Nirajan,9390374804,615085969799,Male,P. Vasanathamma,278444460169,,,,,,,,,,,,,,,,
153-00244,1,2,153,Pasupuleti raghavendra kumar,9912126790,535390569637,Male,P. Varalakshmi,411300742370,,,,,,,,,,,,,,,,
153-00245,1,2,153,Dhandu Lokesh,9985400479,461408065889,Male,Durga,254726195997,,,,,,,,,,,,,,,,
153-00246,1,2,153,Muppuri sumathi,6281785207,440020154127,Female,Muppuri Krishna,259875182056,,,,,,,,,,,,,,,,
153-00247,1,2,153,Gundu Ravi,8297204231,929310035830,Male,G. Lakshmi,620185336698,,,,,,,,,,,,,,,,
153-00248,1,2,153,Devana santhosh Kumar,9949724211,457571734175,Male,Satyanarayana,737019937884,,,,,,,,,,,,,,,,
153-00249,1,2,153,Kotte Anjaneyulu,8247058008,805925030632,Male,K. Vijayalakshmi,370737228313,,,,,,,,,,,,,,,,
153-00250,1,2,153,Karanam ranganayakulu,9985167577,905716881529,Male,K. Saroja,331259119393,,,,,,,,,,,,,,,,
153-00251,1,2,153,Kalimisetty Kesavayya,7396319672,602516755280,Male,K. Savitri,676541329916,,,,,,,,,,,,,,,,
153-00252,1,2,153,Posa Upendra,6305606391,978283386401,Male,Posa Parvathi,227710243753,,,,,,,,,,,,,,,,
153-00253,1,2,153,Kalimisetty Prasad,9441445187,268153967829,Male,K. Thulasi,680789820979,,,,,,,,,,,,,,,,
153-00254,1,2,153,Palamasi Vijaykumar,9885533264,727514363012,Male,Varalakshmi,349918528516,,,,,,,,,,,,,,,,
153-00255,1,2,153,Kondi Setti Srinivasulu,9985886698,555571378406,Male,K. Bharathi,232042267198,,,,,,,,,,,,,,,,
153-00256,1,2,153,Kalimi setty Sudheer Babu,9441276644,911970349413,Male,K. Saraswarthi,222169708963,,,,,,,,,,,,,,,,
153-00257,1,2,153,U Vishwanath,9908898316,560976217160,Male,U. Kalavathi,842978244271,,,,,,,,,,,,,,,,
153-00258,1,2,153,Kalimisetty Venkateshlu,9949767403,746759905674,Male,K. Lakshmi Devi,460041699076,,,,,,,,,,,,,,,,
153-00259,1,2,153,kalimishetti ramakrishna,9502480779,532506640690,Male,K. Lakshmi Devi,619933451207,,,,,,,,,,,,,,,,
153-00260,1,2,153,Maligivali Thathaiah,9398955124,663377769542,Male,M. Lakshmidevi,437836914418,,,,,,,,,,,,,,,,
153-00261,1,2,153,Vallamsetty Nagaraju,9014310438,668275952608,Male,Y. Madhavi Lalitha,954866553344,,,,,,,,,,,,,,,,
153-00262,1,2,153,Puli.Pratheesha,9966665665,650875444672,Female,S. Phani Kumar,743983239734,,,,,,,,,,,,,,,,
153-00263,1,2,153,Sunkara Phani kumar,9966665665,743983239734,Male,Pratheesha,650875444672,,,,,,,,,,,,,,,,
153-00264,1,2,153,Kasetty Sanjeeva Rayudu,9985231187,576051553707,Male,K. Savitri,710926772468,,,,,,,,,,,,,,,,
153-00265,1,2,153,Kasetty savithri,6303414732,710926772468,Female,Kasetty Sanjeevarayudu,576051553707,,,,,,,,,,,,,,,,
153-00266,1,2,153,Yaleti Ganesh,9985018301,438169021083,Male,K. Yamuna,695732992387,,,,,,,,,,,,,,,,
153-00267,1,2,153,G Vijaya kumar,9849933997,765202961983,Male,G. Nagamani,673790423080,,,,,,,,,,,,,,,,
153-00268,1,2,153,G Anil kumar,9985089555,605010473172,Male,G. Vijayakumar,765202961983,,,,,,,,,,,,,,,,
153-00269,1,2,153,Chouthuri Narahari raju,9000465691,592441702602,Male,Nagamani,235305424227,,,,,,,,,,,,,,,,
153-00270,1,2,153,M Madhavan,9494675112,350688284943,Male,S. Udaya,,,,,,,,,,,,,,,,,
153-00271,1,2,153,G Babu Fakruddin,9666622090,866502219902,Male,Maneesha,854793170748,,,,,,,,,,,,,,,,
153-00272,1,2,153,Surya Manjunath,9542218146,383122930203,Male,Pavitra,918468386661,,,,,,,,,,,,,,,,
153-00273,1,2,153,R Kullaya Swamy,9703808141,825173351018,Male,G. Jyothi,606799656124,,,,,,,,,,,,,,,,
153-00274,1,2,153,Mangali Kullayappa,9989453717,965688310644,Male,Maheswari,782690824672,,,,,,,,,,,,,,,,
153-00275,1,2,153,G Chinna,9494434491,572029717079,Male,G. Renuka,565608787383,,,,,,,,,,,,,,,,
153-00276,1,2,153,B Yogesh Chandra,7075157246,466818811089,Male,Mahalakshmi,635179744027,,,,,,,,,,,,,,,,
153-00277,1,2,153,Tambala hima Karthik,6303399560,834134203635,Male,Umavathi,752600908244,,,,,,,,,,,,,,,,
153-00278,1,2,153,Mylapuram Bhuvanesh,7075513733,520579738488,Male,M. Venkata Mounika,207867243915,,,,,,,,,,,,,,,,
153-00279,1,2,153,Mylapuram Venkata Mounik,6300727758,207867243915,Male,Bhavanesh,520579738488,,,,,,,,,,,,,,,,
153-00280,1,2,153,Chitta Hemanth Kumar,9502761573,587550935664,Male,C. Charulatha,603252403960,,,,,,,,,,,,,,,,
153-00281,1,2,153,Sayyad Sohail Basha,6302503457,887274924566,Male,Syed Chand Basha,59377144453,,,,,,,,,,,,,,,,
153-00282,1,2,153,Sayyad Chand Basha,6305365653,208534797975,Male,Syed Shail Basha,887274924566,,,,,,,,,,,,,,,,
153-00283,1,2,153,Dasari Ashok,9492749761,375476472968,Male,Jyosthna,894950021090,,,,,,,,,,,,,,,,
153-00284,1,2,153,M Ashok,9550521204,630917504266,Male,M. Ramanjaneyulu,769404236233,,,,,,,,,,,,,,,,
153-00285,1,2,153,C N Sainath,7780724511,461856890470,Male,G Ananda Rao,637937218853,,,,,,,,,,,,,,,,
153-00286,1,2,153,S Mahaboob basha,9701985798,597260666854,Male,Bibijan,699704655831,,,,,,,,,,,,,,,,
153-00287,1,2,153,B Sriramulu,8897378862,961381877588,Male,Boya Aswini,569315163253,,,,,,,,,,,,,,,,
153-00288,1,2,153,V.M.Ganesh,8328613003,661293299604,Male,V.M. Ratna,399193194918,,,,,,,,,,,,,,,,
153-00289,1,2,153,M Veerateja,8142302507,210761335553,Male,Someswari,945939730112,,,,,,,,,,,,,,,,
153-00290,1,2,153,JC Jayanth Krishna,7416706770,591977285649,Male,JC Hari Prasad,310922630968,,,,,,,,,,,,,,,,
153-00291,1,2,153,G Gurudatta Sharma,9493787983,526715247767,Male,Rahul,975483887489,,,,,,,,,,,,,,,,
153-00292,1,2,153,D.V. Praful Kiran,9989915316,904041310901,Male,Avula Sravani,883265272253,,,,,,,,,,,,,,,,
153-00293,1,2,153,D.V. Abhinandhan,9849511170,694654178332,Male,Maruthi Lokeswari,294038701406,,,,,,,,,,,,,,,,
153-00294,1,2,153,P Sharath Kumar,7207702526,579999043704,Male,Pasupuleti Nirmala,662170363017,,,,,,,,,,,,,,,,
153-00295,1,2,153,Koppala Roofesh Kumar,9866084870,816295326122,Male,M Aruna,684012610046,,,,,,,,,,,,,,,,
153-00296,1,2,153,Bandi Ram Mohan,9986800407,788227950912,Male,Swapna P,743753698549,,,,,,,,,,,,,,,,
153-00297,1,2,153,Mallela Venkataramula,9963055778,670964253336,Male,Mallela Varlakshmi,336541525524,,,,,,,,,,,,,,,,
153-00298,1,2,153,Mallela Varalakshmi,9963055778,336541525524,Female,Mallela Venkataramula,670964253336,,,,,,,,,,,,,,,,
153-00299,1,2,153,G Ramu,9948727002,406486598610,Male,G. Mahesh,670913082362,,,,,,,,,,,,,,,,
153-00300,1,2,153,Ajay Baradwaj,7981391049,302997264591,Male,T. Venkatalakshmi,800859760827,,,,,,,,,,,,,,,,
153-00301,1,2,153,Gopi Krishna,9010681795,269910825064,Male,Golla Aruna,684711353646,,,,,,,,,,,,,,,,
153-00302,1,2,153,Bandi Vinod Kumar,6301357307,864360826631,Male,Bandi Lakshmi Devi,559400935886,,,,,,,,,,,,,,,,
153-00303,1,2,153,T Shiva Kumar,8309141969,744748770352,Male,G. Mahesh,670913082362,,,,,,,,,,,,,,,,
153-00304,1,2,153,B Nagarajuna,9676582071,803081501587,Male,P. Manjula,238070496263,,,,,,,,,,,,,,,,
153-00305,1,2,153,C Gowtham,8143467226,628715042050,Male,C. Eswaramma,806749546591,,,,,,,,,,,,,,,,
153-00306,1,2,153,A Zeelam,7680886722,385902303973,Male,A. Zareena,678367043363,,,,,,,,,,,,,,,,
153-00307,1,2,153,V Ram Manoj Rao,8919879393,316156248614,Male,V Mukunda Rao,734775607498,,,,,,,,,,,,,,,,
153-00308,1,2,153,A Obulesu,9441765808,368647948814,Male,S. Sowjanya,374957100080,,,,,,,,,,,,,,,,
153-00309,1,2,153,S Madhusudhan,9490548819,441340238446,Male,S Roopa,782480401317,,,,,,,,,,,,,,,,
153-00310,1,2,153,Waheedulla Khan,9441445018,438455564172,Male,Sadiq Fathima,610788405248,,,,,,,,,,,,,,,,
153-00311,1,2,153,C Purushottam,9441361814,916414833697,Male,C Devika Rani,427293758534,,,,,,,,,,,,,,,,
153-00312,1,2,153,G Sreehari,8096058095,716901815913,Male,Parvathi,623805793349,,,,,,,,,,,,,,,,
153-00313,1,2,153,P Ramachandra,9959224720,511757676066,Male,P Suseela,595055220110,,,,,,,,,,,,,,,,
153-00314,1,2,153,A Suresh Kumar,9652378389,526155862561,Male,K. Madhavi,634657747094,,,,,,,,,,,,,,,,
153-00315,1,2,153,A Kiran Kumar,9440060203,651422703318,Male,Swarna Latha,228953085086,,,,,,,,,,,,,,,,
153-00316,1,2,153,A Manohar,7601065988,918708886231,Male,A Saroja,404789675053,,,,,,,,,,,,,,,,
153-00317,1,2,153,A Saroja,7601065988,404789675053,Female,A Manohar,918708886231,,,,,,,,,,,,,,,,
153-00318,1,2,153,A Vani,7601065988,242699359215,Female,A Saroja,404789675053,,,,,,,,,,,,,,,,
153-00319,1,2,153,G Obulamma,9441388629,795555487576,Female,G Bhaghaya laxmi,960575987586,,,,,,,,,,,,,,,,
153-00320,1,2,153,S Nagarathnamma,8309961138,268890785885,Female,Amrutha,580009272293,,,,,,,,,,,,,,,,
153-00321,1,2,153,Sreesailam Hari,8309961138,817732041528,Male,Amrutha,580009272293,,,,,,,,,,,,,,,,
153-00322,1,2,153,A Lakshmidevi,7396074518,266193995755,Female,A Haridas,365571644157,,,,,,,,,,,,,,,,
153-00323,1,2,153,Akkili haridas,9490901754,365571644157,Male,A Lakshmi Devi,266193995755,,,,,,,,,,,,,,,,
153-00324,1,2,153,A Subbaraidu,9581194404,815130388485,Male,Sakuntala,564307950564,,,,,,,,,,,,,,,,
153-00325,1,2,153,A Sreenivasulu,7382794378,318837796422,Male,A Subhash,210037734626,,,,,,,,,,,,,,,,
153-00326,1,2,153,A subhash,7032073371,210037734626,Male,Sreenivasulu,318837796422,,,,,,,,,,,,,,,,
153-00327,1,2,153,Shaik Tarimela Sailani,6301278470,241311553093,Male,Dada Khalandhar,959844527203,,,,,,,,,,,,,,,,
153-00328,1,2,153,Shaik Tarimela Dada Khalander,6301278470,959844527203,Male,Tarimela Sailani,241311553093,,,,,,,,,,,,,,,,
153-00329,1,2,153,G Parandhama Gowd,9642375717,630818767080,Male,Lakshmi Devi,717048532053,,,,,,,,,,,,,,,,
153-00330,1,2,153,G Lakshmi Devi,7013588346,717048532053,Female,G Parandhama Gowd,630818767080,,,,,,,,,,,,,,,,
153-00331,1,2,153,G Venkatamma,7013588346,315720440325,Female,G. Raju,531342549769,,,,,,,,,,,,,,,,
153-00332,1,2,153,Prodduturu Radha Krishna Murthy,9000463635,360027534248,Male,P. Sujatha,950687429211,,,,,,,,,,,,,,,,
153-00333,1,2,153,Prodduturu Pavan Sai,9866400669,313329520403,Male,Radha Krishna,360027534248,,,,,,,,,,,,,,,,
153-00334,1,2,153,K Nazeem,9642927387,637154965817,Male,K. Rajiya Bi,492996491584,,,,,,,,,,,,,,,,
153-00335,1,2,153,H Amidyala Thippeswamy,7013522198,963693487290,Male,Amidyala Laleppa,302304475440,,,,,,,,,,,,,,,,
153-00336,1,2,153,K Idayath,9032202042,390563048007,Male,Siraj,202092297424,,,,,,,,,,,,,,,,
153-00337,1,2,153,R Sujatha,9182525228,482967107550,Female,Devendra,953121506264,,,,,,,,,,,,,,,,
153-00338,1,2,153,Galla Harsha,9866714382,524471604300,Male,Pinisetti Purodwikarani,314532494495,,,,,,,,,,,,,,,,
153-00339,1,2,153,Pendlimari Bhargava Sai,9000225454,442705957231,Male,P Pavan Kumar,206198766274,,,,,,,,,,,,,,,,
153-00340,1,2,153,Pendlimari Pavan kumar,9908095559,206198766274,Male,Bhargav Sai,442705957231,,,,,,,,,,,,,,,,
153-00341,1,2,153,Gajula Manoj Kumar,7997688933,873198948654,Male,G. Subhahani,467725635034,,,,,,,,,,,,,,,,
153-00342,1,2,153,S Riyaz,6304265388,543545278942,Male,Rameeja S,802610323894,,,,,,,,,,,,,,,,
153-00343,1,2,153,Sayed Sana ulla,6304265388,560552315446,Male,Sayed Afsara,633936247757,,,,,,,,,,,,,,,,
153-00344,1,2,153,Syed Apsara,6304265388,633936247757,Female,Sayed Sana ulla,560552315446,,,,,,,,,,,,,,,,
153-00345,1,2,153,Shaik Rameeja,6304265388,802610323894,Female,S. Riyaz,543545278942,,,,,,,,,,,,,,,,
153-00346,1,2,153,Nettikanti harish,6281501338,462000588724,Male,M. Neeraja,610038113144,,,,,,,,,,,,,,,,
153-00347,1,2,153,M Neeraja,9581823514,610038113144,Female,Nettikanti Harish,462000588724,,,,,,,,,,,,,,,,
153-00348,1,2,153,Kommalolla Anand Babu,7032127129,776471469464,Male,K Nagamani,234016032250,,,,,,,,,,,,,,,,
153-00349,1,2,153,N Lakshmi Narayana,9160380405,796842428607,Male,N Harish,462000588724,,,,,,,,,,,,,,,,
153-00350,1,2,153,Manchineella Bharath,9490460614,311663520712,Male,M Venkat,589197066453,,,,,,,,,,,,,,,,
153-00351,1,2,153,M Venkat,6302585597,589197066453,Male,Manchineella Bharath,311663520712,,,,,,,,,,,,,,,,
153-00352,1,2,153,Kommalolla Nagamani,7032127129,234016032250,Female,K. Anand Babu,776471469464,,,,,,,,,,,,,,,,
153-00353,1,2,153,R Ragavendra raju,9542172430,236188927948,Male,Suryanarayana,522926077600,,,,,,,,,,,,,,,,
153-00354,1,2,153,K Jai Kumar,6303518502,631742628435,Male,K Nagalakshmi,583085068979,,,,,,,,,,,,,,,,
153-00355,1,2,153,Moka Sujan Kumar,9246867999,417859022962,Male,Moka Suchitra,968247193050,,,,,,,,,,,,,,,,
153-00356,1,2,153,S Mohammod Gouse,8919562594,998121263395,Male,Syed Mahaboob Jan,302071094022,,,,,,,,,,,,,,,,
153-00357,1,2,153,N Bharathawaj Sharma,8106374373,224049305080,Male,Gayathri,563856454538,,,,,,,,,,,,,,,,
153-00358,1,2,153,Jerrupothula manoj Kumar,9160114626,599799281080,Male,Jerrupothula Anitha,659599323851,,,,,,,,,,,,,,,,
153-00359,1,2,153,P Nagarajuna Parsad,9966993283,604850107262,Male,Mallanna,748985817582,,,,,,,,,,,,,,,,
153-00360,1,2,153,C Reddy Pavan,7416399342,667404171501,Male,Surya Prathap Rao,896800743394,,,,,,,,,,,,,,,,
153-00361,1,2,153,Mallepula Pavan Teja,6301257211,461310850220,Male,M. Venkata Srinivasa Murthy,631917712091,,,,,,,,,,,,,,,,
153-00362,1,2,153,G Jagan Mohan,9390688453,706386149914,Male,Adinarayana,695984303558,,,,,,,,,,,,,,,,
153-00363,1,2,153,Talari Mahendra,9885057131,534616481981,Male,T Kalpana,534616481981,,,,,,,,,,,,,,,,
153-00364,1,2,153,Shaik Jilani,9959690200,819733393334,Male,S. Banu,957558516608,,,,,,,,,,,,,,,,
153-00365,1,2,153,L Goush Peer,6305049068,363406903161,Male,L Gousiya,961316268447,,,,,,,,,,,,,,,,
153-00366,1,2,153,Gangalapuram Fayaz,9000036553,366251333324,Male,S Sameera,586063797894,,,,,,,,,,,,,,,,
153-00367,1,2,153,V Mallela Leelamohan,9642576941,236051993509,Male,V Lalitha,311443699558,,,,,,,,,,,,,,,,
153-00368,1,2,153,Velpula Sathya Narayana,9063459101,849873440610,Male,V Leela Mohan,236051993509,,,,,,,,,,,,,,,,
153-00369,1,2,153,Chakali Nagaraju,8897760591,866339351500,Male,Chakali Eswaramma,806749546591,,,,,,,,,,,,,,,,
153-00370,1,2,153,Chakali Eswaramma,8897760591,806749546591,Female,Chakali Nagaraju,866339351500,,,,,,,,,,,,,,,,
153-00371,1,2,153,S Noor Mohammed,9550220933,510576511998,Male,S Vali Basha,667682029569,,,,,,,,,,,,,,,,
153-00372,1,2,153,Shaik Sabeera,8374319896,218689598340,Female,Shaik Salma,472680761496,,,,,,,,,,,,,,,,
153-00373,1,2,153,Shaik Muskin vali,9704703309,949665665294,Male,Shaik Salma,472680761496,,,,,,,,,,,,,,,,
153-00374,1,2,153,Attakari Sai Priyatham,8939903044,309250238748,Male,M. Rajyalakshmi,740463557133,,,,,,,,,,,,,,,,
153-00375,1,2,153,Pasupuleti Anjaneyulu,9985534977,230071222189,Male,Pasupleti Venkata lakshmi,557847636813,,,,,,,,,,,,,,,,
153-00376,1,2,153,Harijana Prem Sagar,9515431219,758060479838,Male,Harijana Santhi Kumari,926881088252,,,,,,,,,,,,,,,,
153-00377,1,2,153,Koladhal Reshma,9391678223,412325852286,Female,Khairunbi,672512755255,,,,,,,,,,,,,,,,
153-00378,1,2,153,Koladhal Mohammad vali,6301341861,377218302602,Male,Khairunbi,672512755255,,,,,,,,,,,,,,,,
153-00379,1,2,153,Koladhal Kairun Bee,6301341861,672512755255,Female,Koladhal Mohammad vali,377218302602,,,,,,,,,,,,,,,,
153-00380,1,2,153,Chatila Krishna Murthi,9989954069,425028918210,Male,C Savitri,631744855927,,,,,,,,,,,,,,,,
153-00381,1,2,153,Chatila Savithri,7093643827,631744875927,Female,Chatila Krishna Murthi,425028918210,,,,,,,,,,,,,,,,
153-00382,1,2,153,Bala Venkatesulu,8142218598,555318800623,Male,Y Nagamani,294562972368,,,,,,,,,,,,,,,,
153-00383,1,2,153,Shaik Khadar Basha,9959497188,533360104579,Male,Alima,335805664983,,,,,,,,,,,,,,,,
153-00384,1,2,153,Jinkala Nagaraju,9949262271,486556863475,Male,Jinkala Devi,251106643269,,,,,,,,,,,,,,,,
153-00385,1,2,153,Dudekula Shaksha vali,8328568728,899369251004,Male,D. Khajabi,336882641898,,,,,,,,,,,,,,,,
153-00386,1,2,153,Mangala Ramakrishna,9052252410,886270695107,Male,Rama Devi,325032371404,,,,,,,,,,,,,,,,
153-00387,1,2,153,Rapthadu Anil kumar,9866796523,855411407510,Male,Anuradha,954209000389,,,,,,,,,,,,,,,,
153-00388,1,2,153,Jinkala Nagareni,6303849963,650217760989,Female,J HariPrasad,491173817680,,,,,,,,,,,,,,,,
153-00389,1,2,153,Edumalla Sreenivasulu,7849335077,509375544716,Male,Sreedevi,342076892179,,,,,,,,,,,,,,,,
153-00390,1,2,153,Shaik Mohaboob Bhasha,9989454118,988411701466,Male,Shalana,288112121178,,,,,,,,,,,,,,,,
153-00391,1,2,153,Jinkala Devi,9949262271,251106643268,Female,J Nagaraju,486556863475,,,,,,,,,,,,,,,,
153-00392,1,2,153,Valupu Sekhar,8142427438,877006185378,Male,V Ravi Kumar,570230755533,,,,,,,,,,,,,,,,
153-00393,1,2,153,Devarakonda harish,9014620042,418603522677,Male,D Vijaya,403728504039,,,,,,,,,,,,,,,,
153-00394,1,2,153,Devarakonda Vijaya,8886722480,403728504039,Female,Vidyananda,276753499910,,,,,,,,,,,,,,,,
153-00395,1,2,153,Devarakonda Vidyananda,7799539303,276753499910,Male,Vijaya,403728504039,,,,,,,,,,,,,,,,
153-00396,1,2,153,Devarakonda Anil Kumar,9347038710,414586010349,Male,Vijaya,403728504039,,,,,,,,,,,,,,,,
153-00397,1,2,153,Namburi Sreekanth,8142221455,727129310054,Male,Satyavathi Bai,660754635396,,,,,,,,,,,,,,,,
153-00398,1,2,153,S Chand Basha,9391201800,792143036092,Male,Ghousiya Begum,350934299282,,,,,,,,,,,,,,,,
153-00399,1,2,153,Ghousiya Begum,6281516166,350934299282,Female,S Chand Basha,792143036092,,,,,,,,,,,,,,,,
153-00400,1,2,153,Jinakala Ravi Kumar,9642120739,570230755533,Male,Jinkala Revathi,844212492380,,,,,,,,,,,,,,,,
153-00401,1,2,153,Jinakala Revathi,9182757252,844212492380,Female,Jinakala Ravi Kumar,570230755533,,,,,,,,,,,,,,,,
153-00402,1,2,153,Jinakala Hariprasad,8297847491,491173817680,Male,J Nagaveni,650217760989,,,,,,,,,,,,,,,,
153-00403,1,2,153,Paluvuri Jeevan Babu,6304779572,500726202308,Male,P Siva Kumar,803202627005,,,,,,,,,,,,,,,,
153-00404,1,2,153,Paluvuri Shiva Kumar,8886184577,803202627005,Male,Palavuri Jeevan Babu,500726202308,,,,,,,,,,,,,,,,
153-00405,1,2,153,Vulli Rakesh Mythreya,9347834251,673533147794,Male,Manjula,459111343755,,,,,,,,,,,,,,,,
153-00406,1,2,153,Kurakla Ravi taja,8519910623,925591813076,Male,Nirmala,388408335927,,,,,,,,,,,,,,,,
153-00407,1,2,153,Geedipalli Hareesh,7416913988,728032694412,Male,G Suneetha,280353572047,,,,,,,,,,,,,,,,
153-00408,1,2,153,Kanike Maruthi Prasad,9492553848,496561585873,Male,K Madhavi,727750348953,,,,,,,,,,,,,,,,
153-00409,1,2,153,C Mallikarjuna,9492287660,343368260054,Male,C Bhavani,385129491062,,,,,,,,,,,,,,,,
153-00410,1,2,153,Dudekula Onnurvali,6300520901,265620053807,Male,D Sharmila,806254422109,,,,,,,,,,,,,,,,
153-00411,1,2,153,Mallisetty Raja,8309166100,622279272731,Male,D. Anusha,309197928927,,,,,,,,,,,,,,,,
153-00412,1,2,153,V.Narayana Swamy,9381426078,395554498313,Male,Lakshminarayanamma,663962117331,,,,,,,,,,,,,,,,
153-00413,1,2,153,Malakathati Nagendra,9908363112,416235985187,Male,M Renuka,971563048544,,,,,,,,,,,,,,,,
153-00414,1,2,153,Channampalli Vamshi Krishna,9666684854,982390790193,Male,C Gowramma,440840603529,,,,,,,,,,,,,,,,
153-00415,1,2,153,Pujari Muralidhar,9390089393,329234886827,Male,P Anuradha,,,,,,,,,,,,,,,,,
153-00416,1,2,153,D.Sharms Vali,8074166080,904566383671,Male,K Sahana,844959663036,,,,,,,,,,,,,,,,
153-00417,1,2,153,Dudekula Babavali,7981626162,212938735376,Male,D Noorjahan,329637183397,,,,,,,,,,,,,,,,
153-00418,1,2,153,Kummara Bbuleshu,8977497413,403101934929,Male,K Murali Krishna,219751973693,,,,,,,,,,,,,,,,
153-00419,1,2,153,Kummara Suresh,9959071069,269808339525,Male,K Sunanda,580139722550,,,,,,,,,,,,,,,,
153-00420,1,2,153,kummara Suvarana,9985824293,760538147049,Female,K Harshavardhan,,,,,,,,,,,,,,,,,
153-00421,1,2,153,P.Suvarnamma,9573639179,755863641965,Female,P Balakrishna,930923785336,,,,,,,,,,,,,,,,
153-00422,1,2,153,P Chalapathi,9573639179,567759887001,Male,P Sunkaiah,441841462625,,,,,,,,,,,,,,,,
153-00423,1,2,153,P Srinivasulu,9963498507,657775174849,Male,P Kondamma,260992821524,,,,,,,,,,,,,,,,
153-00424,1,2,153,P Ajay Kumar,9441711146,698077851111,Male,P. Sailaja,754004951159,,,,,,,,,,,,,,,,
153-00425,1,2,153,P Venkata Lakshmi,8978569294,905737674218,Female,P Narayana Swamy,559255671966,,,,,,,,,,,,,,,,
153-00426,1,2,153,Dara Akhil Kumar,6303777164,260522257564,Male,D Ganganna,538263193200,,,,,,,,,,,,,,,,
153-00427,1,2,153,S.yeshwanth,9985987121,582904861620,Male,S. Vijaya Lakshmji,768604194647,,,,,,,,,,,,,,,,
153-00428,1,2,153,mallisetty Santhi kumari,9000484240,620711502508,Female,Vallamsetty Aparna,885360446552,,,,,,,,,,,,,,,,
153-00429,1,2,153,Akula Harish,8639158050,867207193192,Female,A Ramanjinamma,803970468746,,,,,,,,,,,,,,,,
153-00430,1,2,153,A mohan,8985087859,945090754589,Male,A Jamuna,739606927988,,,,,,,,,,,,,,,,
153-00431,1,2,153,Madhas Ashok,7673991766,392672812081,Male,M. Subhashini,303367541150,,,,,,,,,,,,,,,,
153-00432,1,2,153,Y Balaji,9000617967,300895361042,Male,Y. Jayamma,865064762057,,,,,,,,,,,,,,,,
153-00433,1,2,153,B Manoj Kumar,9963049354,449089439977,Male,R Hemavathi,887150018960,,,,,,,,,,,,,,,,
153-00434,1,2,153,S.Nallamma,7093844018,978847947126,Female,S. Lavanya,408628391309,,,,,,,,,,,,,,,,
153-00435,1,2,153,C.Akkamma,9573608184,304762166922,Female,C. Balappa,431378624935,,,,,,,,,,,,,,,,
153-00436,1,2,153,Dasari Manikanta,7989085346,885822402813,Male,D. Malleswari,751912586875,,,,,,,,,,,,,,,,
153-00437,1,2,153,Dandu Chandrakala,8121922469,424574205860,Female,D. Siva Prasad,871187494438,,,,,,,,,,,,,,,,
153-00438,1,2,153,V Chandra Mohan,7702671633,398979628723,Male,V. Aruna,781368585622,,,,,,,,,,,,,,,,
153-00439,1,2,153,Konda Padmavathi,9985806794,317948643267,Female,K. Sai Prasad,670191084981,,,,,,,,,,,,,,,,
153-00440,1,2,153,Y Nagaraju,9703513034,705409652314,Male,Y. Lalitha,529499559241,,,,,,,,,,,,,,,,
153-00441,1,2,153,Vallamsetti Maruthi,9949772326,947946742788,Male,Vallamsetty Kalavathi,636019185744,,,,,,,,,,,,,,,,
153-00442,1,2,153,Alluru Chiranjeevi,9494136944,972561306497,Male,Aluru Aruna,538100198215,,,,,,,,,,,,,,,,
153-00443,1,2,153,K.Ramachandra,8106098390,801885460896,Male,K. Gowsiya,673858526478,,,,,,,,,,,,,,,,
153-00444,1,2,153,V.yogieswar,6302338172,625203910851,Male,V. Mangamma,959231294809,,,,,,,,,,,,,,,,
153-00445,1,2,153,Dasari Hariparasad,7093953388,693236362641,Male,B . Bhavani,710810264061,,,,,,,,,,,,,,,,
153-00446,1,2,153,Kalimisetty Shivaji,9494933437,922632732263,Male,Kalimisetty Rajani,812922038681,,,,,,,,,,,,,,,,
153-00447,1,2,153,Kakarla Geelaiah,9949832309,508614813188,Male,K. Dhanalakshmi,429015172640,,,,,,,,,,,,,,,,
153-00448,1,2,153,Kakarla Venakatarayadu,8790168621,586247316303,Male,K. Lakshmi Devi,806058549895,,,,,,,,,,,,,,,,
153-00449,1,2,153,Amidala Balaji,9177737776,900597081963,Male,Amidala Roja,315309951581,,,,,,,,,,,,,,,,
153-00450,1,2,153,Ummadisetti Narayanappa,9908659233,933550467066,Male,U. Lakshmi,900232078399,,,,,,,,,,,,,,,,
153-00451,1,2,153,Kamatham Chithanbaram,8885491934,213113680698,Male,K. Jayalakshmi,308336148060,,,,,,,,,,,,,,,,
153-00452,1,2,153,Pongunuru pavan kumar,9494199949,828948602302,Male,P Bharathi,210756259883,,,,,,,,,,,,,,,,
153-00453,1,2,153,Pindi Venkatesh,9985822110,562656051562,Male,P Lakshmi,509203805397,,,,,,,,,,,,,,,,
153-00454,1,2,153,Dindi Lakshmi,9985822110,509203805397,Female,Pindi Venkatesh,562656051562,,,,,,,,,,,,,,,,
153-00455,1,2,153,Reddypalli Lokesh,9052733172,466526264845,Male,R Hima bindu,202444449032,,,,,,,,,,,,,,,,
153-00456,1,2,153,Revori Sudarshankumar,9985686858,446610976334,Male,NVS Parveena,364898820203,,,,,,,,,,,,,,,,
153-00457,1,2,153,Thummala Nagaraju,9949632377,511950435741,Male,T Sumalatha,646466191155,,,,,,,,,,,,,,,,
153-00458,1,2,153,Kurakula Anjeneyulu,8297825290,577393502806,Male,K. Gayathri,792931683766,,,,,,,,,,,,,,,,
153-00459,1,2,153,Avuku Nagisetty Hemavathi,9949784130,793249277557,Female,A Vijaya Kumar,797861936070,,,,,,,,,,,,,,,,
153-00460,1,2,153,Avuku Nagisetty Gopal,9440944618,426391590183,Male,A Vijaya Kumar,797861936070,,,,,,,,,,,,,,,,
153-00461,1,2,153,Shaik Ismail,8179927589,635265818324,Male,Shaik Salma,244765415765,,,,,,,,,,,,,,,,
153-00462,1,2,153,Gujjala Venkataramudu,9490492733,270098423863,Male,G. Vijaya,465054652325,,,,,,,,,,,,,,,,
153-00463,1,2,153,Mallela hari Sai Prasad,7799232818,857361744658,Male,M Vijaya Lakshmi,597962148106,,,,,,,,,,,,,,,,
153-00464,1,2,153,Shaik Ameer Basha,7569606105,569530546819,Male,Shaik Munni,472650740203,,,,,,,,,,,,,,,,
153-00465,1,2,153,Shaik Shyed Basha,9381554663,946505661290,Male,Shaik Fakrunni,88512136619,,,,,,,,,,,,,,,,
153-00466,1,2,153,Shaik Noor Mahamad,9959240013,298838057547,Male,Shaik Alia,996773260851,,,,,,,,,,,,,,,,
153-00467,1,2,153,Kanagani Palli Sadial vali,8639973560,290945587852,Male,K. Ayesha Bi,588819700078,,,,,,,,,,,,,,,,
153-00468,1,2,153,Derangulu Veeranjaneyalu,8790699206,613730213870,Male,B. Saraswathi,828404830524,,,,,,,,,,,,,,,,
153-00469,1,2,153,K.Vijay Kumar,8919790264,901145557124,Male,C. Muthyalamma,779672181140,,,,,,,,,,,,,,,,
153-00470,1,2,153,S.Mohammad Irfan,9676329168,278496005317,Male,Shaik Khaja,738416403131,,,,,,,,,,,,,,,,
153-00471,1,2,153,R.Phani Sharma,9493187725,526471544855,Male,P. Nagalakshmi,338624909202,,,,,,,,,,,,,,,,
153-00472,1,2,153,R Nagalakshmi,9441554071,338624909202,Female,R. Phaneswar,526471544855,,,,,,,,,,,,,,,,
153-00473,1,2,153,R Vijaya Lakshmi,9441554031,788671665209,Female,R. Phaneswar,526471544855,,,,,,,,,,,,,,,,
153-00474,1,2,153,K Suryaprathap,8074666632,896800743394,Male,R. Phaneswar,526471544855,,,,,,,,,,,,,,,,
153-00475,1,2,153,B Sai Prathyasha,9581336660,601044152651,Female,S. Naresh Babu,929190017694,,,,,,,,,,,,,,,,
153-00476,1,2,153,P Sreenivasulu,9493273856,462167034328,Male,M Madhavi,250917237293,,,,,,,,,,,,,,,,
153-00477,1,2,153,Omsekhar,7780167549,764386988063,Male,Harikrishna,236095955430,,,,,,,,,,,,,,,,
153-00478,1,2,153,R Anil Kumar,9440554755,787504216002,Male,R Lalithamma,937776146894,,,,,,,,,,,,,,,,
153-00479,1,2,153,Shankar sastry Naresh Babu,7789338478,929190017694,Male,P Sai Prathysha,601044152651,,,,,,,,,,,,,,,,
153-00480,1,2,153,P Mahmed Shafi,9493041966,709470869147,Male,P M Vasim Akram,796901786719,,,,,,,,,,,,,,,,
153-00481,1,2,153,G L N Sravan Kumar,9399975979,422249446762,Male,G. Suresh Babu,392149469690,,,,,,,,,,,,,,,,
153-00482,1,2,153,Y Shiva Prasad,9985149666,478469458639,Male,Y Parvathi,591573991616,,,,,,,,,,,,,,,,
153-00483,1,2,153,Karanam Vikram,9341454560,977659076080,Male,K Swetha,773664069466,,,,,,,,,,,,,,,,
153-00484,1,2,153,K C K Vishwanath,9121201440,818025049366,Male,K. Vasundhara,563687468906,,,,,,,,,,,,,,,,
153-00485,1,2,153,K Vasundara,9121201440,563687468906,Female,K.C. Viswanath,818025049366,,,,,,,,,,,,,,,,
153-00486,1,2,153,B Obulesu,9618162978,495569100995,Male,B Rangamma,555544312355,,,,,,,,,,,,,,,,
153-00487,1,2,153,B Suresh,6300923040,568913290805,Male,B Madhu,270346284239,,,,,,,,,,,,,,,,
153-00488,1,2,153,Sunke Karthik,9515519476,252681069312,Male,S Lakshmi,304490601266,,,,,,,,,,,,,,,,
153-00489,1,2,153,K Baba Fakaruddin,6309818745,299917872958,Male,K Dada Peer,679113675157,,,,,,,,,,,,,,,,
153-00490,1,2,153,B Madhu,6300903140,270346284239,Male,B Suresh,568913290805,,,,,,,,,,,,,,,,
153-00491,1,2,153,J Murali,6305103183,954601213419,Male,Obilesu,449703811203,,,,,,,,,,,,,,,,
153-00492,1,2,153,K Kumar,6305103183,738108279051,Male,Obilesu,449703811203,,,,,,,,,,,,,,,,
153-00493,1,2,153,Shiva,9959693536,533680834221,Male,Ramadevi,776598194389,,,,,,,,,,,,,,,,
153-00494,1,2,153,M Kalyan,9515518615,417188849128,Male,Kondanna,258665804219,,,,,,,,,,,,,,,,
153-00495,1,2,153,G Venu,6302548937,325372815965,Male,G Yerramma,361858828040,,,,,,,,,,,,,,,,
153-00496,1,2,153,Valmiki Sake Jagannath,7013779739,666558272680,Male,V.S. Bhaskar,686293716298,,,,,,,,,,,,,,,,
153-00497,1,2,153,Reddy Vari Murali Krishna,9966322448,472603496856,Male,Pushpalatha,306875058037,,,,,,,,,,,,,,,,
153-00498,1,2,153,P Padmja,9441180681,853902933236,Female,P Teja,405697538039,,,,,,,,,,,,,,,,
153-00499,1,2,153,Naveen,9182904934,336775079291,Male,C Vishnuvardan,955903608469,,,,,,,,,,,,,,,,
153-00500,1,2,153,Kolimi Jabeer,9701318753,450761196126,Male,Kolimi Haseena,473034355871,,,,,,,,,,,,,,,,
153-00501,1,2,153,Patan Dadapeer,9052233785,585184254862,Male,Patan Anisha,495807326016,,,,,,,,,,,,,,,,
153-00502,1,2,153,Patan Anisha,9052233785,495807326016,Female,Patan Dadapeer,585184254862,,,,,,,,,,,,,,,,
153-00503,1,2,153,Shek Sardhar Vali,7702562650,828274097625,Male,S. Muneera,619613021970,,,,,,,,,,,,,,,,
153-00504,1,2,153,Shaik Vazida,9160185916,343451249735,Female,Shaik Mahaboob Basha,472802538629,,,,,,,,,,,,,,,,
153-00505,1,2,153,Madiga Pavan Kumar,9390551908,342939993492,Male,J. Chandramma,404835478425,,,,,,,,,,,,,,,,
153-00506,1,2,153,Shake Mahaboob Basha,9160185916,472802538629,Male,Shake Vaheeda,343451249735,,,,,,,,,,,,,,,,
153-00507,1,2,153,Shaik Sheksha Vali,9505723548,326051031537,Male,Syed Roshini,478508554106,,,,,,,,,,,,,,,,
153-00508,1,2,153,Shaik Reshma,7702906365,893238219613,Female,Chand Basha,413033462471,,,,,,,,,,,,,,,,
153-00509,1,2,153,V Narasimha Murthy,9949597837,681929611651,Male,Kalavathi,405094159795,,,,,,,,,,,,,,,,
153-00510,1,2,153,D Mahammad Rafi,7995340742,639018172064,Male,D Rizwana,935138971897,,,,,,,,,,,,,,,,
153-00511,1,2,153,Dudekula Rafi,9032208192,526860743190,Male,D Jameela Begum,917616732462,,,,,,,,,,,,,,,,
153-00512,1,2,153,Sudhakar,9959934296,541056601474,Male,Vijaya,403728504039,,,,,,,,,,,,,,,,
153-00513,1,2,153,Bandi Kavitha,9182061874,557028400095,Female,Vyshnavi,341234434816,,,,,,,,,,,,,,,,
153-00514,1,2,153,Bandi Jayamma,9182061874,993965104842,Female,Venkata Lakshmi,993884185166,,,,,,,,,,,,,,,,
153-00515,1,2,153,Bandi Nagesh,9951855024,739370549444,Male,Venkata Narayana,729853142054,,,,,,,,,,,,,,,,
153-00516,1,2,153,Akula Sai Kumar,9550063331,824412136884,Male,Naga,776170246342,,,,,,,,,,,,,,,,
153-00517,1,2,153,Rapthadu Kasi Viswanath,6300681063,408157529813,Male,Anuradha,954209000389,,,,,,,,,,,,,,,,
153-00518,1,2,153,Katika Prakash Rao,8142428866,595664997915,Male,Sreedevi,384846327353,,,,,,,,,,,,,,,,
153-00519,1,2,153,Obilasu,9963574983,337641241393,Male,Aruna,506463332652,,,,,,,,,,,,,,,,
153-00520,1,2,153,Jayam Ramana,9581695464,496944956813,Male,Lavanya,838702746999,,,,,,,,,,,,,,,,
153-00521,1,2,153,Onkaram Raju,8362009863,627302978689,Male,Not connected,,,,,,,,,,,,,,,,,
153-00522,1,2,153,P Mubeena,9014243300,289680715709,Female,Khajavali,689536820103,,,,,,,,,,,,,,,,
153-00523,1,2,153,Dudekula Khaja Vali,9014243300,689536820103,Male,Mubeena,289680715709,,,,,,,,,,,,,,,,
153-00524,1,2,153,Kamatam Venkata Lakshmi,7569270328,993884185166,Female,Harshavardhan,405953400704,,,,,,,,,,,,,,,,
153-00525,1,2,153,Koladhal Kullayamma,9703418769,481534621576,Female,Mahammad Vali,377218302602,,,,,,,,,,,,,,,,
153-00526,1,2,153,Narayana Swamy,8179727170,761699193193,Male,C. Ananthamma,627973697033,,,,,,,,,,,,,,,,
153-00527,1,2,153,Mekala Cheruvu Saraswathi,9441190665,970788887282,Female,Gangi Reddy,886896030450,,,,,,,,,,,,,,,,
153-00528,1,2,153,Kamatam Sai,8142020631,460410198922,Male,Priya,283184191434,,,,,,,,,,,,,,,,
153-00529,1,2,153,Kamatam Laxmi Devi,8790440782,685561891356,Female,Vyshnavi,341234434816,,,,,,,,,,,,,,,,
153-00530,1,2,153,Mekala Cheruvu Narayana,9490978869,380982772124,Male,Ramadevi,565352400454,,,,,,,,,,,,,,,,
153-00531,1,2,153,Mekala Cheruvu Ramadevi,9490978869,565352400454,Female,Mekalacheruvu Narayana,380982772124,,,,,,,,,,,,,,,,
153-00532,1,2,153,MekalaCheruvu Kalyani,7673932679,778811797759,Female,Mekalacheruvu Narayana,380982772124,,,,,,,,,,,,,,,,
153-00533,1,2,153,Mekalacheruvu Pavan,7673932679,222888249502,Male,Ramadevi,565352400454,,,,,,,,,,,,,,,,
153-00534,1,2,153,Upuu Goutham,9014333251,863874253149,Female,Uppu Narayana,46156632663,,,,,,,,,,,,,,,,
153-00535,1,2,153,Lakkireddy Chaitanya Kumar,7981407072,349528134730,Male,L. Saraswathi,,,,,,,,,,,,,,,,,
153-00536,1,2,153,Gujjala Sreenivasulu,9347686172,886607051884,Male,G.Maremma,786922223549,,,,,,,,,,,,,,,,
153-00537,1,2,153,Mekala Cheruvu Gangi Reddy,9441190665,886896030450,Male,Mekalacheruvu Saraswathi,970788887282,,,,,,,,,,,,,,,,
153-00538,1,2,153,Gurram Somasekhar,9848169439,308195656918,Female,K. Geethavani,777091101174,,,,,,,,,,,,,,,,
153-00539,1,2,153,M Kiran Kumar,9441731173,201374662410,Male,M. Thulasamma,920488291546,,,,,,,,,,,,,,,,
153-00540,1,2,153,S M Mahmmad Vali,9959764733,375489071289,Male,S.M. Janabi,339728912960,,,,,,,,,,,,,,,,
153-00541,1,2,153,Pasupuleti Manoj Kumar,8309815306,343518991713,Male,P. Bhaskar,388520720941,,,,,,,,,,,,,,,,
153-00542,1,2,153,Pasupuleti Anil Kumar,8309815306,547714740905,Male,P. Rajeswari,477887561463,,,,,,,,,,,,,,,,
153-00543,1,2,153,J Ramu,9160665636,424836930083,Male,J Sujatha,977421637299,,,,,,,,,,,,,,,,
153-00544,1,2,153,J Sujatha,7674097296,977421637299,Female,J Ramu,424836930083,,,,,,,,,,,,,,,,
153-00545,1,2,153,S Dadapeer,8074173970,596724800338,Male,E Reshma banu,678527628712,,,,,,,,,,,,,,,,
153-00546,1,2,153,Bhogani Prameela,9492325071,529682286417,Female,V Sathish Kumar,972362716549,,,,,,,,,,,,,,,,
153-00547,1,2,153,V Satheesh Kumar,9014340406,972362716549,Male,Bhogani Prameela,529682286417,,,,,,,,,,,,,,,,
153-00548,1,2,153,C Shyamala Devi,9494881928,824875726473,Female,C Narayana Swami,598432329077,,,,,,,,,,,,,,,,
153-00549,1,2,153,C Narayana Swami,9440505613,598432329077,Male,C Shyamala Devi,824875726473,,,,,,,,,,,,,,,,
153-00550,1,2,153,Malleni Kalavathi,9989160062,960587988074,Female,Malleni Lakshmi Narayan,508186942049,,,,,,,,,,,,,,,,
153-00551,1,2,153,Malleni Lakshmi Narayan,9989160062,508186942049,Male,Malleni Kalavathi,960587988074,,,,,,,,,,,,,,,,
153-00552,1,2,153,R Simhadhri,9704210016,693902838113,Male,Chinna Narasimhulu,287591431898,,,,,,,,,,,,,,,,
153-00553,1,2,153,Akula Srinivasulu,9652751286,413709861025,Male,Akula Lakshmi Devi,874842761259,,,,,,,,,,,,,,,,
153-00554,1,2,153,Akula Lakshmi Devi,9652751286,874842761259,Male,Akula Srinivasulu,413709861025,,,,,,,,,,,,,,,,
153-00555,1,2,153,Akula Lokesh,9515561714,330067146798,Male,Akula Sravani,830033061186,,,,,,,,,,,,,,,,
153-00556,1,2,153,Akula Sravani,9515561714,830033061186,Female,Akula Lokesh,330067146798,,,,,,,,,,,,,,,,
153-00557,1,2,153,B Pratap Singh,9059448843,499997013878,Male,Suneetha Bai,398493365089,,,,,,,,,,,,,,,,
153-00558,1,2,153,B Rajesh Khanna,8886811146,220364254338,Male,Haseena,995634023090,,,,,,,,,,,,,,,,
153-00559,1,2,153,P Narayana Naik,9705748984,732155715966,Male,P Kamalamma,441598395831,,,,,,,,,,,,,,,,
153-00560,1,2,153,B Sab Shafiulla,8886529776,511553942333,Male,Mahammad,851905503952,,,,,,,,,,,,,,,,
153-00561,1,2,153,P Venkatesh Naik,9000873910,612160968809,Male,R Sarala,987670940616,,,,,,,,,,,,,,,,
153-00562,1,2,153,Patan Munthaz Begum,9963193824,818027204273,Female,Patan Sharukh Khan,356901473289,,,,,,,,,,,,,,,,
153-00563,1,2,153,M Narayana Swamy,9704094104,470771573456,Male,M Santhamma,441331824854,,,,,,,,,,,,,,,,
153-00564,1,2,153,JaiBoni Bee,9346589631,865713751396,Female,Patan Sharukh Khan,356901473289,,,,,,,,,,,,,,,,
153-00565,1,2,153,P Ameena,9100439152,620184797114,Female,Patan Jakir Hussain,317270153026,,,,,,,,,,,,,,,,
153-00566,1,2,153,Patan Jakir Hussain,9502538892,317270153026,Male,P Ameena,620184797114,,,,,,,,,,,,,,,,
153-00567,1,2,153,Patan Sharukh Khan,7729878402,356901473289,Male,Patan Muntaz Begum,818027204273,,,,,,,,,,,,,,,,
153-00568,1,2,153,Shaik Chand Basha,7702906365,413033462471,Male,Reshma,893238219613,,,,,,,,,,,,,,,,
153-00569,1,2,153,Karamathot Gopal Naik,9703445011,299995178072,Male,K Sarada Bai,580139053899,,,,,,,,,,,,,,,,
153-00570,1,2,153,Ramavath Ram Babu Naik,9666622421,204231920854,Male,Sreedevi,329213886855,,,,,,,,,,,,,,,,
153-00571,1,2,153,Saka Afroja,9392920838,709080122385,Female,Shaik Reshma,389928651100,,,,,,,,,,,,,,,,
153-00572,1,2,153,Shaik Reshma,6304609698,389928651100,Female,Saka Afroja,709080122385,,,,,,,,,,,,,,,,
153-00573,1,2,153,Azmudin,9177370079,969777194246,Male,Salma,838201549846,,,,,,,,,,,,,,,,
153-00574,1,2,153,Eediga Venkatesh,9848632639,671428343673,Male,E Kondamma,533603120221,,,,,,,,,,,,,,,,
153-00575,1,2,153,K Sri Krishna Naik,7416614434,226418339343,Male,Lakshmi Bai,815283199005,,,,,,,,,,,,,,,,
153-00576,1,2,153,Pula Mahaboob Basha,9849324237,418729432809,Male,Pula Shameem,761435345101,,,,,,,,,,,,,,,,
153-00577,1,2,153,Pula Shameem,8328055507,761435245101,Female,Pula Mahaboob Basha,418729432809,,,,,,,,,,,,,,,,
153-00578,1,2,153,Kanchana Gari ananda Reddy,9550695524,647197565262,Male,K Pallavi,569247805910,,,,,,,,,,,,,,,,
153-00579,1,2,153,K Pallavi,8374090790,569247805910,Female,Kanchana Gari ananda Reddy,647197565262,,,,,,,,,,,,,,,,
153-00580,1,2,153,Akuthota Somasekhar,9963224419,612001824170,Male,B Kalavathi,663322847567,,,,,,,,,,,,,,,,
153-00581,1,2,153,B Kalavathi,9963224419,663322847567,Female,Akuthota Somasekhar,612001824170,,,,,,,,,,,,,,,,
153-00582,1,2,153,Dasari Anjandevi,6304831108,311596508180,Female,D Raghavendra Prasad,307431232590,,,,,,,,,,,,,,,,
153-00583,1,2,153,D Raghavendra Prasad,8143839654,307431232590,Male,Dasari Anjandevi,311596508180,,,,,,,,,,,,,,,,
153-00584,1,2,153,Thalari Sainath,8919027580,765866950856,Male,P Prabhavathi,838802113438,,,,,,,,,,,,,,,,
153-00585,1,2,153,Anke Prudhvi Raj,8099555560,768655984895,Male,Anke Ramalakshmi,850290090995,,,,,,,,,,,,,,,,
153-00586,1,2,153,Anke Raja Sekhar,9052111961,654395809607,Male,Geetha Vani,327884205580,,,,,,,,,,,,,,,,
153-00587,1,2,153,Anke Ramalakshmi,7032393578,850290090995,Female,Anke Prudhvi Raj,768655984895,,,,,,,,,,,,,,,,
153-00588,1,2,153,Anke Sreelatha,6301030007,402573689488,Female,Anke Ramalakshmi,850290090995,,,,,,,,,,,,,,,,
153-00589,1,2,153,Kaamarapalli Pothalayya,8555077289,738575162623,Male,K.Lakshmi,625791453567,,,,,,,,,,,,,,,,
153-00590,1,2,153,Bangi Sreenivasulu,9100221976,552039516104,Male,Bangi Ramanjinamma,233646603288,,,,,,,,,,,,,,,,
153-00591,1,2,153,Bangi Venkata Ramana,8919474293,232779726395,Male,P.Lakshminarayana,934523485046,,,,,,,,,,,,,,,,
153-00592,1,2,153,Vasagiri Vasantha,7989979665,359476769857,Female,Vasagiri Sunil Gavaskar,203790613061,,,,,,,,,,,,,,,,
153-00593,1,2,153,Vasagiri Sunil Gavaskar,7989979665,203790613061,Male,Vasagiri Vasantha,359476769857,,,,,,,,,,,,,,,,
153-00594,1,2,153,Vasagiri Viswanath,9491111192,891861287575,Male,Vasagiri Sreelakshmi,844155851841,,,,,,,,,,,,,,,,
153-00595,1,2,153,Vasagiri Sreelakshmi,9493797404,844155851841,Female,Vasagiri Viswanath,891861287575,,,,,,,,,,,,,,,,
153-00596,1,2,153,Byalla Linganna,7702669733,691941380642,Male,Byalla Savithri,419608898777,,,,,,,,,,,,,,,,
153-00597,1,2,153,Bellary Govindu,9949573994,355211515798,Male,Bellary Ratnamma,795931897288,,,,,,,,,,,,,,,,
153-00598,1,2,153,Basineni Ravi Kumar,9908044089,490338217280,Male,Basineni Eswaraiah,715097900434,,,,,,,,,,,,,,,,
153-00599,1,2,153,Bellary Rathnamma,9618814419,795931897288,Female,Bellary Govindu,355211515798,,,,,,,,,,,,,,,,
153-00600,1,2,153,Vemula Nagamani,9492222202,553157893192,Female,V Ashok Raghavendra,465496050060,,,,,,,,,,,,,,,,
153-00601,1,2,153,Ashadhi Suma,8121100484,873402619430,Female,A Sujatha Kumari,819826499442,,,,,,,,,,,,,,,,
153-00602,1,2,153,Boya Anil Kumar,7036904491,305832850969,Male,Boya Lakshmi,532851320154,,,,,,,,,,,,,,,,
153-00603,1,2,153,Vadde Naveen Kumar,8317622715,500147919490,Male,Vadde Vasantha,251199582328,,,,,,,,,,,,,,,,
153-00604,1,2,153,Balija Sulochana,9493130731,498085022845,Female,Velugu Sandeep,697344023874,,,,,,,,,,,,,,,,
153-00605,1,2,153,Velugu Sandeep,9492222272,697344023874,Male,Balija Sulochana,498085022845,,,,,,,,,,,,,,,,
153-00606,1,2,153,Dudekula Khadar Basha,6300995101,336479465667,Male,D. Hussain Peera,336480483557,,,,,,,,,,,,,,,,
153-00607,1,2,153,Kommugani Jaya Bhaskar,8985591293,399547454362,Male,V.Sreevidya,637944072147,,,,,,,,,,,,,,,,
153-00608,1,2,153,Busanagari Vijay Kumar,8499911337,751279039879,Male,B Vani,912482544715,,,,,,,,,,,,,,,,
153-00609,1,2,153,kammari sunkayyachari,8555817896,695334109266,Male,K Kalavathi,889777176725,,,,,,,,,,,,,,,,
153-00610,1,2,153,Sake babu fakruddin,8978635644,526520800245,Male,Shaik Shaheena,712325716258,,,,,,,,,,,,,,,,
153-00611,1,2,153,Shake Mohammed Jallel Basha,9704402076,711915796965,Male,Harijan Bee,530692142535,,,,,,,,,,,,,,,,
153-00612,1,2,153,Balija Ramanjineyulu,9052626362,750308448229,Male,Balija Sravani,201387233592,,,,,,,,,,,,,,,,
153-00613,1,2,153,Balija Sravani,9052626362,201387233592,Female,Balija Ramanjineyulu,750308448229,,,,,,,,,,,,,,,,
153-00614,1,2,153,Arangamma,9966698828,852429029767,Female,A Saraswathi,603888838405,,,,,,,,,,,,,,,,
153-00615,1,2,153,Sri devi,9000464855,540493847398,Female,R Vasavi,696082790022,,,,,,,,,,,,,,,,
153-00616,1,2,153,Anke Geeta Vani,9949904395,327884205580,Female,Anke Mounika,751421402319,,,,,,,,,,,,,,,,
153-00617,1,2,153,Renigunta Vasavi,7995822706,696082790022,Female,R Sai Kumar,992418431903,,,,,,,,,,,,,,,,
153-00618,1,2,153,Yeangilishetty Sai Mithilesh,7569605050,396807634619,Male,Y Kamala,,,,,,,,,,,,,,,,,
153-00619,1,2,153,Pasupuleti Sailesh Babu,9490180825,428853130321,Male,P Asha Jyothi,255554257111,,,,,,,,,,,,,,,,
153-00620,1,2,153,Kummara Kulayy Swamy,7207774767,697514985462,Male,Kummara Varalamma,705023242084,,,,,,,,,,,,,,,,
153-00621,1,2,153,G bhaskar,9912165369,304354232360,Male,G. Haritha,234125915258,,,,,,,,,,,,,,,,
153-00622,1,2,153,Dasari Krishnakanth,9666768608,508881152375,Male,D. Mounika,413537699932,,,,,,,,,,,,,,,,
153-00623,1,2,153,Nossam Sai Sampath,9533995229,696248346522,Male,Nossam pullaiah,701037139093,,,,,,,,,,,,,,,,
153-00624,1,2,153,Bandi Viswanth,9666768608,466269315601,Male,Dasari Krishnakanth,508881152375,,,,,,,,,,,,,,,,
153-00625,1,2,153,Nossam pullaiah,9533955229,701037139093,Male,Nossam Sai Sampath,696248346522,,,,,,,,,,,,,,,,
153-00626,1,2,153,Chakala Suresh,9515203030,296741601895,Male,C Manjula,,,,,,,,,,,,,,,,,
153-00627,1,2,153,Bathyala Chaitanya,7306730619,406347223277,Male,B Thilothama,508749994419,,,,,,,,,,,,,,,,
153-00628,1,2,153,C N Naga Jyothi,9885597085,670840711007,Female,G Narasimhulu,694920045399,,,,,,,,,,,,,,,,
153-00629,1,2,153,G Anitha,9299001999,662480570802,Female,G. Harikrishna Raju,602523016428,,,,,,,,,,,,,,,,
153-00630,1,2,153,Bangaru Kariheek pavan,9985542026,246230368024,Male,B Ramadevi,899653775965,,,,,,,,,,,,,,,,
153-00631,1,2,153,Abhilash,9133728209,998091401806,Male,V Harikrishna,270230807074,,,,,,,,,,,,,,,,
153-00632,1,2,153,Chowdepalli sai charay,6302712039,552672285725,Male,C Rama Murthy,206986150059,,,,,,,,,,,,,,,,
153-00633,1,2,153,Aluri Sai sree Harsha,9100372558,338115030313,Male,Aluri Kalpana,392448481099,,,,,,,,,,,,,,,,
153-00634,1,2,153,Pamidi Balaji,8106634616,765464915152,Male,P Padmavathi,939540351604,,,,,,,,,,,,,,,,
153-00635,1,2,153,K Koushar,7382689707,656563894680,Male,K. Imam Hussain,605925558478,,,,,,,,,,,,,,,,
153-00636,1,2,153,Dudekula Haser Vali,9502685901,969930774938,Male,D. Shakeera,694561628221,,,,,,,,,,,,,,,,
153-00637,1,2,153,Chalkala Sasidhar,9182654397,653841029644,Male,Venkata Lakshmi,977134311268,,,,,,,,,,,,,,,,
153-00638,1,2,153,Shrigiri Suresh,9059690062,413740193277,Male,S. Lakshmi,540302217489,,,,,,,,,,,,,,,,
153-00639,1,2,153,K Sharish Kumar,9985599969,245515723520,Male,B. Rukmini,376085658111,,,,,,,,,,,,,,,,
153-00640,1,2,153,R.Radilkila,7799669337,501441928397,Female,R. Madhusudhan,290393103968,,,,,,,,,,,,,,,,
153-00641,1,2,153,Athari Munni,6300498311,768358324807,Female,Athari Jeelan Basha,307143607852,,,,,,,,,,,,,,,,
153-00642,1,2,153,Senna,9949262352,826481028778,Male,S Svarnamma,819815650252,,,,,,,,,,,,,,,,
153-00643,1,2,153,kummara Obannna,6309424699,486861397916,Male,K Obulamma,647434462502,,,,,,,,,,,,,,,,
153-00644,1,2,153,I kalyani,9100652709,535381402615,Female,I Kiran Kumar,202068824751,,,,,,,,,,,,,,,,
153-00645,1,2,153,Doddi rama krishna,9989794182,709701343212,Male,D Kalavathi,960022504750,,,,,,,,,,,,,,,,
153-00646,1,2,153,Doddi Kalavathi,9989794182,960022504750,Female,Doddi rama krishna,709701343212,,,,,,,,,,,,,,,,
153-00647,1,2,153,Y Gangamma,6300304087,922493778655,Female,Y. Yaswanth,873707293303,,,,,,,,,,,,,,,,
153-00648,1,2,153,S Chandrakala,8688789866,544677252493,Female,S Hari,784294138117,,,,,,,,,,,,,,,,
153-00649,1,2,153,S Hari,8688789866,784294138117,Male,S Chandrakala,544677252493,,,,,,,,,,,,,,,,
153-00650,1,2,153,Gujjala srinivas,9014320866,264269291095,Male,Gujjala surendra,631888103662,,,,,,,,,,,,,,,,
153-00651,1,2,153,Gujjala surendra,9381742670,631888103662,Male,Gujjala srinivas,264269291095,,,,,,,,,,,,,,,,
153-00652,1,2,153,Pandyala Nagamani,9177734590,542264924567,Female,P Subramanyam,485850041443,,,,,,,,,,,,,,,,
153-00653,1,2,153,P Bharathi,9177734590,466268277132,Female,P Subramanyam,485850041443,,,,,,,,,,,,,,,,
153-00654,1,2,153,P Lakshmi Narayana,9182198297,960143980039,Male,Pandyala Nagamani,542264924567,,,,,,,,,,,,,,,,
153-00655,1,2,153,M Govindamma,7032418800,699473941312,Female,M Ravikumar,256433290360,,,,,,,,,,,,,,,,
153-00656,1,2,153,M Ravikumar,9502903796,256433290360,Male,M Govindamma,699473941312,,,,,,,,,,,,,,,,
153-00657,1,2,153,Kotte Rajeswari,7702372680,919126531879,Female,K. Vasantha Chandrasagar,957864866776,,,,,,,,,,,,,,,,
153-00658,1,2,153,N Adi Narayana,9618282922,463070288956,Male,N. Hareesh,462000588724,,,,,,,,,,,,,,,,
153-00659,1,2,153,Uppara Ramesh,8897171027,883724805108,Male,V. Vasanthamma,607422620624,,,,,,,,,,,,,,,,
153-00660,1,2,153,A Kranthi Kumar,9160114767,847509630948,Male,D. Priyanka,587883667483,,,,,,,,,,,,,,,,
153-00661,1,2,153,P kalavathi,8374955534,299961032774,Female,P shashank,358171445188,,,,,,,,,,,,,,,,
153-00662,1,2,153,P shashank,8801939981,358171445188,Male,P kalavathi,299961032774,,,,,,,,,,,,,,,,
153-00663,1,2,153,G Venkat Prasad,9966011306,694091089695,Male,G Anpurupa,238707831032,,,,,,,,,,,,,,,,
153-00664,1,2,153,G Anpurupa,9966664148,238707831032,Female,G Venkat Prasad,694091089695,,,,,,,,,,,,,,,,
153-00665,1,2,153,Yallanur Naveen Kumar,8099988687,450397493742,Male,Y Padmavathi,642559446732,,,,,,,,,,,,,,,,
153-00666,1,2,153,Ala Lakshmi Pradeep,9573599647,447137472804,Male,Ala Sreenivasulu,290134731534,,,,,,,,,,,,,,,,
153-00667,1,2,153,Kothakula Rupesh,8790797216,318150661249,Male,K. Sreeramulu,226087906513,,,,,,,,,,,,,,,,
153-00668,1,2,153,K Sreeramula,9502978349,226087906513,Male,K Venkataramana,828165800965,,,,,,,,,,,,,,,,
153-00669,1,2,153,Kammari Chandra chari,9885668526,547031305160,Male,K. Sarswaswthi,766750729892,,,,,,,,,,,,,,,,
153-00670,1,2,153,M sweetha,8519885006,848392061068,Female,K V Sampth Kumar,400260042504,,,,,,,,,,,,,,,,
153-00671,1,2,153,Poola Vijayalakshmi,9346307894,446701616565,Female,Rajesh,763589726608,,,,,,,,,,,,,,,,
153-00672,1,2,153,Akula Sravani,7702751084,454064413827,Female,J Prasad,667618380170,,,,,,,,,,,,,,,,
153-00673,1,2,153,Poola Vasanti,9346307894,262794886099,Female,P Vijayalakshmi,446201616565,,,,,,,,,,,,,,,,
153-00674,1,2,153,Akula Jaya Prasad,8074115462,667618380170,Male,Akula Sravani,454064413827,,,,,,,,,,,,,,,,
153-00675,1,2,153,Dudekula Basha,7981064752,802645551646,Male,D Peeram Bee,231375553424,,,,,,,,,,,,,,,,
153-00676,1,2,153,Durgam Ramakrishna,9492327633,365713962156,Male,Durgam Akshya,730991708453,,,,,,,,,,,,,,,,
153-00677,1,2,153,G purushothyam,9550866546,969927023396,Male,G. Raji,716796924132,,,,,,,,,,,,,,,,
153-00678,1,2,153,M noorjahan,7569905266,837628519721,Male,M Haidhar Vali,389675339045,,,,,,,,,,,,,,,,
153-00679,1,2,153,M Haidhar Vali,7569905266,389675339045,Male,M noorjahan,837628519721,,,,,,,,,,,,,,,,
153-00680,1,2,153,N. Suresh babu,9908363439,915435384407,Male,Raja Rajeswari,506131437714,,,,,,,,,,,,,,,,
153-00681,1,2,153,B. Thilothamma,7995044131,508749994419,Female,B. Ramana,686061417603,,,,,,,,,,,,,,,,
153-00682,1,2,153,M. Mahammad Rafi,9052353274,926768303922,Male,M. Jineeth Begum,485832103986,,,,,,,,,,,,,,,,
153-00683,1,2,153,B. Raja,9989852210,690812291650,Male,B. Sanjay,525293725567,,,,,,,,,,,,,,,,
153-00684,1,2,153,K. Nanda Rambabu,9989891297,550535303773,Male,Y. Sreedevi,862894511629,,,,,,,,,,,,,,,,
153-00685,1,2,153,V. Nagaraju,9441869766,327645516892,Male,V. Lakshminarayanamma,483595481764,,,,,,,,,,,,,,,,
153-00686,1,2,153,M. Mahaboob Ghouse,9581820194,761799780117,Male,Shaik Sharmila,755929773,,,,,,,,,,,,,,,,
153-00687,1,2,153,A. Paramesh,7780546008,408982097803,Male,A Anitha,920486697599,,,,,,,,,,,,,,,,
153-00688,1,2,153,B. Ramana,8008914710,686061417603,Male,B Thilothama,508749994419,,,,,,,,,,,,,,,,
153-00689,1,2,153,B. Kesava,9441888466,597735930298,Male,B Annapurna,648196827069,,,,,,,,,,,,,,,,
153-00690,1,2,153,M. Suresh Babu,8977055897,414904922912,Male,B. Nirmala,599335888177,,,,,,,,,,,,,,,,
153-00691,1,2,153,P. Sreedhar,8500508487,430094893231,Male,P. Vijaya Bhaskar,670586491397,,,,,,,,,,,,,,,,
153-00692,1,2,153,B. Annapurana,9494058064,648196827069,Female,B.Kesava,597735930298,,,,,,,,,,,,,,,,
153-00693,1,2,153,P.K. Kameswar Kumar,9032988903,391442816582,Male,Anuradha,844503181085,,,,,,,,,,,,,,,,
153-00694,1,2,153,P. Dinesh Kumar,9908999637,650010160284,Male,P. Ganjandhara,494592562042,,,,,,,,,,,,,,,,
153-00695,1,2,153,P. Vinod Kumar,7799999170,615739957888,Male,D. Jyosthna Rani,326336496226,,,,,,,,,,,,,,,,
153-00696,1,2,153,D. Jyostna Rani,7780318393,326336496226,Male,P. Vinod Kumar,615739957888,,,,,,,,,,,,,,,,
153-00697,1,2,153,P. Sai Bharath,9703057941,559690419333,Male,P. Santhamma,381867510853,,,,,,,,,,,,,,,,
153-00698,1,2,153,B. Nirmala,9160074977,599335888177,Female,M. Suresh,414904922912,,,,,,,,,,,,,,,,
153-00699,1,2,153,M. Anil,9490268438,575381824218,Male,P. Paravathamma,745847359223,,,,,,,,,,,,,,,,
153-00700,1,2,153,Shaik Haji Vali,9985851801,563901166803,Male,V. Shameem,921379426846,,,,,,,,,,,,,,,,
153-00701,1,2,153,P. Nandeesh,8341737022,394422666321,Male,P. Naga Chandrika,811186012215,,,,,,,,,,,,,,,,
153-00702,1,2,153,G. Pavan Kumar Yadav,9441238089,471654397747,Male,G. Kiran Yadav,218821516458,,,,,,,,,,,,,,,,
153-00703,1,2,153,K.P. Harsha,9100334533,472213105774,Male,K.P. Shymala,743181368543,,,,,,,,,,,,,,,,
153-00704,1,2,153,K. Ajay Kumar,9000807027,463701401595,Male,C. Aruna Jyothi,694271086113,,,,,,,,,,,,,,,,
153-00705,1,2,153,P.V. Sai Eswar,9533523044,473688023977,Male,V. Varalakshmi,940807764739,,,,,,,,,,,,,,,,
153-00706,1,2,153,A. Ajay Kumar,7899084532,690876293726,Male,Saraswathi,611144153399,,,,,,,,,,,,,,,,
153-00707,1,2,153,B. Satya Phani Krishna,8179112725,445111720842,Male,Naga Sudarshan,701210932383,,,,,,,,,,,,,,,,
153-00708,1,2,153,U. Murali Krishna,9441941533,548616602092,Male,C. Swarna Latha,250131875804,,,,,,,,,,,,,,,,
153-00709,1,2,153,G. Hemanth,9492302688,467370576951,Male,G. Shyam Prasad,417597338606,,,,,,,,,,,,,,,,
153-00710,1,2,153,A. Sai Pruthi,7989516916,662997659164,Female,S. Bhanu Latha,585367028553,,,,,,,,,,,,,,,,
153-00711,1,2,153,G. Ramya Sai,9959252812,843798528480,Female,J. Anjani Devi,513857504376,,,,,,,,,,,,,,,,
153-00712,1,2,153,K. Jithendra Kumar,8121407080,362631061577,Male,K. Reddamma,702204785415,,,,,,,,,,,,,,,,
153-00713,1,2,153,R. Sandeep Raj,9966626330,362631061577,Male,R. Jyothi,922056541230,,,,,,,,,,,,,,,,
153-00714,1,2,153,R. Srujana,7013747510,448795039713,Female,R. Jyothi,922056541230,,,,,,,,,,,,,,,,
153-00715,1,2,153,G. Bhavani Sri Sai,9390119018,310477558590,Female,G. Diwakar,429067476633,,,,,,,,,,,,,,,,
153-00716,1,2,153,D. Sanjay Kumar,9972226187,218709684392,Male,D. Palakesudu,878148397764,,,,,,,,,,,,,,,,
153-00717,1,2,153,H. K. Vamsi Krishna,8712378895,527455820084,Male,H.K. Nagaraju,435739855241,,,,,,,,,,,,,,,,
153-00718,1,2,153,G. Sunkanna,9908015269,976721174445,Female,G. Kamaskhi,766410645390,,,,,,,,,,,,,,,,
153-00719,1,2,153,P. Riyaz Khan,8978767437,973674080763,Male,P. Khaja Bee,317102880986,,,,,,,,,,,,,,,,
153-00720,1,2,153,Minuga Pavan Kalyan,9398697241,443685996107,Male,Peddanna,240982301070,,,,,,,,,,,,,,,,
153-00721,1,2,153,T Sadiq Vali,9908955997,255434133769,Male,T Haseenamma,556133557509,,,,,,,,,,,,,,,,
153-00722,1,2,153,Vallamsetty Rajasekhar,8978121310,345728027339,Male,V Venkatesulu,286886083995,,,,,,,,,,,,,,,,
153-00723,1,2,153,K Hari Babu,7013889447,328496523278,Male,K. Ramadevi,311195945611,,,,,,,,,,,,,,,,
153-00724,1,2,153,H Sai Rupesh,9581280814,773159218328,Male,Malleswari,683897557703,,,,,,,,,,,,,,,,
153-00725,1,2,153,S Kalyan Chakravarthi,9985884658,399527733837,Male,Sanaga Sohan,207497100682,,,,,,,,,,,,,,,,
153-00726,1,2,153,Shaik Zabiulla,8074769057,860198544748,Male,Shaik Mahammad Rafi,691687951498,,,,,,,,,,,,,,,,
153-00727,1,2,153,M.M.Eswar,9154448090,296081248849,Male,Gangadhar,296081248849,,,,,,,,,,,,,,,,
153-00728,1,2,153,K Manjunath,9515123264,537344617775,Male,K. Vishnamachari,359456152455,,,,,,,,,,,,,,,,
153-00729,1,2,153,C Umesh,9493623997,905977053281,Male,C. Nagalakshmi,830660376043,,,,,,,,,,,,,,,,
153-00730,1,2,153,B Venkat Sai,9390229909,753525374864,Male,B. Ratnamma,460612980951,,,,,,,,,,,,,,,,
153-00731,1,2,153,M Jaya Prakash,9492875481,785809149764,Male,H. Devamma,725582088942,,,,,,,,,,,,,,,,
153-00732,1,2,153,T Abdul Rahaman,8897917750,615628622178,Male,Shaik Naseema,218298442435,,,,,,,,,,,,,,,,
153-00733,1,2,153,M Eeresh,9581823774,326836393506,Male,M Gayathri,903770223194,,,,,,,,,,,,,,,,
153-00734,1,2,153,Y Yanganna Chowdary,9441764457,819590030242,Male,Y Sreelatha,485575444013,,,,,,,,,,,,,,,,
153-00735,1,2,153,S Ismail,8886223217,747603850920,Male,Rasool Bee,635388303254,,,,,,,,,,,,,,,,
153-00736,1,2,153,J Pavan Kumar,9493961556,383737429382,Male,G Shantha,946557023220,,,,,,,,,,,,,,,,
153-00737,1,2,153,G Shantha,9493961556,946557023220,Female,J Pavan Kumar,383737429382,,,,,,,,,,,,,,,,
153-00738,1,2,153,S Nawazuddin,6302093800,593569333438,Male,Asmath Bee,674108749376,,,,,,,,,,,,,,,,
153-00739,1,2,153,D Shabber Basha,9866647075,900726372260,Male,D. Shashimi,654746987449,,,,,,,,,,,,,,,,
153-00740,1,2,153,K Vasseem,7337259513,654810840544,Male,K Imam Sab,673511412432,,,,,,,,,,,,,,,,
153-00741,1,2,153,B.S Mohammad,9110786325,477386989177,Male,Shaik Haseena,793049032083,,,,,,,,,,,,,,,,
153-00742,1,2,153,S Mohammad Asif,9866958861,590526425621,Male,S Mahaboob Basha,332191720964,,,,,,,,,,,,,,,,
153-00743,1,2,153,S Jafar Sadi vali,9177395744,327382295394,Male,S Kowsar Jan,389424938928,,,,,,,,,,,,,,,,
153-00744,1,2,153,P Sai Charan,8919955659,789305785031,Male,R Giri Prasad,246460524295,,,,,,,,,,,,,,,,
153-00745,1,2,153,T Hydervali,9515917034,280898469641,Male,T. Kasim Babu,903426912311,,,,,,,,,,,,,,,,
153-00746,1,2,153,T Ibrahim Khaleel,897211787,977263687220,Male,Tadipatri Bee,336389683135,,,,,,,,,,,,,,,,
153-00747,1,2,153,N Sreekash,8374867057,330557067697,Male,N Thirupathi,518938356002,,,,,,,,,,,,,,,,
153-00748,1,2,153,S Mohammad rafi,9849743132,744386989177,Male,S. Razia,727608182497,,,,,,,,,,,,,,,,
153-00749,1,2,153,Golla Sreedevi,9676427420,530051079028,Female,Golla Narasimhulu,933749759266,,,,,,,,,,,,,,,,
153-00750,1,2,153,Palthya Vasanth Naik,9885388583,885066805651,Male,Ramavath Sarala,987670940616,,,,,,,,,,,,,,,,
153-00751,1,2,153,Bukka Cherila Seetamma,9912908874,422758307724,Female,V. Lakshmi,,,,,,,,,,,,,,,,,
153-00752,1,2,153,S Shameer Basha,6305378438,435854646627,Male,Shaik Shakeera,323970538743,,,,,,,,,,,,,,,,
153-00753,1,2,153,Pujari Naga Raju,9502333620,766859899174,Male,P Sumangali,699099065881,,,,,,,,,,,,,,,,
153-00754,1,2,153,Golla Narashimhulu,9381413496,933749759266,Male,Golla Sreedevi,530051079028,,,,,,,,,,,,,,,,
153-00755,1,2,153,Pulivendula Sreenivas Reddy,9652302562,797007966163,Male,P. Lavanya,582661365501,,,,,,,,,,,,,,,,
153-00756,1,2,153,Asam Somashekhar Reddy,9652302562,939532046646,Male,I. Saraswathi,352068191665,,,,,,,,,,,,,,,,
153-00757,1,2,153,Cheruvu Sai Baba,9490433255,940908019694,Male,Cheruvu Sujatha,532933444964,,,,,,,,,,,,,,,,
153-00758,1,2,153,Putluru Sunil,9515999978,885507580121,Male,R. Poornima,674488436788,,,,,,,,,,,,,,,,
153-00759,1,2,153,Gangadhar Ramana,8639193025,851753299933,Male,S. Renuka,930312890187,,,,,,,,,,,,,,,,
153-00760,1,2,153,P Abdul Kalam,7793981871,895677423999,Male,P. Ayesha,729725160610,,,,,,,,,,,,,,,,
,,,,,,,,,,,,,,,,,,,,,,,,,
,,,,,,,,,,,,,,,,,,,,,,,,,
,,,,,,,,,,,,,,,,,,,,,,,,,
,,,,,,,,,,,,,,,,,,,,,,,,,
,,,,,,,,,,,,,,,,,,,,,,,,,
,,,,,,,,,,,,,,,,,,,,,,,,,
,,,,,,,,,,,,,,,,,,,,,,,,,
,,,,,,,,,,,,,,,,,,,,,,,,,
,,,,,,,,,,,,,,,,,,,,,,,,,
,,,,,,,,,,,,,,,,,,,,,,,,,
,,,,,,,,,,,,,,,,,,,,,,,,,
,,,,,,,,,,,,,,,,,,,,,,,,,
,,,,,,,,,,,,,,,,,,,,,,,,,
,,,,,,,,,,,,,,,,,,,,,,,,,
,,,,,,,,,,,,,,,,,,,,,,,,,
,,,,,,,,,,,,,,,,,,,,,,,,,
,,,,,,,,,,,,,,,,,,,,,,,,,
,,,,,,,,,,,,,,,,,,,,,,,,,
,,,,,,,,,,,,,,,,,,,,,,,,,
,,,,,,,,,,,,,,,,,,,,,,,,,
,,,,,,,,,,,,,,,,,,,,,,,,,
,,,,,,,,,,,,,,,,,,,,,,,,,
,,,,,,,,,,,,,,,,,,,,,,,,,
,,,,,,,,,,,,,,,,,,,,,,,,,
,,,,,,,,,,,,,,,,,,,,,,,,,
,,,,,,,,,,,,,,,,,,,,,,,,,
,,,,,,,,,,,,,,,,,,,,,,,,,
,,,,,,,,,,,,,,,,,,,,,,,,,
,,,,,,,,,,,,,,,,,,,,,,,,,
,,,,,,,,,,,,,,,,,,,,,,,,,
,,,,,,,,,,,,,,,,,,,,,,,,,
,,,,,,,,,,,,,,,,,,,,,,,,,
,,,,,,,,,,,,,,,,,,,,,,,,,
,,,,,,,,,,,,,,,,,,,,,,,,,
,,,,,,,,,,,,,,,,,,,,,,,,,
,,,,,,,,,,,,,,,,,,,,,,,,,
,,,,,,,,,,,,,,,,,,,,,,,,,
,,,,,,,,,,,,,,,,,,,,,,,,,
,,,,,,,,,,,,,,,,,,,,,,,,,
,,,,,,,,,,,,,,,,,,,,,,,,,
,,,,,,,,,,,,,,,,,,,,,,,,,
,,,,,,,,,,,,,,,,,,,,,,,,,
,,,,,,,,,,,,,,,,,,,,,,,,,
,,,,,,,,,,,,,,,,,,,,,,,,,
,,,,,,,,,,,,,,,,,,,,,,,,,
,,,,,,,,,,,,,,,,,,,,,,,,,
,,,,,,,,,,,,,,,,,,,,,,,,,
,,,,,,,,,,,,,,,,,,,,,,,,,
,,,,,,,,,,,,,,,,,,,,,,,,,
,,,,,,,,,,,,,,,,,,,,,,,,,
,,,,,,,,,,,,,,,,,,,,,,,,,
,,,,,,,,,,,,,,,,,,,,,,,,,
,,,,,,,,,,,,,,,,,,,,,,,,,
,,,,,,,,,,,,,,,,,,,,,,,,,
,,,,,,,,,,,,,,,,,,,,,,,,,
,,,,,,,,,,,,,,,,,,,,,,,,,
,,,,,,,,,,,,,,,,,,,,,,,,,
,,,,,,,,,,,,,,,,,,,,,,,,,
,,,,,,,,,,,,,,,,,,,,,,,,,
,,,,,,,,,,,,,,,,,,,,,,,,,
,,,,,,,,,,,,,,,,,,,,,,,,,
,,,,,,,,,,,,,,,,,,,,,,,,,
,,,,,,,,,,,,,,,,,,,,,,,,,
,,,,,,,,,,,,,,,,,,,,,,,,,
,,,,,,,,,,,,,,,,,,,,,,,,,
,,,,,,,,,,,,,,,,,,,,,,,,,
,,,,,,,,,,,,,,,,,,,,,,,,,
,,,,,,,,,,,,,,,,,,,,,,,,,
,,,,,,,,,,,,,,,,,,,,,,,,,
,,,,,,,,,,,,,,,,,,,,,,,,,
,,,,,,,,,,,,,,,,,,,,,,,,,
,,,,,,,,,,,,,,,,,,,,,,,,,
,,,,,,,,,,,,,,,,,,,,,,,,,
,,,,,,,,,,,,,,,,,,,,,,,,,
,,,,,,,,,,,,,,,,,,,,,,,,,
,,,,,,,,,,,,,,,,,,,,,,,,,
,,,,,,,,,,,,,,,,,,,,,,,,,
,,,,,,,,,,,,,,,,,,,,,,,,,
,,,,,,,,,,,,,,,,,,,,,,,,,
,,,,,,,,,,,,,,,,,,,,,,,,,
,,,,,,,,,,,,,,,,,,,,,,,,,
,,,,,,,,,,,,,,,,,,,,,,,,,
,,,,,,,,,,,,,,,,,,,,,,,,,
,,,,,,,,,,,,,,,,,,,,,,,,,
,,,,,,,,,,,,,,,,,,,,,,,,,
,,,,,,,,,,,,,,,,,,,,,,,,,
,,,,,,,,,,,,,,,,,,,,,,,,,
,,,,,,,,,,,,,,,,,,,,,,,,,
,,,,,,,,,,,,,,,,,,,,,,,,,
,,,,,,,,,,,,,,,,,,,,,,,,,
,,,,,,,,,,,,,,,,,,,,,,,,,
,,,,,,,,,,,,,,,,,,,,,,,,,
,,,,,,,,,,,,,,,,,,,,,,,,,
,,,,,,,,,,,,,,,,,,,,,,,,,
,,,,,,,,,,,,,,,,,,,,,,,,,
,,,,,,,,,,,,,,,,,,,,,,,,,
,,,,,,,,,,,,,,,,,,,,,,,,,
,,,,,,,,,,,,,,,,,,,,,,,,,
,,,,,,,,,,,,,,,,,,,,,,,,,
,,,,,,,,,,,,,,,,,,,,,,,,,
,,,,,,,,,,,,,,,,,,,,,,,,,
,,,,,,,,,,,,,,,,,,,,,,,,,
,,,,,,,,,,,,,,,,,,,,,,,,,
,,,,,,,,,,,,,,,,,,,,,,,,,
,,,,,,,,,,,,,,,,,,,,,,,,,
,,,,,,,,,,,,,,,,,,,,,,,,,
,,,,,,,,,,,,,,,,,,,,,,,,,
,,,,,,,,,,,,,,,,,,,,,,,,,
,,,,,,,,,,,,,,,,,,,,,,,,,
,,,,,,,,,,,,,,,,,,,,,,,,,
,,,,,,,,,,,,,,,,,,,,,,,,,
,,,,,,,,,,,,,,,,,,,,,,,,,
,,,,,,,,,,,,,,,,,,,,,,,,,
,,,,,,,,,,,,,,,,,,,,,,,,,
,,,,,,,,,,,,,,,,,,,,,,,,,
,,,,,,,,,,,,,,,,,,,,,,,,,
,,,,,,,,,,,,,,,,,,,,,,,,,
,,,,,,,,,,,,,,,,,,,,,,,,,
,,,,,,,,,,,,,,,,,,,,,,,,,
,,,,,,,,,,,,,,,,,,,,,,,,,
,,,,,,,,,,,,,,,,,,,,,,,,,
,,,,,,,,,,,,,,,,,,,,,,,,,
,,,,,,,,,,,,,,,,,,,,,,,,,
,,,,,,,,,,,,,,,,,,,,,,,,,
,,,,,,,,,,,,,,,,,,,,,,,,,
,,,,,,,,,,,,,,,,,,,,,,,,,
,,,,,,,,,,,,,,,,,,,,,,,,,
,,,,,,,,,,,,,,,,,,,,,,,,,
,,,,,,,,,,,,,,,,,,,,,,,,,
,,,,,,,,,,,,,,,,,,,,,,,,,
,,,,,,,,,,,,,,,,,,,,,,,,,
,,,,,,,,,,,,,,,,,,,,,,,,,
,,,,,,,,,,,,,,,,,,,,,,,,,
,,,,,,,,,,,,,,,,,,,,,,,,,
,,,,,,,,,,,,,,,,,,,,,,,,,
,,,,,,,,,,,,,,,,,,,,,,,,,
,,,,,,,,,,,,,,,,,,,,,,,,,
,,,,,,,,,,,,,,,,,,,,,,,,,
,,,,,,,,,,,,,,,,,,,,,,,,,
,,,,,,,,,,,,,,,,,,,,,,,,,
,,,,,,,,,,,,,,,,,,,,,,,,,
,,,,,,,,,,,,,,,,,,,,,,,,,
,,,,,,,,,,,,,,,,,,,,,,,,,
,,,,,,,,,,,,,,,,,,,,,,,,,
,,,,,,,,,,,,,,,,,,,,,,,,,
,,,,,,,,,,,,,,,,,,,,,,,,,
,,,,,,,,,,,,,,,,,,,,,,,,,
,,,,,,,,,,,,,,,,,,,,,,,,,
,,,,,,,,,,,,,,,,,,,,,,,,,
,,,,,,,,,,,,,,,,,,,,,,,,,
,,,,,,,,,,,,,,,,,,,,,,,,,
,,,,,,,,,,,,,,,,,,,,,,,,,
,,,,,,,,,,,,,,,,,,,,,,,,,
,,,,,,,,,,,,,,,,,,,,,,,,,
,,,,,,,,,,,,,,,,,,,,,,,,,
,,,,,,,,,,,,,,,,,,,,,,,,,
,,,,,,,,,,,,,,,,,,,,,,,,,
,,,,,,,,,,,,,,,,,,,,,,,,,
,,,,,,,,,,,,,,,,,,,,,,,,,
,,,,,,,,,,,,,,,,,,,,,,,,,
,,,,,,,,,,,,,,,,,,,,,,,,,
,,,,,,,,,,,,,,,,,,,,,,,,,
,,,,,,,,,,,,,,,,,,,,,,,,,
,,,,,,,,,,,,,,,,,,,,,,,,,
,,,,,,,,,,,,,,,,,,,,,,,,,
,,,,,,,,,,,,,,,,,,,,,,,,,
,,,,,,,,,,,,,,,,,,,,,,,,,
,,,,,,,,,,,,,,,,,,,,,,,,,
,,,,,,,,,,,,,,,,,,,,,,,,,
,,,,,,,,,,,,,,,,,,,,,,,,,
,,,,,,,,,,,,,,,,,,,,,,,,,
,,,,,,,,,,,,,,,,,,,,,,,,,
,,,,,,,,,,,,,,,,,,,,,,,,,
,,,,,,,,,,,,,,,,,,,,,,,,,
,,,,,,,,,,,,,,,,,,,,,,,,,
,,,,,,,,,,,,,,,,,,,,,,,,,
,,,,,,,,,,,,,,,,,,,,,,,,,
,,,,,,,,,,,,,,,,,,,,,,,,,
,,,,,,,,,,,,,,,,,,,,,,,,,
,,,,,,,,,,,,,,,,,,,,,,,,,
,,,,,,,,,,,,,,,,,,,,,,,,,
,,,,,,,,,,,,,,,,,,,,,,,,,
,,,,,,,,,,,,,,,,,,,,,,,,,
,,,,,,,,,,,,,,,,,,,,,,,,,
,,,,,,,,,,,,,,,,,,,,,,,,,
,,,,,,,,,,,,,,,,,,,,,,,,,
,,,,,,,,,,,,,,,,,,,,,,,,,
,,,,,,,,,,,,,,,,,,,,,,,,,
,,,,,,,,,,,,,,,,,,,,,,,,,
,,,,,,,,,,,,,,,,,,,,,,,,,
,,,,,,,,,,,,,,,,,,,,,,,,,
,,,,,,,,,,,,,,,,,,,,,,,,,
,,,,,,,,,,,,,,,,,,,,,,,,,
,,,,,,,,,,,,,,,,,,,,,,,,,
,,,,,,,,,,,,,,,,,,,,,,,,,
,,,,,,,,,,,,,,,,,,,,,,,,,
,,,,,,,,,,,,,,,,,,,,,,,,,
,,,,,,,,,,,,,,,,,,,,,,,,,
,,,,,,,,,,,,,,,,,,,,,,,,,
,,,,,,,,,,,,,,,,,,,,,,,,,
,,,,,,,,,,,,,,,,,,,,,,,,,
,,,,,,,,,,,,,,,,,,,,,,,,,
,,,,,,,,,,,,,,,,,,,,,,,,,
,,,,,,,,,,,,,,,,,,,,,,,,,
,,,,,,,,,,,,,,,,,,,,,,,,,
,,,,,,,,,,,,,,,,,,,,,,,,,
,,,,,,,,,,,,,,,,,,,,,,,,,
,,,,,,,,,,,,,,,,,,,,,,,,,
,,,,,,,,,,,,,,,,,,,,,,,,,
,,,,,,,,,,,,,,,,,,,,,,,,,
,,,,,,,,,,,,,,,,,,,,,,,,,
,,,,,,,,,,,,,,,,,,,,,,,,,
,,,,,,,,,,,,,,,,,,,,,,,,,
,,,,,,,,,,,,,,,,,,,,,,,,,
,,,,,,,,,,,,,,,,,,,,,,,,,
,,,,,,,,,,,,,,,,,,,,,,,,,
,,,,,,,,,,,,,,,,,,,,,,,,,
,,,,,,,,,,,,,,,,,,,,,,,,,
,,,,,,,,,,,,,,,,,,,,,,,,,
,,,,,,,,,,,,,,,,,,,,,,,,,
,,,,,,,,,,,,,,,,,,,,,,,,,
,,,,,,,,,,,,,,,,,,,,,,,,,
,,,,,,,,,,,,,,,,,,,,,,,,,
,,,,,,,,,,,,,,,,,,,,,,,,,
,,,,,,,,,,,,,,,,,,,,,,,,,
,,,,,,,,,,,,,,,,,,,,,,,,,
,,,,,,,,,,,,,,,,,,,,,,,,,
,,,,,,,,,,,,,,,,,,,,,,,,,
,,,,,,,,,,,,,,,,,,,,,,,,,
,,,,,,,,,,,,,,,,,,,,,,,,,
,,,,,,,,,,,,,,,,,,,,,,,,,
,,,,,,,,,,,,,,,,,,,,,,,,,
,,,,,,,,,,,,,,,,,,,,,,,,,
,,,,,,,,,,,,,,,,,,,,,,,,,
,,,,,,,,,,,,,,,,,,,,,,,,,
