[
  {
    "id": 53,
    "pcid": 1,
    "text": "Rampachodavaram"
  },
  {
    "id": 11,
    "pcid": 1,
    "text": "Kuruupam (ST)"
  },
  {
    "id": 29,
    "pcid": 1,
    "text": "Paderu (ST)"
  },
  {
    "id": 12,
    "pcid": 1,
    "text": "Parvathipuram (SC)"
  },
  {
    "id": 10,
    "pcid": 1,
    "text": "Palakonda (ST)"
  },
  {
    "id": 13,
    "pcid": 1,
    "text": "Salur (ST)"
  },
  {
    "id": 28,
    "pcid": 1,
    "text": "Araku Valley (ST)"
  },
  {
    "id": 6,
    "pcid": 2,
    "text": "Amadalavalasa"
  },
  {
    "id": 4,
    "pcid": 2,
    "text": "Pathapatnam"
  },
  {
    "id": 1,
    "pcid": 2,
    "text": "Ichchapuram"
  },
  {
    "id": 2,
    "pcid": 2,
    "text": "Palasa"
  },
  {
    "id": 8,
    "pcid": 2,
    "text": "Narasannapeta"
  },
  {
    "id": 3,
    "pcid": 2,
    "text": "Tekkali"
  },
  {
    "id": 5,
    "pcid": 2,
    "text": "Srikakulam"
  },
  {
    "id": 7,
    "pcid": 3,
    "text": "Etcherla"
  },
  {
    "id": 15,
    "pcid": 3,
    "text": "Cheepurupalli"
  },
  {
    "id": 16,
    "pcid": 3,
    "text": "Gajapathinagaram"
  },
  {
    "id": 14,
    "pcid": 3,
    "text": "Bobbili"
  },
  {
    "id": 18,
    "pcid": 3,
    "text": "Vizianagaram"
  },
  {
    "id": 17,
    "pcid": 3,
    "text": "Nellimarla"
  },
  {
    "id": 9,
    "pcid": 3,
    "text": "Rajam (SC)"
  },
  {
    "id": 23,
    "pcid": 4,
    "text": "Vishakhapatnam North"
  },
  {
    "id": 19,
    "pcid": 4,
    "text": "Srungavarapukota"
  },
  {
    "id": 22,
    "pcid": 4,
    "text": "Vishakhapatnam South"
  },
  {
    "id": 21,
    "pcid": 4,
    "text": "Vishakhapatnam East"
  },
  {
    "id": 24,
    "pcid": 4,
    "text": "Vishakhapatnam West"
  },
  {
    "id": 20,
    "pcid": 4,
    "text": "Bhimili"
  },
  {
    "id": 25,
    "pcid": 4,
    "text": "Gajuwaka"
  },
  {
    "id": 26,
    "pcid": 5,
    "text": "Chodavaram"
  },
  {
    "id": 32,
    "pcid": 5,
    "text": "Yelamanchali"
  },
  {
    "id": 27,
    "pcid": 5,
    "text": "Madugula"
  },
  {
    "id": 34,
    "pcid": 5,
    "text": "Narsipatnam"
  },
  {
    "id": 33,
    "pcid": 5,
    "text": "Payakaraopeta (SC)"
  },
  {
    "id": 31,
    "pcid": 5,
    "text": "Pendurthi"
  },
  {
    "id": 30,
    "pcid": 5,
    "text": "Anakapalle"
  },
  {
    "id": 39,
    "pcid": 6,
    "text": "Peddapuram"
  },
  {
    "id": 36,
    "pcid": 6,
    "text": "Prathipadu"
  },
  {
    "id": 35,
    "pcid": 6,
    "text": "Tuni"
  },
  {
    "id": 52,
    "pcid": 6,
    "text": "Jaggampeta"
  },
  {
    "id": 41,
    "pcid": 6,
    "text": "Kakinada City"
  },
  {
    "id": 37,
    "pcid": 6,
    "text": "Pithapuram"
  },
  {
    "id": 38,
    "pcid": 6,
    "text": "Kakinada Rural"
  },
  {
    "id": 48,
    "pcid": 7,
    "text": "Mandapeta"
  },
  {
    "id": 46,
    "pcid": 7,
    "text": "Gannavaram (SC)"
  },
  {
    "id": 43,
    "pcid": 7,
    "text": "Mummidivaram"
  },
  {
    "id": 44,
    "pcid": 7,
    "text": "Amalapuram (SC)"
  },
  {
    "id": 45,
    "pcid": 7,
    "text": "Razole"
  },
  {
    "id": 47,
    "pcid": 7,
    "text": "Kothapeta"
  },
  {
    "id": 42,
    "pcid": 7,
    "text": "Ramachandrapuram"
  },
  {
    "id": 54,
    "pcid": 8,
    "text": "Kovvur"
  },
  {
    "id": 55,
    "pcid": 8,
    "text": "Nidadavole"
  },
  {
    "id": 66,
    "pcid": 8,
    "text": "Gopalapuram (SC)"
  },
  {
    "id": 40,
    "pcid": 8,
    "text": "Anaparthy"
  },
  {
    "id": 50,
    "pcid": 8,
    "text": "Rajahmundry City"
  },
  {
    "id": 51,
    "pcid": 8,
    "text": "Rajahmundry Rural"
  },
  {
    "id": 49,
    "pcid": 8,
    "text": "Rajanagaram"
  },
  {
    "id": 58,
    "pcid": 9,
    "text": "Narasapuram"
  },
  {
    "id": 62,
    "pcid": 9,
    "text": "Tadepalligudem"
  },
  {
    "id": 61,
    "pcid": 9,
    "text": "Tanuku"
  },
  {
    "id": 60,
    "pcid": 9,
    "text": "Undi"
  },
  {
    "id": 56,
    "pcid": 9,
    "text": "Achanta"
  },
  {
    "id": 57,
    "pcid": 9,
    "text": "Palakol"
  },
  {
    "id": 59,
    "pcid": 9,
    "text": "Bhimavaram"
  },
  {
    "id": 73,
    "pcid": 10,
    "text": "Kaikalur"
  },
  {
    "id": 70,
    "pcid": 10,
    "text": "Nuzvid"
  },
  {
    "id": 63,
    "pcid": 10,
    "text": "Unguturu"
  },
  {
    "id": 67,
    "pcid": 10,
    "text": "Polavaram (ST)"
  },
  {
    "id": 65,
    "pcid": 10,
    "text": "Eluru"
  },
  {
    "id": 68,
    "pcid": 10,
    "text": "Chintalapudi (SC)"
  },
  {
    "id": 64,
    "pcid": 10,
    "text": "Denduluru"
  },
  {
    "id": 72,
    "pcid": 11,
    "text": "Gudivada"
  },
  {
    "id": 71,
    "pcid": 11,
    "text": "Gannavaram"
  },
  {
    "id": 78,
    "pcid": 11,
    "text": "Penamaluru"
  },
  {
    "id": 77,
    "pcid": 11,
    "text": "Pamarru (SC)"
  },
  {
    "id": 76,
    "pcid": 11,
    "text": "Avanigadda"
  },
  {
    "id": 75,
    "pcid": 11,
    "text": "Machilipatnam"
  },
  {
    "id": 74,
    "pcid": 11,
    "text": "Pedana"
  },
  {
    "id": 69,
    "pcid": 12,
    "text": "Tiruvuru (SC)"
  },
  {
    "id": 80,
    "pcid": 12,
    "text": "Vijayawada Central"
  },
  {
    "id": 81,
    "pcid": 12,
    "text": "Vijayawada East"
  },
  {
    "id": 79,
    "pcid": 12,
    "text": "Vijayawada West"
  },
  {
    "id": 82,
    "pcid": 12,
    "text": "Mylavaram"
  },
  {
    "id": 83,
    "pcid": 12,
    "text": "Nandigama (SC)"
  },
  {
    "id": 84,
    "pcid": 12,
    "text": "Jaggayyapeta"
  },
  {
    "id": 88,
    "pcid": 13,
    "text": "Ponnuru"
  },
  {
    "id": 87,
    "pcid": 13,
    "text": "Mangalagiri"
  },
  {
    "id": 86,
    "pcid": 13,
    "text": "Tadikonda (SC)"
  },
  {
    "id": 91,
    "pcid": 13,
    "text": "Tenali"
  },
  {
    "id": 93,
    "pcid": 13,
    "text": "Prathipadu (sc)"
  },
  {
    "id": 95,
    "pcid": 13,
    "text": "Guntur East"
  },
  {
    "id": 94,
    "pcid": 13,
    "text": "Guntur West"
  },
  {
    "id": 101,
    "pcid": 14,
    "text": "Macherla"
  },
  {
    "id": 100,
    "pcid": 14,
    "text": "Gurajala"
  },
  {
    "id": 97,
    "pcid": 14,
    "text": "Narasaraopet"
  },
  {
    "id": 85,
    "pcid": 14,
    "text": "Pedakurapadu"
  },
  {
    "id": 99,
    "pcid": 14,
    "text": "Vinukonda"
  },
  {
    "id": 96,
    "pcid": 14,
    "text": "Chilakaluripet"
  },
  {
    "id": 98,
    "pcid": 14,
    "text": "Sattenapalle"
  },
  {
    "id": 105,
    "pcid": 15,
    "text": "Addanki"
  },
  {
    "id": 104,
    "pcid": 15,
    "text": "Parchur"
  },
  {
    "id": 90,
    "pcid": 15,
    "text": "Repalle"
  },
  {
    "id": 92,
    "pcid": 15,
    "text": "Bapatla"
  },
  {
    "id": 107,
    "pcid": 15,
    "text": "Santhanuthalapadu (SC)"
  },
  {
    "id": 106,
    "pcid": 15,
    "text": "Chirala"
  },
  {
    "id": 89,
    "pcid": 15,
    "text": "Vemuru"
  },
  {
    "id": 111,
    "pcid": 16,
    "text": "Markapuram"
  },
  {
    "id": 110,
    "pcid": 16,
    "text": "Kondapi (SC)"
  },
  {
    "id": 113,
    "pcid": 16,
    "text": "Kanigiri"
  },
  {
    "id": 108,
    "pcid": 16,
    "text": "Ongole"
  },
  {
    "id": 112,
    "pcid": 16,
    "text": "Giddalur"
  },
  {
    "id": 103,
    "pcid": 16,
    "text": "Darsi"
  },
  {
    "id": 102,
    "pcid": 16,
    "text": "Yerragondapalem (SC)"
  },
  {
    "id": 141,
    "pcid": 17,
    "text": "Dhone"
  },
  {
    "id": 138,
    "pcid": 17,
    "text": "Panyam"
  },
  {
    "id": 139,
    "pcid": 17,
    "text": "Nandyal"
  },
  {
    "id": 140,
    "pcid": 17,
    "text": "Banaganapalle"
  },
  {
    "id": 134,
    "pcid": 17,
    "text": "Allagadda"
  },
  {
    "id": 135,
    "pcid": 17,
    "text": "Srisailam"
  },
  {
    "id": 136,
    "pcid": 17,
    "text": "Nandikotkur (SC)"
  },
  {
    "id": 147,
    "pcid": 18,
    "text": "Alur"
  },
  {
    "id": 137,
    "pcid": 18,
    "text": "Kurnool"
  },
  {
    "id": 143,
    "pcid": 18,
    "text": "Kodumur"
  },
  {
    "id": 144,
    "pcid": 18,
    "text": "Yemmiganur"
  },
  {
    "id": 145,
    "pcid": 18,
    "text": "Mantralayam"
  },
  {
    "id": 146,
    "pcid": 18,
    "text": "Adoni"
  },
  {
    "id": 142,
    "pcid": 18,
    "text": "Pattikonda"
  },
  {
    "id": 151,
    "pcid": 19,
    "text": "Tadpatri"
  },
  {
    "id": 152,
    "pcid": 19,
    "text": "Singanamala (SC)"
  },
  {
    "id": 150,
    "pcid": 19,
    "text": "Guntakal"
  },
  {
    "id": 149,
    "pcid": 19,
    "text": "Uravakonda"
  },
  {
    "id": 148,
    "pcid": 19,
    "text": "Rayadurg"
  },
  {
    "id": 154,
    "pcid": 19,
    "text": "Kalyandurg"
  },
  {
    "id": 153,
    "pcid": 19,
    "text": "Anantapur Urban"
  },
  {
    "id": 155,
    "pcid": 20,
    "text": "Raptadu"
  },
  {
    "id": 157,
    "pcid": 20,
    "text": "Hindupur"
  },
  {
    "id": 161,
    "pcid": 20,
    "text": "Kadiri"
  },
  {
    "id": 158,
    "pcid": 20,
    "text": "Penukonda"
  },
  {
    "id": 159,
    "pcid": 20,
    "text": "Puttaparthi"
  },
  {
    "id": 156,
    "pcid": 20,
    "text": "Madakasira (SC)"
  },
  {
    "id": 160,
    "pcid": 20,
    "text": "Dharamavaram"
  },
  {
    "id": 130,
    "pcid": 21,
    "text": "Kamalapuram"
  },
  {
    "id": 129,
    "pcid": 21,
    "text": "Pulivendula"
  },
  {
    "id": 132,
    "pcid": 21,
    "text": "Proddatur"
  },
  {
    "id": 126,
    "pcid": 21,
    "text": "Kadapa"
  },
  {
    "id": 124,
    "pcid": 21,
    "text": "Badvel (SC)"
  },
  {
    "id": 133,
    "pcid": 21,
    "text": "Mydukur"
  },
  {
    "id": 131,
    "pcid": 21,
    "text": "Jammalamadugu"
  },
  {
    "id": 118,
    "pcid": 22,
    "text": "Nellore Rural"
  },
  {
    "id": 123,
    "pcid": 22,
    "text": "Udayagiri"
  },
  {
    "id": 114,
    "pcid": 22,
    "text": "Kavali"
  },
  {
    "id": 115,
    "pcid": 22,
    "text": "Atmakur"
  },
  {
    "id": 116,
    "pcid": 22,
    "text": "Kovur"
  },
  {
    "id": 117,
    "pcid": 22,
    "text": "Nellore City"
  },
  {
    "id": 109,
    "pcid": 22,
    "text": "Kandukur"
  },
  {
    "id": 122,
    "pcid": 23,
    "text": "Venkatagiri"
  },
  {
    "id": 121,
    "pcid": 23,
    "text": "Sullurpeta (SC)"
  },
  {
    "id": 119,
    "pcid": 23,
    "text": "Sarvepalli"
  },
  {
    "id": 120,
    "pcid": 23,
    "text": "Gudur (SC)"
  },
  {
    "id": 169,
    "pcid": 23,
    "text": "Satyavedu (SC)"
  },
  {
    "id": 167,
    "pcid": 23,
    "text": "Tirupati"
  },
  {
    "id": 168,
    "pcid": 23,
    "text": "Srikalahasti"
  },
  {
    "id": 127,
    "pcid": 24,
    "text": "Kodur (SC)"
  },
  {
    "id": 162,
    "pcid": 24,
    "text": "Thamballapalle"
  },
  {
    "id": 128,
    "pcid": 24,
    "text": "Rayachoti"
  },
  {
    "id": 125,
    "pcid": 24,
    "text": "Rajampeta"
  },
  {
    "id": 165,
    "pcid": 24,
    "text": "Punganur"
  },
  {
    "id": 163,
    "pcid": 24,
    "text": "Pileru"
  },
  {
    "id": 164,
    "pcid": 24,
    "text": "Madanapalle"
  },
  {
    "id": 171,
    "pcid": 25,
    "text": "Gangadhara Nellore (SC)"
  },
  {
    "id": 174,
    "pcid": 25,
    "text": "Palamaner"
  },
  {
    "id": 175,
    "pcid": 25,
    "text": "Kuppam"
  },
  {
    "id": 166,
    "pcid": 25,
    "text": "Chandragiri"
  },
  {
    "id": 170,
    "pcid": 25,
    "text": "Nagari"
  },
  {
    "id": 173,
    "pcid": 25,
    "text": "Puthalapattu (SC)"
  },
  {
    "id": 172,
    "pcid": 25,
    "text": "Chittoor"
  }
]
