{
   "1": [
      {
         "district_name": "Anantapur",
         "id": 2
      },
      {
         "district_name": "Chittoor",
         "id": 3
      },
      {
         "district_name": "East Godavari",
         "id": 4
      },
      {
         "district_name": "Guntur",
         "id": 5
      },
      {
         "district_name": "Kadapa",
         "id": 7
      },
      {
         "district_name": "Krishna",
         "id": 10
      },
      {
         "district_name": "Kurnool",
         "id": 11
      },
      {
         "district_name": "Nellore",
         "id": 15
      },
      {
         "district_name": "Prakasam",
         "id": 17
      },
      {
         "district_name": "Srikakulam",
         "id": 19
      },
      {
         "district_name": "Visakhapatnam",
         "id": 20
      },
      {
         "district_name": "Vizianagaram",
         "id": 21
      },
      {
         "district_name": "West Godavari",
         "id": 23
      }
   ],
   "2": [
      {
         "district_name": "Adilabad",
         "id": 1
      },
      {
         "district_name": "Hyderabad",
         "id": 6
      },
      {
         "district_name": "Karimnagar",
         "id": 8
      },
      {
         "district_name": "Khammam",
         "id": 9
      },
      {
         "district_name": "Mahabubnagar",
         "id": 12
      },
      {
         "district_name": "Medak",
         "id": 13
      },
      {
         "district_name": "Nalgonda",
         "id": 14
      },
      {
         "district_name": "Nizamabad",
         "id": 16
      },
      {
         "district_name": "Rangareddy",
         "id": 18
      },
      {
         "district_name": "Warangal",
         "id": 22
      }
   ],
   "3": [
      {
         "district_name": "Bijapur",
         "id": 24
      },
      {
         "district_name": "Mysore",
         "id": 25
      },
      {
         "district_name": "Hassan",
         "id": 26
      },
      {
         "district_name": "Chitradurga",
         "id": 27
      },
      {
         "district_name": "Chamaraja Nagar",
         "id": 28
      },
      {
         "district_name": "Udupi",
         "id": 29
      },
      {
         "district_name": "Shimoga",
         "id": 30
      },
      {
         "district_name": "Uttara Kannada",
         "id": 31
      },
      {
         "district_name": "Bidar",
         "id": 32
      },
      {
         "district_name": "Haveri",
         "id": 33
      },
      {
         "district_name": "Bangalore Rural",
         "id": 34
      },
      {
         "district_name": "Belgaum",
         "id": 35
      },
      {
         "district_name": "Raichur",
         "id": 36
      },
      {
         "district_name": "Bellary",
         "id": 37
      },
      {
         "district_name": "Chikmagalur",
         "id": 38
      },
      {
         "district_name": "Koppal",
         "id": 39
      },
      {
         "district_name": "Dharwad",
         "id": 40
      },
      {
         "district_name": "Kolar",
         "id": 41
      },
      {
         "district_name": "Davanagere",
         "id": 42
      },
      {
         "district_name": "Mandya",
         "id": 43
      },
      {
         "district_name": "Dakshina Kannada",
         "id": 44
      },
      {
         "district_name": "Kodagu",
         "id": 45
      },
      {
         "district_name": "Tumkur",
         "id": 46
      },
      {
         "district_name": "Bagalkot",
         "id": 47
      },
      {
         "district_name": "Gadag",
         "id": 48
      },
      {
         "district_name": "Gulbarga",
         "id": 49
      },
      {
         "district_name": "Bangalore",
         "id": 50
      }
   ]
}