[
 {
   "parliament_constituency_name": "Adilabad"
 },
 {
   "parliament_constituency_name": "Amalapuram"
 },
 {
   "parliament_constituency_name": "Anakapalli"
 },
 {
   "parliament_constituency_name": "Anantapur"
 },
 {
   "parliament_constituency_name": "Araku"
 },
 {
   "parliament_constituency_name": "Bapatla"
 },
 {
   "parliament_constituency_name": "Buvangiri"
 },
 {
   "parliament_constituency_name": "Chevella"
 },
 {
   "parliament_constituency_name": "Chittoor"
 },
 {
   "parliament_constituency_name": "Eluru"
 },
 {
   "parliament_constituency_name": "Guntur"
 },
 {
   "parliament_constituency_name": "Hindupur"
 },
 {
   "parliament_constituency_name": "Hyderbad"
 },
 {
   "parliament_constituency_name": "Kadapa"
 },
 {
   "parliament_constituency_name": "kakinada"
 },
 {
   "parliament_constituency_name": "Karimnagar"
 },
 {
   "parliament_constituency_name": "Khammam"
 },
 {
   "parliament_constituency_name": "Kurnool"
 },
 {
   "parliament_constituency_name": "Machalipatanam"
 },
 {
   "parliament_constituency_name": "Mahabubabad"
 },
 {
   "parliament_constituency_name": "Mahabubnagar"
 },
 {
   "parliament_constituency_name": "Malkajgiri"
 },
 {
   "parliament_constituency_name": "Medak"
 },
 {
   "parliament_constituency_name": "Nagar kurnool"
 },
 {
   "parliament_constituency_name": "Nalgonda"
 },
 {
   "parliament_constituency_name": "Nandyal"
 },
 {
   "parliament_constituency_name": "Narasapuram"
 },
 {
   "parliament_constituency_name": "Narasarao peta"
 },
 {
   "parliament_constituency_name": "Nellore"
 },
 {
   "parliament_constituency_name": "Nellore "
 },
 {
   "parliament_constituency_name": "Nizamabad"
 },
 {
   "parliament_constituency_name": "ongole"
 },
 {
   "parliament_constituency_name": "Peddapalli"
 },
 {
   "parliament_constituency_name": "Rajamandri"
 },
 {
   "parliament_constituency_name": "Rajampeta"
 },
 {
   "parliament_constituency_name": "Secunderabad"
 },
 {
   "parliament_constituency_name": "Srikakulam"
 },
 {
   "parliament_constituency_name": "Tirupathi"
 },
 {
   "parliament_constituency_name": "vijayawada"
 },
 {
   "parliament_constituency_name": "Visakhapatnam"
 },
 {
   "parliament_constituency_name": "Vizianagaram"
 },
 {
   "parliament_constituency_name": "Warangal"
 },
 {
   "parliament_constituency_name": "Zahirabad"
 }
]